Time;Z-Force
59125.684119;19.191876
59125.702934;19.854132
59125.713052;19.953387
59125.724117;19.797731
59125.741208;20.638897
59125.751311;20.710502
59125.762376;19.848477
59125.779147;18.485936
59125.789320;18.203658
59125.800422;17.567631
59125.817023;16.809143
59125.827176;16.721775
59125.838275;16.382641
59125.855082;15.896286
59125.865218;15.900035
59125.877430;15.363549
59125.894972;15.407793
59125.905114;15.068690
59125.916183;15.002854
59125.932842;13.121296
59125.942962;14.668842
59125.954092;14.924880
59125.971095;13.228992
59125.981220;12.976631
59125.992199;12.987553
59126.009024;13.902363
59126.019165;14.242760
59126.036802;13.658571
59126.046916;13.884439
59126.057068;13.742414
59126.068147;13.834131
59126.085126;15.004005
59126.095235;13.355373
59126.106234;13.350010
59126.123022;14.830146
59126.133150;15.198492
59126.144614;14.916588
59126.163085;15.461759
59126.173219;15.108598
59126.184135;15.364169
59126.200842;16.100275
59126.210953;15.880220
59126.221868;15.686396
59126.238879;15.611031
59126.248999;15.549535
59126.260916;15.134530
59126.278909;14.462435
59126.289000;14.971018
59126.300061;14.650145
59126.316949;14.104547
59126.327059;13.897666
59126.338129;13.508712
59126.355031;13.488568
59126.365140;13.342841
59126.376919;15.399357
59126.395262;14.770395
59126.405433;15.177231
59126.416539;14.460464
59126.432983;14.596215
59126.443109;14.993750
59126.454327;14.937780
59126.471064;14.923358
59126.481224;14.813667
59126.492365;14.650094
59126.508941;14.528831
59126.519067;15.101592
59126.530146;15.296473
59126.546897;15.232953
59126.557023;15.752007
59126.568000;15.398164
59126.584934;15.356012
59126.595070;15.460294
59126.606064;15.248360
59126.622876;15.491022
59126.633004;15.582497
59126.644772;15.830843
59126.663168;16.120712
59126.673323;15.984567
59126.684296;16.132707
59126.700956;15.826133
59126.711118;16.073874
59126.722247;16.152868
59126.739034;15.721388
59126.749189;15.581974
59126.760099;15.992196
59126.777087;16.656242
59126.787200;16.049571
59126.798247;15.780749
59126.815096;15.744775
59126.825205;15.731803
59126.836213;15.900234
59126.853087;15.718699
59126.863207;15.563908
59126.874024;15.080142
59126.891031;14.928652
59126.901103;14.525411
59126.912250;14.285337
59126.929109;13.314198
59126.939223;13.099976
59126.956758;12.968761
59126.966866;12.639899
59126.977008;12.660329
59126.988070;12.806488
59127.005075;12.826675
59127.015189;12.779689
59127.026663;13.154576
59127.045165;13.253896
59127.055238;13.353405
59127.066119;13.426948
59127.082843;14.158389
59127.092990;16.459021
59127.104164;15.404857
59127.121065;16.528794
59127.131168;17.411439
59127.142196;17.269208
59127.158939;17.400556
59127.169058;17.271686
59127.187011;15.524916
59127.197162;15.049471
59127.207274;15.368574
59127.218237;15.437537
59127.234970;14.917267
59127.245093;14.784169
59127.256075;14.933007
59127.273214;14.879503
59127.283359;14.638637
59127.295123;14.577903
59127.312900;14.517717
59127.323061;14.491707
59127.334086;14.386155
59127.350932;14.782027
59127.361056;14.182064
59127.372151;14.173975
59127.388838;14.484149
59127.398960;14.412691
59127.411027;14.386869
59127.428959;14.688260
59127.439112;14.560711
59127.450150;14.445374
59127.466852;14.734573
59127.476996;14.640138
59127.488076;14.361924
59127.505221;14.308235
59127.515320;14.254570
59127.526383;14.447292
59127.542860;14.395980
59127.553019;14.344420
59127.570813;14.525533
59127.580952;14.502279
59127.591061;14.830807
59127.602137;14.835486
59127.618898;15.298785
59127.628990;14.957682
59127.639918;15.108012
59127.656964;15.221466
59127.667055;15.302592
59127.678598;14.618309
59127.696878;14.592395
59127.707012;15.052725
59127.717988;14.683386
59127.734948;15.319741
59127.745084;15.081534
59127.756037;14.877251
59127.772962;15.033981
59127.783080;15.150535
59127.795097;15.026766
59127.812942;14.808192
59127.823055;14.962349
59127.834053;15.136290
59127.851061;15.123858
59127.861187;15.326409
59127.872117;15.568172
59127.888995;15.601507
59127.899110;15.595730
59127.910622;15.448648
59127.928966;15.182644
59127.939085;15.035229
59127.950173;14.930971
59127.967144;14.974048
59127.977293;15.044727
59127.988382;14.726422
59128.004858;14.986799
59128.014968;15.233551
59128.025988;15.041428
59128.043262;15.159726
59128.053407;14.927549
59128.073004;14.922518
59128.083126;15.296521
59128.093225;15.010343
59128.104359;14.978974
59128.120957;15.086326
59128.131063;15.346247
59128.142042;15.226682
59128.158851;15.448801
59128.168969;15.253115
59128.179953;15.737856
59128.196982;15.965971
59128.207111;16.247982
59128.218076;16.444560
59128.234952;16.859832
59128.245066;16.569234
59128.256030;16.895335
59128.273182;16.784130
59128.283329;16.637528
59128.294300;16.434785
59128.311104;16.065382
59128.321260;15.869913
59128.332373;15.833156
59128.348877;15.113801
59128.359003;15.045587
59128.370092;14.802815
59128.387305;12.543934
59128.397462;13.595373
59128.408521;12.804693
59128.426860;11.900702
59128.436962;12.128385
59128.448045;12.615568
59128.464906;13.408396
59128.475028;14.374117
59128.486152;14.143934
59128.502872;14.370078
59128.513005;14.648725
59128.524006;14.634639
59128.540869;14.738500
59128.551003;14.982263
59128.562410;14.794772
59128.579145;14.729268
59128.589229;15.195073
59128.600338;14.848469
59128.616868;15.284326
59128.626977;14.656743
59128.637971;14.873238
59128.655268;14.467483
59128.665395;14.560502
59128.676431;14.276064
59128.692904;14.503825
59128.703031;14.426427
59128.714031;14.692237
59128.730929;14.760572
59128.741239;14.939223
59128.754267;15.255829
59128.771091;15.468891
59128.781430;15.473074
59128.794612;15.694508
59128.813147;15.330387
59128.823551;15.067084
59128.836204;15.401055
59128.853215;15.263776
59128.863518;15.117287
59128.876045;15.334100
59128.893155;15.269012
59128.903411;15.151513
59128.916641;15.257967
59128.935303;15.573747
59128.945529;15.430730
59128.958353;15.511435
59128.975317;15.856736
59128.985615;15.781470
59128.998635;15.287817
59129.017321;15.792740
59129.027538;15.644167
59129.040644;15.527310
59129.059381;15.494950
59129.069650;15.441175
59129.076488;15.212883
59129.101205;15.219222
59129.111374;15.167534
59129.124525;14.895611
59129.143082;15.140270
59129.153291;15.124971
59129.166252;15.310410
59129.183012;14.933886
59129.193208;15.217986
59129.206220;15.311632
59129.223265;15.542155
59129.233471;15.609614
59129.246354;15.249528
59129.262944;14.914088
59129.273179;14.899911
59129.285287;15.222566
59129.302994;15.107463
59129.313247;15.051756
59129.325294;15.170217
59129.343117;15.105413
59129.353314;15.001342
59129.365531;15.196427
59129.382953;14.891669
59129.393174;15.002195
59129.405292;15.111130
59129.423030;15.159993
59129.433208;15.553300
59129.445963;15.548750
59129.462966;15.735247
59129.473159;15.696260
59129.484989;15.550069
59129.503007;15.483181
59129.513198;15.586952
59129.525092;15.244110
59129.543077;15.204710
59129.553289;15.495262
59129.565466;14.986391
59129.582969;15.016489
59129.593183;15.304678
59129.605287;14.966748
59129.622947;15.171078
59129.633067;14.858854
59129.646025;14.989049
59129.663189;15.298499
59129.673437;14.861427
59129.685563;14.912550
59129.703011;14.888687
59129.713240;14.850694
59129.725122;15.135159
59129.742885;15.178566
59129.753095;15.125501
59129.765302;15.383322
59129.783076;15.223077
59129.793284;15.242183
59129.805376;15.315782
59129.822953;15.452243
59129.833124;15.271490
59129.845567;15.377743
59129.862931;15.406709
59129.873116;15.309035
59129.885006;15.195196
59129.903032;15.242710
59129.913248;15.273013
59129.925224;15.230954
59129.942979;15.039705
59129.953141;14.933052
59129.965203;14.946784
59129.982846;14.858237
59129.993047;15.141447
59130.005199;15.210589
59130.023078;15.046906
59130.033268;15.307892
59130.046141;15.250044
59130.062978;15.026165
59130.073172;14.940558
59130.085299;14.478642
59130.103184;14.333589
59130.113322;13.835553
59130.125389;13.558580
59130.143151;12.998456
59130.153326;12.993120
59130.165359;12.613458
59130.182877;12.407661
59130.193104;12.381587
59130.205058;12.321494
59130.222854;12.539211
59130.233071;12.859619
59130.245609;13.033160
59130.262876;13.597803
59130.273163;13.912651
59130.284871;14.692272
59130.303124;15.458737
59130.313296;16.205917
59130.324986;17.273690
59130.342918;17.952995
59130.353084;18.133547
59130.364957;18.703953
59130.382870;19.017831
59130.393041;17.309436
59130.404697;16.787455
59130.423018;16.243219
59130.433187;15.852309
59130.445244;15.798473
59130.462830;16.011684
59130.472993;16.079119
59130.484520;15.722985
59130.502837;15.516521
59130.513067;15.731584
59130.524727;15.436549
59130.543053;15.353408
59130.553226;15.387599
59130.564925;15.105427
59130.582909;15.021166
59130.593078;14.817485
59130.604782;14.749103
59130.623072;14.704869
59130.633221;14.581383
59130.645304;14.434216
59130.662996;14.663525
59130.673134;14.692268
59130.684748;14.568073
59130.702869;14.859609
59130.713032;15.024120
59130.724563;14.735837
59130.743005;15.013267
59130.753157;15.110427
59130.764765;15.009052
59130.782903;14.805435
59130.793046;14.945521
59130.804726;14.685383
59130.822861;14.453992
59130.833034;14.440167
59130.844971;14.283735
59130.863140;14.294171
59130.873464;14.304057
59130.886638;14.514747
59130.905105;14.645037
59130.915354;14.195928
59130.928883;14.381760
59130.947416;14.460528
59130.957701;14.351428
59130.971214;15.028992
59130.989431;14.950582
59130.999598;14.819255
59131.013544;14.716126
59131.031158;14.280148
59131.041345;14.387554
59131.054660;14.374282
59131.073001;14.210181
59131.083347;14.484363
59131.097198;14.380654
59131.115105;14.616436
59131.125341;14.489437
59131.138777;14.557821
59131.157409;14.229917
59131.167634;14.557232
59131.180851;14.654918
59131.198867;14.651091
59131.209275;14.582573
59131.222392;14.976471
59131.239200;14.579183
59131.249509;14.308612
59131.263405;14.529400
59131.281146;14.163329
59131.291469;14.112861
59131.304634;14.112655
59131.323037;13.988532
59131.333303;14.334384
59131.347183;14.193140
59131.365088;14.559833
59131.375380;14.826215
59131.388884;15.197406
59131.407589;15.198710
59131.417881;15.089417
59131.430228;15.401347
59131.446997;15.358662
59131.457195;15.300656
59131.468734;15.278226
59131.486815;15.105605
59131.496976;15.236943
59131.508059;15.466863
59131.524864;15.150469
59131.534999;15.035395
59131.546859;15.005940
59131.564843;15.273434
59131.574932;15.237895
59131.585936;15.292361
59131.602854;15.370853
59131.612995;15.398425
59131.623857;15.385519
59131.640887;15.163241
59131.651018;14.809760
59131.662949;14.943486
59131.680849;15.061624
59131.691013;15.288392
59131.701938;15.014676
59131.718850;15.206127
59131.728966;14.688322
59131.739967;14.670219
59131.756801;14.967877
59131.766922;14.587180
59131.777928;14.255337
59131.794843;14.304955
59131.804960;14.406981
59131.815988;14.224937
59131.832827;14.429840
59131.842942;14.645549
59131.853903;14.558200
59131.870821;14.698290
59131.880969;15.015590
59131.898740;14.934686
59131.908842;14.817456
59131.918946;14.835204
59131.930672;14.798116
59131.948908;14.792099
59131.959059;14.825645
59131.976682;14.809679
59131.986718;14.664112
59131.996927;14.443311
59132.007926;14.506271
59132.024881;14.960924
59132.035026;14.683508
59132.052669;14.555083
59132.062734;14.789065
59132.072852;14.645632
59132.083895;14.503737
59132.100766;14.577405
59132.110884;14.582679
59132.121891;14.668549
59132.138954;14.380050
59132.149058;14.587216
59132.160024;14.875053
59132.176849;14.727832
59132.186987;14.851618
59132.204669;14.950426
59132.214792;15.423674
59132.224912;15.074540
59132.242711;15.343308
59132.252851;15.035904
59132.263009;15.843712
59132.273938;15.298256
59132.290875;16.063836
59132.300988;15.797800
59132.312431;15.785352
59132.330994;15.753684
59132.341091;15.610523
59132.352089;15.321776
59132.368720;15.437082
59132.378833;15.250821
59132.390110;15.336115
59132.406964;15.224127
59132.417048;15.076698
59132.428055;15.214330
59132.444825;15.094956
59132.454914;15.073525
59132.465835;15.146144
59132.482822;15.619513
59132.492971;15.643867
59132.503868;16.017121
59132.520712;15.908532
59132.530821;16.570300
59132.541844;16.646897
59132.558780;16.805298
59132.568921;16.868636
59132.580552;16.985542
59132.598784;16.834637
59132.608924;16.943707
59132.626671;16.765352
59132.636837;16.384897
59132.646935;16.250722
59132.657834;15.704313
59132.674778;15.715582
59132.684936;15.406599
59132.697070;14.939251
59132.714785;14.259374
59132.724941;13.303680
59132.735972;13.846609
59132.753009;12.616485
59132.763170;12.820686
59132.774206;12.429339
59132.790844;12.241144
59132.800960;12.107097
59132.811964;13.016513
59132.828748;14.287260
59132.838844;14.657351
59132.849912;14.564997
59132.866786;14.814943
59132.876896;14.677844
59132.887902;14.002445
59132.904788;14.120463
59132.914894;14.334487
59132.925867;14.377431
59132.942768;14.565828
59132.952855;14.742836
59132.970734;14.957971
59132.980855;15.228360
59132.990960;15.051179
59133.001994;14.853295
59133.018768;14.947665
59133.028926;14.857579
59133.039970;14.966190
59133.057197;14.445443
59133.067388;15.122333
59133.078341;15.041063
59133.094837;14.846495
59133.104929;15.097615
59133.122713;15.002475
59133.132861;15.271755
59133.142982;15.324705
59133.154074;15.346774
59133.170775;15.203958
59133.180912;15.116583
59133.192025;15.217108
59133.208872;14.871739
59133.218986;15.043405
59133.231001;15.116364
59133.248843;15.251265
59133.258979;15.187847
59133.270079;14.634248
59133.286768;14.828524
59133.296920;14.523075
59133.307996;14.613239
59133.324880;14.844529
59133.334979;14.812981
59133.346944;14.787305
59133.365019;14.976272
59133.375133;14.756706
59133.386218;15.169094
59133.402762;15.146515
59133.412911;15.183455
59133.430706;15.278114
59133.440808;15.424128
59133.450953;15.652186
59133.462000;15.352263
59133.478808;15.402447
59133.488950;15.368168
59133.500150;15.158965
59133.516782;14.804796
59133.526894;14.871445
59133.538015;14.602506
59133.554899;14.837053
59133.565068;14.943690
59133.576166;14.919014
59133.592838;15.097323
59133.602941;14.881708
59133.614800;15.120193
59133.633075;15.364653
59133.643233;15.392918
59133.654253;15.522930
59133.670796;15.143653
59133.680942;15.277273
59133.692021;15.358974
59133.708908;15.043738
59133.719054;14.937974
59133.736700;15.173369
59133.746742;14.785980
59133.756905;14.946828
59133.767911;14.779098
59133.784791;15.055350
59133.794909;15.200308
59133.805877;15.210758
59133.823024;15.212369
59133.833182;15.223377
59133.844068;15.354215
59133.861045;15.607850
59133.871138;15.267450
59133.882241;15.411725
59133.898773;15.427947
59133.908948;14.811187
59133.919882;14.959241
59133.936806;14.913204
59133.946927;15.030642
59133.957838;15.032480
59133.974952;15.126530
59133.985064;14.748921
59133.996287;14.922823
59134.013038;15.040921
59134.023152;14.971429
59134.034193;15.634031
59134.050777;15.416838
59134.060896;15.179943
59134.071917;15.502287
59134.088842;15.093428
59134.098970;15.495797
59134.109965;15.036940
59134.126791;15.200713
59134.136924;15.174248
59134.148301;15.086262
59134.164860;14.866074
59134.174962;15.067724
59134.186012;15.417779
59134.202717;15.390023
59134.212869;15.171665
59134.223957;15.204003
59134.240999;15.794360
59134.251113;15.179716
59134.262191;15.707052
59134.278782;15.794546
59134.288923;15.303862
59134.299945;15.564606
59134.316817;14.979027
59134.326932;15.022127
59134.337968;14.811661
59134.354687;14.893224
59134.364835;14.895408
59134.375857;14.574634
59134.392824;14.874293
59134.402937;14.715180
59134.414716;14.888290
59134.432760;14.667679
59134.442876;15.161815
59134.453858;15.057660
59134.470722;15.115299
59134.480851;15.484947
59134.491864;14.908577
59134.508755;15.042662
59134.518848;15.093247
59134.530723;14.518629
59134.548744;14.952619
59134.558869;15.004756
59134.569834;14.981128
59134.586662;14.843435
59134.596805;14.778044
59134.608009;14.674184
59134.624921;14.435722
59134.635050;14.900227
59134.652863;14.486120
59134.663004;14.794080
59134.673138;14.739737
59134.690760;14.879275
59134.700889;14.743531
59134.711002;14.706066
59134.722096;14.739056
59134.738730;15.062730
59134.748853;15.085289
59134.759945;15.356079
59134.776833;15.408400
59134.786949;15.581352
59134.806613;15.703891
59134.816750;15.680008
59134.826862;15.514202
59134.837952;15.826962
59134.854764;15.333670
59134.864876;15.560224
59134.875768;15.395837
59134.892746;15.213516
59134.902846;15.779893
59134.914995;15.285685
59134.932762;15.502579
59134.942893;15.660190
59134.953864;15.316893
59134.970765;15.607523
59134.980907;15.202390
59134.991976;15.541863
59135.008822;15.138674
59135.018928;15.199748
59135.036666;15.284655
59135.046778;15.277045
59135.056888;15.356869
59135.068011;15.129788
59135.084780;15.051416
59135.094930;15.297602
59135.105952;15.214260
59135.122771;15.035670
59135.132894;15.158528
59135.143927;15.007782
59135.160888;15.144434
59135.170989;15.337137
59135.182235;15.329571
59135.198715;15.570086
59135.208876;15.404550
59135.219858;15.239274
59135.236753;15.382880
59135.246857;15.511302
59135.257821;15.269576
59135.274865;15.323208
59135.284998;15.317243
59135.296004;15.123929
59135.312824;15.140100
59135.322922;15.223122
59135.340875;15.288743
59135.350997;15.326781
59135.361143;15.167609
59135.378618;15.031636
59135.388753;14.950042
59135.398874;14.813722
59135.409933;14.720599
59135.426760;14.109046
59135.436882;13.725807
59135.448748;13.327892
59135.466822;12.708069
59135.476940;12.506704
59135.494610;12.221074
59135.504753;12.019243
59135.514853;11.953345
59135.525912;12.230696
59135.542824;12.349892
59135.552984;12.469763
59135.565031;12.795110
59135.582720;13.196716
59135.592852;13.827045
59135.603935;16.506492
59135.620860;15.706411
59135.630993;16.373497
59135.642204;17.546474
59135.658779;18.258015
59135.668922;18.522459
59135.680050;18.853657
59135.696765;18.999993
59135.706912;18.866783
59135.718092;17.510247
59135.734759;16.328369
59135.744942;16.156522
59135.755959;15.622285
59135.772853;15.387056
59135.783008;15.407951
59135.793949;15.720498
59135.810717;15.331075
59135.820817;15.349798
59135.832366;15.442406
59135.848793;15.101555
59135.858930;15.146003
59135.876674;15.023905
59135.886770;15.180257
59135.896894;15.339901
59135.907743;15.242185
59135.925434;15.316798
59135.935592;15.354095
59135.946508;15.402426
59135.965103;15.126369
59135.975215;15.251706
59135.992591;15.390878
59136.002696;15.324498
59136.012866;14.971806
59136.023855;15.441741
59136.041029;15.448023
59136.051130;15.295150
59136.062126;15.505661
59136.078804;15.443360
59136.088940;15.291542
59136.106592;14.981772
59136.116698;14.732382
59136.126762;14.725619
59136.137778;14.448835
59136.154679;14.294258
59136.164806;14.143089
59136.175848;14.475601
59136.192810;14.460887
59136.202919;14.876740
59136.214689;14.749670
59136.232785;15.107718
59136.242892;15.129958
59136.253906;14.959698
59136.270768;14.800652
59136.280926;15.120221
59136.298759;14.895042
59136.308952;14.894555
59136.319041;15.072034
59136.336643;14.617219
59136.346754;14.262029
59136.356887;14.095224
59136.374614;14.581993
59136.384761;14.111214
59136.394905;14.238635
59136.412583;14.400784
59136.422731;14.575904
59136.432864;14.647879
59136.450686;14.760026
59136.460817;14.712124
59136.470938;14.493723
59136.490589;15.026806
59136.500692;14.963926
59136.510809;14.657355
59136.521832;14.528289
59136.538728;14.446606
59136.548828;14.588209
59136.559861;14.662468
59136.576666;14.191087
59136.586809;14.505250
59136.598950;14.580108
59136.616678;14.703769
59136.626849;14.714205
59136.644584;14.690480
59136.654728;14.909315
59136.664873;14.706258
59136.675936;14.897776
59136.692711;14.811956
59136.702839;14.590692
59136.720578;14.773621
59136.730709;14.246620
59136.740863;14.330806
59136.752014;14.764319
59136.768713;14.161230
59136.778830;14.921068
59136.789760;14.621337
59136.806670;14.584190
59136.816798;14.959282
59136.827719;14.527093
59136.844697;14.941412
59136.854779;14.582678
59136.865310;14.393561
59136.882736;14.249131
59136.892852;13.941144
59136.903967;14.298002
59136.920711;13.843878
59136.930822;14.320958
59136.941883;14.071275
59136.958824;14.489958
59136.968954;14.726781
59136.980030;14.861973
59136.996741;14.973852
59137.006840;14.638638
59137.017938;14.050084
59137.034692;14.946460
59137.044837;14.100842
59137.055882;13.954638
59137.072720;14.377787
59137.082835;14.357634
59137.093973;14.198262
59137.110893;14.924758
59137.121025;15.170379
59137.132815;14.482547
59137.150683;15.126770
59137.160821;15.074513
59137.171900;15.379086
59137.188709;15.242001
59137.198822;15.176714
59137.209932;14.888872
59137.226697;14.796177
59137.236839;14.479127
59137.248791;14.250852
59137.266722;14.262728
59137.276846;14.179607
59137.287905;14.371421
59137.304795;14.703656
59137.314928;14.778852
59137.326025;14.643918
59137.342644;15.125910
59137.352741;15.124837
59137.363954;15.236858
59137.380868;15.128895
59137.391021;14.958886
59137.402107;14.645253
59137.418717;14.852848
59137.428865;14.690147
59137.439944;14.625280
59137.456804;14.263410
59137.466913;14.358237
59137.477925;14.218503
59137.494702;14.622079
59137.504834;14.674894
59137.516563;14.607936
59137.534719;15.093012
59137.544866;15.104291
59137.555869;14.906992
59137.572686;14.782371
59137.582820;14.802316
59137.593808;14.914377
59137.610799;14.648640
59137.620924;14.783879
59137.631988;14.739418
59137.648690;14.628891
59137.658804;14.734877
59137.669890;14.713842
59137.686702;14.769107
59137.696839;14.763079
59137.707827;14.908212
59137.725064;14.882923
59137.735178;14.912062
59137.746163;15.070850
59137.762727;15.047258
59137.772834;15.168709
59137.783956;15.206658
59137.800701;15.385128
59137.810837;15.527751
59137.821829;15.737171
59137.838628;15.474758
59137.848751;15.405573
59137.859851;15.402930
59137.877102;15.556956
59137.887406;15.383234
59137.901415;15.150444
59137.918950;15.497924
59137.929343;15.038334
59137.942734;15.416263
59137.960954;15.203596
59137.971201;15.137832
59137.985239;14.970923
59138.003023;15.072544
59138.013323;14.985803
59138.026592;14.924909
59138.045344;15.181360
59138.055689;15.006508
59138.067656;14.970987
59138.084848;14.833229
59138.095025;15.129660
59138.106501;15.047403
59138.124860;15.171276
59138.134999;15.267509
59138.146515;15.508568
59138.164815;15.305627
59138.174928;15.297705
59138.186482;15.342688
59138.204768;15.225537
59138.214967;15.173922
59138.226481;15.312882
59138.244789;14.960980
59138.254912;15.139222
59138.274599;15.312233
59138.284705;15.175285
59138.294856;14.968308
59138.312634;14.889046
59138.322772;15.121719
59138.332915;15.020968
59138.343950;15.247218
59138.360790;15.387988
59138.370907;15.310086
59138.390577;15.633237
59138.400714;15.374830
59138.410844;15.520890
59138.421825;15.174571
59138.438734;15.233707
59138.448907;14.843067
59138.459947;14.905877
59138.476855;15.185646
59138.486970;15.115930
59138.506698;15.120400
59138.516860;15.256252
59138.527062;15.260435
59138.537319;14.874369
59138.554727;15.143674
59138.564843;15.169166
59138.575944;15.084852
59138.592722;15.026309
59138.602887;15.212957
59138.613884;15.532881
59138.630681;15.030204
59138.640796;15.752795
59138.658602;15.606283
59138.668757;15.864586
59138.678884;15.865414
59138.689899;16.079210
59138.706754;16.228344
59138.716887;16.686610
59138.727890;16.383894
59138.744685;15.912389
59138.754753;15.981827
59138.765716;15.832312
59138.782603;15.595564
59138.792719;15.752857
59138.803771;15.434974
59138.820702;15.221346
59138.830819;15.301039
59138.841851;14.892439
59138.858876;14.112413
59138.869014;14.008215
59138.879819;13.320292
59138.896814;12.831873
59138.906899;13.011084
59138.917968;12.935485
59138.934624;13.653878
59138.944889;14.637809
59138.955930;14.528413
59138.972747;15.090595
59138.982871;14.888848
59138.993807;14.836553
59139.010708;15.034991
59139.020834;15.834731
59139.032499;15.696554
59139.050723;15.549466
59139.060820;15.687974
59139.071753;15.727949
59139.088681;15.127343
59139.098837;15.403697
59139.109956;15.298544
59139.126841;14.920098
59139.136944;14.487641
59139.147979;14.702401
59139.164725;14.475156
59139.174835;14.620357
59139.185846;14.248129
59139.202712;15.127476
59139.212840;15.254118
59139.223809;15.107087
59139.240647;14.886739
59139.250722;14.885824
59139.261705;15.052715
59139.278784;15.110040
59139.288917;14.934682
59139.300411;14.779743
59139.318680;14.858802
59139.328843;14.822817
59139.339823;14.412589
59139.356727;15.078188
59139.366848;14.800764
59139.377839;14.968861
59139.394659;14.883734
59139.404784;14.679276
59139.416893;14.917727
59139.434676;15.045754
59139.444832;15.161185
59139.455863;15.351801
59139.472678;14.967183
59139.482700;14.976530
59139.493942;14.803625
59139.510733;14.765748
59139.520855;15.011255
59139.531916;14.721801
59139.548641;14.650211
59139.558757;14.512942
59139.569808;14.501888
59139.586662;14.363794
59139.596817;14.623187
59139.607800;14.387652
59139.624642;14.753632
59139.634705;14.978743
59139.645685;14.922783
59139.662665;14.954373
59139.672757;14.940873
59139.684124;14.857525
59139.700598;15.072474
59139.710717;15.003442
59139.721840;14.908638
59139.738731;15.204368
59139.748851;14.841420
59139.759803;15.171899
59139.777003;14.908325
59139.787152;14.695887
59139.798092;14.642500
59139.814779;14.744551
59139.824884;14.643638
59139.835894;14.476895
59139.852674;14.969557
59139.862793;14.995409
59139.873795;14.900932
59139.890752;15.221373
59139.900870;14.967318
59139.911965;15.330582
59139.928753;15.407875
59139.938875;15.062210
59139.958610;15.071508
59139.968703;15.202676
59139.978805;15.152261
59139.996594;15.129664
59140.006688;14.956271
59140.016785;14.870383
59140.027701;14.906442
59140.044748;14.702272
59140.054871;14.687977
59140.074534;14.665434
59140.084661;14.844507
59140.094783;14.478511
59140.105852;14.873882
59140.122655;15.043468
59140.132810;14.857546
59140.143908;15.138524
59140.160621;14.992607
59140.170721;15.290490
59140.181666;15.151103
59140.198680;15.241914
59140.208912;15.185927
59140.219971;15.034607
59140.236678;14.469092
59140.246796;14.742771
59140.257736;14.724059
59140.274702;14.786809
59140.284818;14.941307
59140.295774;14.844968
59140.312655;14.968515
59140.322709;14.818463
59140.342818;15.257115
59140.352983;15.410307
59140.363120;15.362515
59140.374245;15.382200
59140.390665;15.504064
59140.400803;15.388658
59140.411852;15.128239
59140.428734;15.122751
59140.438868;15.194689
59140.449931;15.109449
59140.466642;15.063291
59140.476763;15.147081
59140.487882;15.110034
59140.504653;15.361973
59140.514784;15.338028
59140.525857;15.209658
59140.542863;15.270948
59140.553007;15.473514
59140.564078;15.530317
59140.581042;15.429584
59140.591158;15.319962
59140.602286;15.087643
59140.618651;14.916220
59140.628788;14.814413
59140.639811;14.990317
59140.656683;14.962398
59140.666810;15.067178
59140.677853;15.120532
59140.694725;14.978175
59140.704856;15.086421
59140.716223;15.444042
59140.732698;15.589760
59140.742810;15.315838
59140.753893;15.458494
59140.770658;15.089383
59140.780777;15.622589
59140.791805;14.922467
59140.808672;14.983180
59140.818812;15.190859
59140.829847;14.827908
59140.846722;15.253886
59140.856849;14.794635
59140.874967;14.435147
59140.885152;14.988432
59140.895310;14.676038
59140.912593;14.872286
59140.922730;15.103425
59140.932848;15.161825
59140.943902;15.472997
59140.960865;15.298150
59140.970992;15.755614
59140.982039;14.947273
59140.998706;15.068247
59141.008834;15.403202
59141.019875;15.152996
59141.036716;15.138144
59141.046853;15.187770
59141.057783;14.795096
59141.074646;15.009385
59141.084774;14.647188
59141.095769;14.941612
59141.112736;15.017644
59141.122822;14.732475
59141.142567;14.373002
59141.152660;15.258163
59141.162773;14.489938
59141.173805;15.856448
59141.190690;14.947127
59141.200842;15.449049
59141.218563;15.880220
59141.228684;14.270557
59141.238794;14.490555
59141.250883;13.508591
59141.268698;17.254881
59141.278758;11.661323
59141.296579;14.300973
59141.306721;14.563199
59141.316864;16.573941
59141.327790;15.538520
59141.344980;16.323682
59141.355120;14.507806
59141.372870;13.593378
59141.382994;14.397380
59141.393142;17.592535
59141.410583;15.771539
59141.420740;14.799604
59141.430851;15.224895
59141.441896;17.766712
59141.458713;12.137487
59141.468842;16.694803
59141.479878;15.766805
59141.496774;13.659782
59141.506857;18.899538
59141.518306;12.587740
59141.536657;14.783976
59141.546801;15.286935
59141.564588;19.206552
59141.574670;14.068742
59141.584818;16.368537
59141.595921;16.030509
59141.612672;13.997018
59141.622791;18.156711
59141.642634;16.580596
59141.652729;15.160384
59141.662847;15.589771
59141.673925;17.481075
59141.690695;14.643468
59141.700826;16.108486
59141.711853;17.559630
59141.728757;15.348534
59141.738890;13.842989
59141.758742;15.465085
59141.768859;16.216282
59141.779016;14.516642
59141.790118;16.402163
59141.806729;15.210102
59141.816871;15.500311
59141.834550;16.409376
59141.844685;14.953197
59141.854804;16.134484
59141.865909;14.658980
59141.882720;14.911050
59141.893008;15.855039
59141.910564;14.564907
59141.920674;14.929633
59141.930787;15.207542
59141.941783;14.815452
59141.958686;14.759036
59141.968840;14.827762
59141.979929;14.326783
59141.996681;14.902096
59142.006815;15.097007
59142.018468;14.938064
59142.036866;14.859541
59142.047003;15.088193
59142.058002;15.312227
59142.074639;15.611202
59142.084763;15.344346
59142.095748;15.205896
59142.112708;15.338201
59142.122829;15.514776
59142.133801;15.323213
59142.150613;15.100696
59142.160741;15.074401
59142.171780;15.284101
59142.188690;15.137446
59142.198820;14.987668
59142.209825;15.058860
59142.226850;14.556626
59142.236995;14.834497
59142.247966;14.458579
59142.264710;14.371571
59142.274801;14.132741
59142.286019;14.578344
59142.302614;14.881106
59142.312739;14.710177
59142.323896;14.861234
59142.340611;14.390941
59142.350728;14.935261
59142.361833;14.948998
59142.378728;14.686051
59142.388862;15.030677
59142.400433;14.875713
59142.418874;14.653566
59142.428963;15.189596
59142.440073;15.010943
59142.456624;15.321237
59142.466718;15.244300
59142.477841;15.291246
59142.494948;15.431680
59142.505063;15.386239
59142.516176;15.440652
59142.532715;15.311962
59142.542824;15.443088
59142.553950;15.402279
59142.570688;15.401955
59142.580811;15.477924
59142.598553;15.244117
59142.608680;15.259734
59142.618807;15.020162
59142.629884;14.939806
59142.646731;14.479326
59142.656876;14.323150
59142.668753;13.954125
59142.686916;13.443882
59142.697065;12.902537
59142.708011;12.571573
59142.724681;12.333417
59142.734785;12.125324
59142.745897;12.029667
59142.762612;11.939491
59142.772725;12.102669
59142.792598;12.226189
59142.802703;12.599405
59142.812860;13.064404
59142.830530;13.662995
59142.840672;14.245843
59142.850821;16.104699
59142.862045;15.471330
59142.878691;16.733032
59142.888816;17.435071
59142.899844;17.596934
59142.916661;18.037000
59142.926818;18.328928
59142.937917;18.594510
59142.954813;18.713887
59142.964930;18.874927
59142.982672;16.561306
59142.992769;15.371595
59143.002904;15.534979
59143.013877;15.345508
59143.030639;15.211697
59143.040758;15.190615
59143.060477;15.192076
59143.070595;15.493928
59143.080831;15.296591
59143.098478;15.496340
59143.108624;15.597633
59143.118774;15.746737
59143.129719;15.802339
59143.146661;16.234158
59143.156810;15.986358
59143.168646;15.443149
59143.186631;15.506096
59143.196764;15.573662
59143.214476;15.232117
59143.224628;15.324475
59143.234775;15.386944
59143.245653;15.505666
59143.262672;15.278649
59143.272795;15.350894
59143.284752;15.239583
59143.302618;15.505446
59143.312762;15.236600
59143.323822;15.253119
59143.340648;15.353565
59143.350737;14.971344
59143.361883;15.026886
59143.378520;14.728144
59143.388651;14.864864
59143.406508;14.718933
59143.416677;14.652997
59143.426773;14.747599
59143.444488;14.482311
59143.454622;14.719668
59143.464716;14.894647
59143.475565;14.763601
59143.492737;14.679166
59143.502867;14.883075
59143.513825;15.088304
59143.530602;14.872783
59143.540700;15.576902
59143.552411;15.239453
59143.570647;15.216684
59143.580789;15.349671
59143.591805;15.320805
59143.608654;14.855505
59143.618741;15.063289
59143.629785;14.862553
59143.646659;14.664630
59143.656806;14.958613
59143.668941;14.829865
59143.686670;15.005128
59143.696813;15.024157
59143.707830;15.195159
59143.724596;15.178173
59143.734717;14.985012
59143.745701;15.304902
59143.762726;15.381884
59143.772854;15.272803
59143.783888;15.231093
59143.800525;15.704612
59143.810670;15.662935
59143.821716;15.508922
59143.838622;15.399446
59143.848772;14.914383
59143.859879;14.765539
59143.876639;14.479847
59143.886725;14.506173
59143.897843;14.499975
59143.914723;14.000638
59143.924805;14.195191
59143.942537;14.708219
59143.952661;14.500068
59143.962779;14.838775
59143.973900;15.173478
59143.990700;15.000399
59144.000854;15.213414
59144.011953;15.098734
59144.028830;14.966304
59144.038970;15.027385
59144.049941;14.736532
59144.066641;14.666201
59144.076728;14.425439
59144.087681;14.309410
59144.104646;14.483668
59144.114725;14.476096
59144.125747;14.696245
59144.142602;14.613309
59144.152732;14.771644
59144.163694;14.758035
59144.180709;14.749804
59144.190822;14.662112
59144.202615;14.725472
59144.220699;14.738244
59144.230805;14.858377
59144.241798;14.744098
59144.258620;14.523942
59144.268723;15.015500
59144.279747;14.650903
59144.296982;14.731127
59144.307058;14.791284
59144.319031;14.469784
59144.336557;14.868188
59144.346661;14.942961
59144.357720;14.985180
59144.374647;14.959175
59144.384785;14.812854
59144.395997;14.837670
59144.412583;14.682035
59144.422699;14.359948
59144.433715;14.365347
59144.450634;14.281583
59144.460862;14.257983
59144.472020;14.656342
59144.488649;14.594161
59144.498764;15.090784
59144.509799;14.873798
59144.526677;14.874288
59144.536815;14.807805
59144.547897;14.655192
59144.564613;14.619840
59144.574755;14.501270
59144.594532;14.154881
59144.604648;13.647803
59144.614798;13.631762
59144.625877;13.692670
59144.642596;13.782673
59144.652743;13.827489
59144.663806;14.073442
59144.680711;13.695956
59144.690828;14.636182
59144.701785;15.080607
59144.718623;14.878208
59144.728745;14.527979
59144.739897;14.573615
59144.756630;13.994715
59144.766729;13.410398
59144.777909;13.940176
59144.795277;13.096948
59144.805402;12.032503
59144.816447;12.797498
59144.834598;14.378294
59144.844713;14.007637
59144.855791;14.800174
59144.872591;15.348909
59144.882708;15.246310
59144.893780;15.620880
59144.910610;15.453566
59144.920722;15.258099
59144.931809;15.299657
59144.948710;14.789458
59144.958813;15.095981
59144.970136;14.648931
59144.986583;14.084162
59144.996667;14.206325
59145.014466;14.230307
59145.024591;13.817096
59145.034705;14.362614
59145.045978;14.807309
59145.062762;14.925708
59145.072889;14.914262
59145.083873;14.981967
59145.100602;14.290809
59145.110750;14.574973
59145.121784;14.645023
59145.138853;14.661975
59145.149059;14.540479
59145.160320;14.466063
59145.178663;14.504954
59145.188789;14.167858
59145.199874;14.705964
59145.216668;14.875711
59145.226776;14.913072
59145.237934;15.252421
59145.254644;15.251026
59145.264807;15.120924
59145.282542;14.933880
59145.292727;14.776338
59145.302857;14.849598
59145.314010;14.850320
59145.330631;14.779821
59145.340729;15.060500
59145.358602;14.998488
59145.368761;14.919282
59145.379019;14.947548
59145.396511;15.236753
59145.406645;15.078694
59145.416800;14.790750
59145.434487;15.321275
59145.444583;15.705903
59145.454702;15.467076
59145.465816;15.511698
59145.482661;15.774370
59145.492734;15.742850
59145.504036;15.248326
59145.520618;15.419395
59145.530759;15.151425
59145.541883;14.910570
59145.558888;14.866632
59145.569019;15.259512
59145.580209;15.115066
59145.596841;15.067414
59145.606948;15.061875
59145.618588;15.293889
59145.636652;15.026403
59145.646832;15.206877
59145.658033;15.298407
59145.674680;15.021678
59145.684831;14.877474
59145.695951;14.780040
59145.712759;14.807666
59145.722874;14.736567
59145.734024;14.877722
59145.750632;14.643449
59145.760740;14.923437
59145.771915;14.862714
59145.788674;14.767914
59145.798788;14.805323
59145.809872;14.656827
59145.826636;14.870706
59145.836819;15.052642
59145.847827;15.127110
59145.864702;15.064157
59145.874790;15.062658
59145.886872;15.043420
59145.904665;15.170815
59145.914752;15.264680
59145.925868;15.034289
59145.942598;15.245804
59145.952777;15.600104
59145.963798;15.370837
59145.980664;15.275181
59145.990773;15.439743
59146.010556;15.466007
59146.020673;15.105170
59146.030776;15.622624
59146.041786;15.372784
59146.058601;15.727573
59146.068730;15.346986
59146.079881;15.462188
59146.096795;15.355082
59146.106890;15.388666
59146.117930;15.153942
59146.134597;15.500921
59146.144714;15.273817
59146.155640;15.360995
59146.172655;15.359105
59146.182721;15.112225
59146.193614;15.065582
59146.210601;15.043949
59146.220714;15.269018
59146.231717;15.109075
59146.248601;15.107867
59146.258686;14.942546
59146.270274;14.933251
59146.288551;14.857930
59146.298698;14.825795
59146.309677;14.871044
59146.326590;14.804126
59146.336711;14.781352
59146.347726;15.162358
59146.364525;15.185710
59146.374640;15.107954
59146.386757;14.928779
59146.404857;15.126966
59146.414967;14.817065
59146.426040;14.794592
59146.442530;15.163208
59146.452656;15.210059
59146.463621;15.163912
59146.480660;14.973494
59146.490773;15.162855
59146.508494;15.377710
59146.518602;15.253534
59146.528715;15.347954
59146.539847;15.249639
59146.556794;15.125194
59146.566948;15.015805
59146.578054;15.001970
59146.594572;15.009838
59146.604750;14.981299
59146.615789;14.908884
59146.632657;15.325214
59146.642724;15.587946
59146.654079;15.800865
59146.670565;15.983928
59146.680664;16.406706
59146.698665;16.698576
59146.708795;16.537852
59146.718904;16.936027
59146.729875;16.927355
59146.746759;16.942531
59146.756903;17.030359
59146.767893;16.650595
59146.784607;16.513117
59146.794742;16.648070
59146.812466;16.231172
59146.822562;15.640347
59146.832680;15.979492
59146.850463;15.395310
59146.860599;14.042804
59146.870757;14.605549
59146.881677;13.746920
59146.898622;12.894061
59146.908728;12.691555
59146.920400;12.793776
59146.938652;12.327310
59146.948754;12.121156
59146.959772;12.869867
59146.976543;14.302438
59146.986651;14.052356
59146.997673;14.196451
59147.014610;14.339635
59147.024728;14.122252
59147.036646;14.192005
59147.054555;14.138054
59147.064693;14.187532
59147.075596;14.102101
59147.092584;14.032483
59147.102713;14.214865
59147.113999;14.437353
59147.130538;14.935314
59147.140664;14.967617
59147.151844;14.908428
59147.168569;15.092692
59147.178722;15.329586
59147.196723;15.229104
59147.206833;15.749644
59147.216971;15.551226
59147.227961;15.763014
59147.244675;15.022459
59147.254765;15.187263
59147.272475;15.071035
59147.282596;15.178983
59147.292753;15.015555
59147.312489;15.092291
59147.322608;15.273911
59147.332744;15.219281
59147.343702;15.356363
59147.360563;15.221820
59147.370665;15.265158
59147.381703;15.392854
59147.398720;15.353336
59147.408841;15.291864
59147.419799;14.842326
59147.436516;15.064009
59147.446600;15.066746
59147.457736;15.146775
59147.474546;15.159511
59147.484677;14.956931
59147.495691;15.190381
59147.512873;15.253153
59147.523003;15.309647
59147.533997;15.318927
59147.550606;15.645650
59147.560694;15.476896
59147.571804;15.279597
59147.588543;15.238495
59147.598674;14.877077
59147.609696;14.912305
59147.626544;15.041881
59147.636673;15.036918
59147.647698;15.130184
59147.664600;15.067798
59147.674695;15.179462
59147.686142;15.149824
59147.704690;15.368283
59147.714797;15.235021
59147.725811;15.489460
59147.742527;15.230864
59147.752657;15.061602
59147.763690;15.009508
59147.780724;14.812434
59147.790855;14.708658
59147.801857;14.433104
59147.818583;14.255485
59147.828710;14.787670
59147.839673;14.476594
59147.856616;14.466818
59147.866731;14.499872
59147.877627;14.364365
59147.894598;14.421217
59147.904691;14.406584
59147.915672;14.507031
59147.932605;14.719470
59147.942724;14.642337
59147.954356;14.561583
59147.972511;14.551916
59147.982650;14.395334
59147.993629;14.498918
59148.010632;14.410907
59148.020748;14.644422
59148.038447;14.876639
59148.048582;15.087858
59148.058707;14.991211
59148.070951;15.218262
59148.088599;15.428300
59148.098719;15.217250
59148.109798;15.210164
59148.126554;15.406995
59148.136687;15.111433
59148.147655;15.156708
59148.164800;14.748938
59148.174940;14.648356
59148.186021;14.779939
59148.202485;15.230456
59148.212616;14.572287
59148.223693;14.972418
59148.240550;15.342671
59148.250692;15.098991
59148.261674;15.379313
59148.278501;15.753249
59148.288646;15.375153
59148.299655;15.577129
59148.316609;15.359992
59148.326706;15.310786
59148.338268;15.177972
59148.356709;15.035275
59148.366832;14.969786
59148.377947;15.123450
59148.394563;15.283519
59148.404697;15.149009
59148.415787;15.189520
59148.432600;15.210179
59148.442707;15.269113
59148.454536;15.077124
59148.472553;14.809539
59148.482685;15.401623
59148.493680;15.017174
59148.510795;14.829306
59148.520905;15.189687
59148.531925;15.027004
59148.548554;14.861238
59148.558675;15.047314
59148.570647;14.956593
59148.588511;14.959371
59148.598624;15.149896
59148.609595;14.726881
59148.626586;14.409816
59148.636737;14.833815
59148.654427;14.975419
59148.664606;14.664618
59148.674774;14.959150
59148.685883;14.621795
59148.702582;15.148579
59148.712758;15.348839
59148.730415;15.371911
59148.740572;14.996918
59148.750720;15.482769
59148.768463;15.185748
59148.778596;15.217082
59148.788712;15.143071
59148.799613;15.254691
59148.816704;15.868841
59148.826835;14.682053
59148.838396;16.252665
59148.856557;16.238494
59148.866684;14.856343
59148.877768;16.375025
59148.894527;15.469819
59148.904646;15.510475
59148.915667;15.374709
59148.932571;14.297170
59148.942677;15.922905
59148.953733;13.871034
59148.970531;14.881057
59148.980712;15.608966
59148.991771;14.787684
59149.008745;16.082913
59149.018862;13.498673
59149.029971;15.212053
59149.046763;15.996278
59149.056915;12.421508
59149.068023;16.841105
59149.084588;12.912779
59149.094683;14.056754
59149.105805;15.826263
59149.122602;14.519005
59149.132740;16.418015
59149.143762;13.153475
59149.160496;16.303528
59149.170623;13.437081
59149.181621;16.820957
59149.198661;14.262363
59149.208814;14.184383
59149.220393;17.834635
59149.238719;14.268511
59149.248845;16.849647
59149.259985;15.655115
59149.276605;14.529657
59149.286714;14.854858
59149.297701;12.041115
59149.314852;15.134221
59149.324976;13.525296
59149.336099;15.422247
59149.352646;14.687290
59149.362724;17.021340
59149.373833;14.400174
59149.390607;17.782889
59149.400713;13.968282
59149.418458;16.706109
59149.428596;14.348570
59149.438706;17.254674
59149.449780;14.249269
59149.466619;16.773551
59149.476753;13.308426
59149.488481;14.520588
59149.506605;15.060648
59149.516718;14.819509
59149.527823;16.899190
59149.544589;14.053862
59149.554703;17.310842
59149.565827;15.286277
59149.582502;15.792896
59149.592669;15.627700
59149.603753;13.547790
59149.620637;17.135960
59149.630993;13.898477
59149.642132;15.913133
59149.658532;13.942208
59149.668651;16.497443
59149.679756;14.247004
59149.696569;15.403156
59149.706705;14.322134
59149.717795;15.314490
59149.734533;15.678793
59149.744659;14.035805
59149.756121;14.830281
59149.772600;15.405846
59149.782714;14.604152
59149.793844;14.918903
59149.810538;14.645691
59149.820655;15.474777
59149.831741;15.018654
59149.848806;15.355207
59149.858915;15.661555
59149.869917;15.784491
59149.886422;15.686680
59149.896536;15.346692
59149.907621;15.750808
59149.924474;15.321840
59149.934591;15.181861
59149.945604;15.199412
59149.962515;15.198364
59149.972634;15.114999
59149.983595;15.304529
59150.000579;15.239290
59150.010686;15.156108
59150.022170;15.257116
59150.040482;15.042267
59150.050610;15.333840
59150.061691;15.414912
59150.078577;15.201905
59150.088723;15.579219
59150.099741;15.676041
59150.116800;15.219891
59150.126913;15.893465
59150.146597;15.637769
59150.156725;15.388696
59150.166834;15.705590
59150.177903;15.437330
59150.194683;15.308337
59150.204839;15.751749
59150.215821;15.434252
59150.232488;15.651299
59150.242618;15.533133
59150.254461;15.539809
59150.272459;15.704487
59150.282546;15.285320
59150.293527;15.405305
59150.310467;15.637260
59150.320617;14.737599
59150.331698;15.424456
59150.348430;15.329139
59150.358526;15.058034
59150.369489;14.851612
59150.386539;14.917814
59150.396680;15.051868
59150.407709;14.917423
59150.424429;14.958643
59150.434530;15.053525
59150.445573;15.126983
59150.462491;14.989570
59150.472604;15.108128
59150.483560;14.961849
59150.500416;14.947877
59150.510505;14.967645
59150.522271;15.044766
59150.540530;15.210632
59150.550637;15.283210
59150.561639;15.170263
59150.578484;15.299980
59150.588576;15.349749
59150.599487;15.018049
59150.616812;14.819525
59150.626921;14.844424
59150.637835;14.414007
59150.654456;13.888679
59150.664613;13.562241
59150.675581;13.340551
59150.692418;12.951656
59150.702541;12.808859
59150.713439;12.520406
59150.730715;12.671703
59150.740839;12.566568
59150.751821;12.490428
59150.768514;13.099436
59150.778635;13.208845
59150.789842;13.372348
59150.806458;13.814384
59150.816620;14.171434
59150.834364;14.439151
59150.844464;16.246713
59150.854558;16.067928
59150.865622;16.565530
59150.882651;17.936242
59150.892769;17.892945
59150.904103;18.164352
59150.920825;18.283010
59150.930946;18.380501
59150.942051;18.276748
59150.958710;16.760072
59150.968878;15.556901
59150.986381;15.580450
59150.996498;15.053468
59151.006619;14.829086
59151.017703;14.650318
59151.034616;15.084867
59151.044749;15.030421
59151.062389;15.121969
59151.072493;14.978672
59151.082596;14.817102
59151.100363;15.177097
59151.110485;14.989307
59151.120638;15.035528
59151.131710;15.238380
59151.148723;14.972804
59151.158766;14.989986
59151.169861;15.092930
59151.186544;15.148807
59151.196678;15.097377
59151.207767;14.946287
59151.224830;14.932247
59151.234937;14.989509
59151.246002;15.154469
59151.262458;15.027086
59151.272594;15.069911
59151.283569;15.380733
59151.300572;15.080462
59151.310687;15.202720
59151.322598;15.117621
59151.340441;15.228105
59151.350569;15.112334
59151.361537;14.995380
59151.378595;15.063071
59151.388731;14.811962
59151.406380;14.706727
59151.416496;14.929098
59151.426646;14.557205
59151.438692;14.594645
59151.456545;14.627352
59151.466717;14.632539
59151.477763;14.669349
59151.494480;14.303311
59151.504620;14.805554
59151.522371;14.678588
59151.532494;14.808143
59151.542605;14.901341
59151.553555;14.868675
59151.570444;15.111444
59151.580558;15.029331
59151.598363;15.121132
59151.608451;15.045099
59151.618600;15.163273
59151.629655;15.123244
59151.646487;15.521269
59151.656626;15.407141
59151.667669;15.091198
59151.684571;15.203922
59151.694662;15.242882
59151.705608;15.269871
59151.722638;15.038416
59151.732767;15.054172
59151.743791;15.073702
59151.760472;14.862589
59151.770574;15.023006
59151.781594;14.899376
59151.798778;14.730320
59151.808917;14.643390
59151.826484;14.859953
59151.836609;14.630827
59151.846699;14.886506
59151.857808;14.936386
59151.874581;15.094832
59151.884692;15.218759
59151.895576;15.385200
59151.912485;15.438260
59151.922609;15.284816
59151.933570;15.246971
59151.950581;15.221475
59151.960681;15.151357
59151.972605;15.106314
59151.990555;15.268383
59152.000656;15.255105
59152.011803;15.241680
59152.028578;15.365148
59152.038694;15.397516
59152.049790;15.178355
59152.066706;15.284266
59152.076861;15.224791
59152.088694;15.065186
59152.106570;15.247414
59152.116695;15.006326
59152.127811;14.923575
59152.144568;14.735356
59152.154676;14.839833
59152.165881;15.038088
59152.182460;14.830171
59152.192585;14.854320
59152.203669;14.903728
59152.220537;15.122367
59152.230648;14.882196
59152.241779;14.946706
59152.258571;15.397696
59152.268690;15.307020
59152.279755;15.294845
59152.296497;15.619404
59152.306641;15.359639
59152.317625;15.441874
59152.334469;15.102772
59152.344585;15.197020
59152.356480;15.129228
59152.374554;15.155037
59152.384681;15.079604
59152.395664;15.246474
59152.412474;15.240551
59152.422597;15.185308
59152.433558;15.356969
59152.450592;15.001939
59152.460723;15.064473
59152.471666;15.087235
59152.488479;15.222843
59152.498597;15.253357
59152.509629;15.260570
59152.526773;15.106029
59152.536887;15.213095
59152.547951;15.070257
59152.564598;15.069458
59152.574694;14.697749
59152.585726;14.705463
59152.602524;14.580458
59152.612640;14.567616
59152.623851;14.149339
59152.640424;14.281437
59152.650553;14.389510
59152.661586;14.381568
59152.678477;14.513985
59152.688606;14.493982
59152.699503;14.403705
59152.716651;15.310248
59152.726784;14.945909
59152.738156;15.006191
59152.756540;14.994803
59152.766637;15.007880
59152.784393;14.860713
59152.794530;14.936482
59152.804654;14.958420
59152.815776;15.090181
59152.832730;14.737119
59152.842836;14.581188
59152.853827;14.770419
59152.870512;14.739766
59152.880649;14.685669
59152.891725;14.832339
59152.908524;15.087852
59152.918688;15.112314
59152.929785;15.220006
59152.946494;15.057816
59152.956591;15.226460
59152.967618;15.104107
59152.984379;15.015653
59152.994682;14.946486
59153.006442;14.891649
59153.024662;14.955311
59153.034774;14.738155
59153.045869;14.742719
59153.062468;14.836230
59153.072646;14.790471
59153.083680;14.584225
59153.100428;14.511089
59153.110561;14.721506
59153.130486;14.868322
59153.140589;14.845377
59153.150714;14.957587
59153.161815;14.938830
59153.178459;14.672500
59153.188582;14.704499
59153.199762;14.648323
59153.216508;14.710604
59153.226632;14.560819
59153.237601;14.331413
59153.254394;14.423925
59153.264512;14.406153
59153.275558;14.411688
59153.292459;14.668791
59153.302594;14.729081
59153.313658;14.801215
59153.330794;14.712209
59153.340909;15.143567
59153.351995;14.787282
59153.368551;14.658506
59153.378656;15.051581
59153.390391;15.179145
59153.408426;14.299164
59153.418545;14.607434
59153.429543;14.379094
59153.446439;14.101901
59153.456565;14.371327
59153.467561;14.135862
59153.484560;13.960714
59153.494686;13.900007
59153.506683;12.467794
59153.524552;13.335749
59153.534635;15.584863
59153.545743;13.296764
59153.562456;14.074674
59153.572568;14.958112
59153.583655;15.266379
59153.600606;14.960271
59153.610727;15.169988
59153.630395;14.103256
59153.640523;11.209297
59153.650644;7.819633
59153.661760;-0.200254
