Time;Z-Force
64617.689872;12.969977
64617.700985;12.818748
64617.718413;13.533704
64617.737740;13.868000
64617.763424;14.434080
64617.774408;14.951937
64617.794418;15.321477
64617.814196;13.927982
64617.834780;13.924774
64617.855588;11.712389
64617.876476;10.435669
64617.896233;9.192496
64617.916527;8.684096
64617.936681;8.099150
64617.956822;8.528141
64617.976671;9.992654
64617.996432;9.844391
64618.016410;10.716961
64618.036481;9.332281
64618.056685;8.874292
64618.076637;8.341798
64618.096494;8.279189
64618.116258;7.354157
64618.136942;7.452344
64618.156762;6.843487
64618.164381;7.022450
64618.196508;9.483743
64618.216674;9.771265
64618.236064;9.961306
64618.256178;10.965789
64618.276058;11.089079
64618.296048;11.205517
64618.316981;12.214843
64618.336757;11.321159
64618.356672;9.865748
64618.376565;9.222772
64618.396369;8.741744
64618.416612;7.716099
64618.436591;7.690511
64618.456685;8.204070
64618.476665;8.825329
64618.496351;9.106227
64618.516346;9.516310
64618.536735;8.863090
64618.556552;10.479181
64618.576261;11.141316
64618.596471;10.796861
64618.616908;10.141802
64618.636175;7.996620
64618.656337;9.843109
64618.676393;9.146602
64618.696538;9.044001
64618.716482;10.830986
64618.736496;9.955336
64618.756290;10.294134
64618.776555;10.577473
64618.796408;10.304993
64618.816645;10.327987
64618.836193;10.326038
64618.857060;10.162100
64618.876613;10.087570
64618.896507;10.015850
64618.916035;9.658493
64618.936243;9.719986
64618.956525;8.638199
64618.976748;6.709364
64618.996614;-6.566704
