x;y;z
0.423357;-0.570586;0.042517
0.423363;-0.570592;0.042505
0.423351;-0.570610;0.042487
0.423351;-0.570610;0.042484
0.423382;-0.570671;0.042502
0.423405;-0.570721;0.042531
0.423469;-0.570837;0.042565
0.423558;-0.570967;0.042564
0.423677;-0.571121;0.042593
0.423843;-0.571274;0.042599
0.424062;-0.571358;0.042605
0.424215;-0.571401;0.042640
0.424483;-0.571324;0.042659
0.424656;-0.571248;0.042660
0.424912;-0.571074;0.042697
0.425097;-0.570928;0.042666
0.425289;-0.570572;0.042627
0.425350;-0.570405;0.042619
0.425427;-0.570085;0.042671
0.425429;-0.569733;0.042690
0.425355;-0.569353;0.042707
0.425241;-0.568980;0.042756
0.425037;-0.568640;0.042745
0.424780;-0.568253;0.042754
0.424512;-0.567952;0.042757
0.424219;-0.567709;0.042773
0.423737;-0.567469;0.042790
0.423461;-0.567455;0.042726
0.423112;-0.567466;0.042701
0.422715;-0.567576;0.042699
0.422131;-0.567803;0.042695
0.421826;-0.567930;0.042648
0.421228;-0.568326;0.042671
0.421020;-0.568473;0.042672
0.420597;-0.568797;0.042694
0.420252;-0.569130;0.042709
0.419962;-0.569467;0.042763
0.419776;-0.569755;0.042758
0.419636;-0.570093;0.042767
0.419586;-0.570462;0.042773
0.419506;-0.570889;0.042778
0.419491;-0.571322;0.042741
0.419554;-0.571979;0.042734
0.419605;-0.572290;0.042713
0.419726;-0.572740;0.042681
0.419958;-0.573290;0.042683
0.420167;-0.573721;0.042645
0.420326;-0.573988;0.042690
0.420523;-0.574322;0.042619
0.420735;-0.574680;0.042621
0.421025;-0.574988;0.042626
0.421335;-0.575296;0.042663
0.421677;-0.575552;0.042652
0.422048;-0.575742;0.042603
0.422476;-0.575892;0.042564
0.422912;-0.575989;0.042578
0.423383;-0.576045;0.042588
0.423872;-0.576008;0.042566
0.424520;-0.575987;0.042602
0.424812;-0.575945;0.042568
0.425490;-0.575771;0.042558
0.425791;-0.575694;0.042577
0.426162;-0.575559;0.042559
0.426542;-0.575404;0.042565
0.426867;-0.575277;0.042583
0.427212;-0.575030;0.042568
0.427585;-0.574773;0.042560
0.427918;-0.574498;0.042558
0.428231;-0.574239;0.042570
0.428656;-0.573839;0.042542
0.428841;-0.573622;0.042530
0.429090;-0.573274;0.042543
0.429268;-0.572905;0.042528
0.429477;-0.572474;0.042546
0.429621;-0.572029;0.042573
0.429784;-0.571354;0.042565
0.429828;-0.571053;0.042578
0.429877;-0.570419;0.042593
0.429856;-0.570109;0.042569
0.429870;-0.569511;0.042629
0.429822;-0.569250;0.042614
0.429729;-0.568705;0.042601
0.429682;-0.568427;0.042603
0.429536;-0.568015;0.042581
0.429344;-0.567627;0.042606
0.429090;-0.567083;0.042610
0.428979;-0.566838;0.042653
0.428688;-0.566326;0.042649
0.428476;-0.565972;0.042648
0.428324;-0.565709;0.042625
0.428080;-0.565391;0.042651
0.427756;-0.565074;0.042650
0.427453;-0.564752;0.042621
0.427134;-0.564470;0.042614
0.426779;-0.564276;0.042642
0.426378;-0.564089;0.042654
0.426002;-0.563918;0.042638
0.425554;-0.563810;0.042641
0.425139;-0.563702;0.042627
0.424637;-0.563634;0.042653
0.424159;-0.563583;0.042627
0.423705;-0.563565;0.042658
0.423257;-0.563564;0.042672
0.422838;-0.563535;0.042663
0.422437;-0.563513;0.042660
0.422040;-0.563542;0.042669
0.421608;-0.563614;0.042692
0.421189;-0.563720;0.042688
0.420759;-0.563871;0.042715
0.420172;-0.564092;0.042691
0.419876;-0.564229;0.042704
0.419468;-0.564437;0.042686
0.419083;-0.564672;0.042724
0.418692;-0.564955;0.042721
0.418321;-0.565235;0.042726
0.417789;-0.565644;0.042725
0.417600;-0.565815;0.042772
0.417176;-0.566220;0.042781
0.416860;-0.566586;0.042832
0.416589;-0.566964;0.042854
0.416420;-0.567209;0.042879
0.416220;-0.567656;0.042870
0.415985;-0.568234;0.042880
0.415875;-0.568531;0.042845
0.415736;-0.569132;0.042842
0.415663;-0.569452;0.042853
0.415579;-0.569874;0.042780
0.415482;-0.570288;0.042745
0.415433;-0.570817;0.042724
0.415419;-0.571075;0.042724
0.415422;-0.571501;0.042701
0.415448;-0.572032;0.042695
0.415479;-0.572318;0.042731
0.415531;-0.572860;0.042766
0.415592;-0.573127;0.042790
0.415659;-0.573553;0.042773
0.415798;-0.573931;0.042745
0.415979;-0.574520;0.042769
0.416143;-0.574874;0.042753
0.416283;-0.575150;0.042787
0.416561;-0.575664;0.042745
0.416677;-0.575881;0.042732
0.416923;-0.576326;0.042754
0.417160;-0.576701;0.042741
0.417362;-0.577044;0.042705
0.417638;-0.577379;0.042664
0.418059;-0.577820;0.042681
0.418380;-0.578112;0.042620
0.418611;-0.578294;0.042613
0.418998;-0.578521;0.042561
0.419559;-0.578839;0.042590
0.419916;-0.579000;0.042576
0.420366;-0.579179;0.042570
0.420715;-0.579298;0.042544
0.421165;-0.579460;0.042563
0.421596;-0.579577;0.042541
0.422016;-0.579690;0.042500
0.422571;-0.579843;0.042520
0.422854;-0.579891;0.042529
0.423506;-0.579957;0.042575
0.423769;-0.579984;0.042568
0.424374;-0.579981;0.042548
0.424698;-0.579967;0.042550
0.425180;-0.579920;0.042560
0.425663;-0.579842;0.042568
0.426321;-0.579723;0.042572
0.426767;-0.579604;0.042586
0.427258;-0.579437;0.042556
0.427664;-0.579309;0.042577
0.427934;-0.579199;0.042575
0.428368;-0.579007;0.042565
0.428822;-0.578796;0.042592
0.429415;-0.578426;0.042574
0.429648;-0.578279;0.042548
0.430087;-0.577953;0.042565
0.430487;-0.577647;0.042563
0.430884;-0.577348;0.042550
0.431377;-0.576916;0.042527
0.431567;-0.576710;0.042504
0.431843;-0.576382;0.042492
0.432171;-0.575999;0.042494
0.432439;-0.575600;0.042504
0.432743;-0.575042;0.042500
0.432960;-0.574594;0.042524
0.433126;-0.574130;0.042489
0.433227;-0.573854;0.042542
0.433399;-0.573262;0.042560
0.433486;-0.572950;0.042563
0.433593;-0.572537;0.042617
0.433759;-0.571972;0.042712
0.433801;-0.571706;0.042700
0.433873;-0.571138;0.042645
0.433894;-0.570769;0.042638
0.433948;-0.570529;0.042625
0.433925;-0.569967;0.042585
0.433915;-0.569699;0.042607
0.433907;-0.569273;0.042612
0.433844;-0.568685;0.042571
0.433768;-0.568259;0.042576
0.433738;-0.568042;0.042589
0.433636;-0.567634;0.042556
0.433498;-0.567099;0.042574
0.433418;-0.566891;0.042537
0.433287;-0.566489;0.042552
0.433141;-0.566104;0.042555
0.432977;-0.565729;0.042583
0.432791;-0.565357;0.042591
0.432590;-0.564992;0.042586
0.432425;-0.564622;0.042610
0.432203;-0.564288;0.042638
0.431870;-0.563782;0.042661
0.431667;-0.563396;0.042641
0.431519;-0.563180;0.042677
0.431250;-0.562775;0.042626
0.431011;-0.562475;0.042687
0.430710;-0.562129;0.042670
0.430183;-0.561739;0.042658
0.429871;-0.561510;0.042705
0.429465;-0.561244;0.042674
0.429208;-0.561087;0.042682
0.428702;-0.560840;0.042712
0.428458;-0.560718;0.042733
0.427839;-0.560465;0.042706
0.427351;-0.560291;0.042690
0.427057;-0.560153;0.042678
0.426544;-0.559944;0.042692
0.426159;-0.559778;0.042723
0.425905;-0.559727;0.042685
0.425299;-0.559600;0.042720
0.424991;-0.559503;0.042682
0.424569;-0.559469;0.042709
0.424127;-0.559441;0.042709
0.423606;-0.559408;0.042704
0.423182;-0.559414;0.042727
0.422546;-0.559411;0.042713
0.422243;-0.559446;0.042736
0.421631;-0.559525;0.042703
0.421325;-0.559581;0.042733
0.420893;-0.559639;0.042706
0.420501;-0.559735;0.042728
0.419879;-0.559885;0.042740
0.419620;-0.559930;0.042745
0.419138;-0.560101;0.042772
0.418706;-0.560293;0.042773
0.418275;-0.560462;0.042770
0.417830;-0.560691;0.042811
0.417258;-0.561008;0.042807
0.416878;-0.561245;0.042793
0.416619;-0.561381;0.042791
0.416092;-0.561766;0.042815
0.415864;-0.561934;0.042802
0.415509;-0.562208;0.042816
0.415026;-0.562573;0.042857
0.414777;-0.562757;0.042823
0.414442;-0.563061;0.042843
0.413959;-0.563591;0.042900
0.413808;-0.563787;0.042914
0.413405;-0.564367;0.042916
0.413267;-0.564585;0.042889
0.412950;-0.565166;0.042872
0.412796;-0.565478;0.042871
0.412525;-0.566141;0.042805
0.412423;-0.566413;0.042805
0.412200;-0.567062;0.042773
0.412047;-0.567435;0.042717
0.411896;-0.567879;0.042711
0.411816;-0.568172;0.042685
0.411685;-0.568626;0.042714
0.411586;-0.569077;0.042728
0.411514;-0.569564;0.042736
0.411426;-0.570060;0.042731
0.411380;-0.570558;0.042772
0.411335;-0.571223;0.042778
0.411359;-0.571703;0.042798
0.411375;-0.572059;0.042829
0.411388;-0.572732;0.042779
0.411461;-0.573046;0.042790
0.411553;-0.573718;0.042782
0.411634;-0.574031;0.042813
0.411801;-0.574695;0.042760
0.411889;-0.575009;0.042772
0.412069;-0.575497;0.042813
0.412251;-0.575950;0.042793
0.412410;-0.576377;0.042749
0.412634;-0.576834;0.042756
0.412876;-0.577301;0.042770
0.413114;-0.577745;0.042718
0.413354;-0.578241;0.042713
0.413601;-0.578697;0.042693
0.413862;-0.579148;0.042697
0.414264;-0.579688;0.042661
0.414487;-0.579934;0.042652
0.414823;-0.580313;0.042652
0.415206;-0.580683;0.042587
0.415754;-0.581146;0.042570
0.416048;-0.581354;0.042574
0.416661;-0.581750;0.042490
0.416890;-0.581918;0.042514
0.417389;-0.582170;0.042480
0.417881;-0.582409;0.042451
0.418527;-0.582662;0.042439
0.418822;-0.582820;0.042443
0.419465;-0.583123;0.042471
0.419726;-0.583239;0.042420
0.420205;-0.583405;0.042400
0.420912;-0.583631;0.042462
0.421270;-0.583705;0.042458
0.421986;-0.583818;0.042456
0.422319;-0.583870;0.042430
0.423047;-0.583955;0.042473
0.423371;-0.583976;0.042443
0.423856;-0.584001;0.042468
0.424325;-0.584027;0.042450
0.424798;-0.583995;0.042439
0.425232;-0.583991;0.042451
0.425820;-0.583940;0.042429
0.426136;-0.583902;0.042408
0.426689;-0.583826;0.042443
0.427115;-0.583719;0.042434
0.427476;-0.583627;0.042421
0.427913;-0.583507;0.042445
0.428164;-0.583426;0.042425
0.428636;-0.583307;0.042422
0.429024;-0.583151;0.042444
0.429308;-0.583061;0.042448
0.429784;-0.582844;0.042429
0.430011;-0.582743;0.042422
0.430516;-0.582479;0.042449
0.430754;-0.582324;0.042448
0.431281;-0.582026;0.042429
0.431563;-0.581852;0.042448
0.431948;-0.581601;0.042490
0.432130;-0.581464;0.042452
0.432588;-0.581119;0.042441
0.432865;-0.580918;0.042468
0.433075;-0.580743;0.042452
0.433568;-0.580365;0.042446
0.433707;-0.580257;0.042458
0.434038;-0.579973;0.042423
0.434351;-0.579686;0.042442
0.434722;-0.579266;0.042443
0.434893;-0.579058;0.042469
0.435150;-0.578729;0.042474
0.435507;-0.578191;0.042463
0.435621;-0.578006;0.042477
0.435938;-0.577434;0.042489
0.436051;-0.577187;0.042492
0.436327;-0.576621;0.042548
0.436433;-0.576408;0.042562
0.436611;-0.576040;0.042602
0.436787;-0.575626;0.042597
0.437018;-0.575075;0.042613
0.437200;-0.574678;0.042564
0.437294;-0.574374;0.042563
0.437374;-0.574115;0.042546
0.437483;-0.573703;0.042558
0.437566;-0.573350;0.042589
0.437646;-0.572936;0.042550
0.437716;-0.572539;0.042563
0.437841;-0.572039;0.042570
0.437902;-0.571573;0.042552
0.437927;-0.571150;0.042558
0.437996;-0.570562;0.042526
0.438001;-0.570280;0.042544
0.438008;-0.569893;0.042602
0.438003;-0.569289;0.042562
0.437969;-0.569019;0.042533
0.437950;-0.568595;0.042558
0.437891;-0.568125;0.042523
0.437814;-0.567723;0.042532
0.437748;-0.567345;0.042549
0.437600;-0.566759;0.042547
0.437502;-0.566349;0.042569
0.437395;-0.566033;0.042523
0.437263;-0.565485;0.042571
0.437081;-0.565112;0.042562
0.436969;-0.564700;0.042589
0.436785;-0.564273;0.042541
0.436649;-0.563977;0.042542
0.436480;-0.563571;0.042589
0.436193;-0.563076;0.042607
0.436047;-0.562781;0.042531
0.435736;-0.562231;0.042565
0.435659;-0.562046;0.042625
0.435414;-0.561656;0.042634
0.435178;-0.561237;0.042575
0.434921;-0.560842;0.042575
0.434698;-0.560513;0.042636
0.434310;-0.560055;0.042616
0.434127;-0.559842;0.042626
0.433828;-0.559494;0.042603
0.433487;-0.559189;0.042627
0.433168;-0.558954;0.042634
0.432791;-0.558703;0.042657
0.432363;-0.558381;0.042620
0.431850;-0.558066;0.042621
0.431580;-0.557958;0.042656
0.431015;-0.557644;0.042648
0.430629;-0.557375;0.042638
0.430383;-0.557217;0.042625
0.430029;-0.556985;0.042640
0.429470;-0.556673;0.042662
0.429247;-0.556586;0.042664
0.428841;-0.556408;0.042645
0.428426;-0.556214;0.042613
0.427801;-0.556044;0.042618
0.427333;-0.555937;0.042634
0.426889;-0.555843;0.042647
0.426649;-0.555754;0.042625
0.426041;-0.555650;0.042633
0.425538;-0.555548;0.042641
0.425161;-0.555510;0.042663
0.424666;-0.555421;0.042677
0.424215;-0.555367;0.042683
0.423888;-0.555342;0.042646
0.423450;-0.555346;0.042678
0.422756;-0.555323;0.042661
0.422494;-0.555333;0.042651
0.422026;-0.555334;0.042649
0.421561;-0.555386;0.042664
0.421110;-0.555439;0.042674
0.420664;-0.555484;0.042669
0.420224;-0.555536;0.042662
0.419553;-0.555691;0.042700
0.419142;-0.555776;0.042670
0.418667;-0.555906;0.042691
0.418399;-0.556018;0.042722
0.417828;-0.556215;0.042738
0.417378;-0.556355;0.042720
0.416939;-0.556534;0.042730
0.416498;-0.556731;0.042740
0.416075;-0.556951;0.042768
0.415667;-0.557182;0.042788
0.415214;-0.557414;0.042774
0.414948;-0.557564;0.042787
0.414406;-0.557897;0.042758
0.414167;-0.558081;0.042808
0.413745;-0.558407;0.042825
0.413248;-0.558744;0.042820
0.412996;-0.558938;0.042805
0.412541;-0.559283;0.042831
0.412312;-0.559500;0.042868
0.411903;-0.559817;0.042868
0.411562;-0.560153;0.042875
0.411241;-0.560515;0.042919
0.410899;-0.560868;0.042881
0.410516;-0.561431;0.042914
0.410354;-0.561656;0.042921
0.410025;-0.562211;0.042905
0.409791;-0.562628;0.042864
0.409566;-0.563043;0.042832
0.409425;-0.563344;0.042845
0.409125;-0.563894;0.042740
0.408991;-0.564147;0.042752
0.408805;-0.564605;0.042719
0.408565;-0.565185;0.042696
0.408415;-0.565474;0.042673
0.408237;-0.565923;0.042699
0.408069;-0.566386;0.042746
0.407835;-0.567030;0.042784
0.407761;-0.567291;0.042785
0.407620;-0.567783;0.042789
0.407537;-0.568275;0.042803
0.407447;-0.568739;0.042781
0.407366;-0.569250;0.042805
0.407308;-0.569750;0.042796
0.407288;-0.570395;0.042813
0.407243;-0.570959;0.042815
0.407250;-0.571240;0.042802
0.407267;-0.571742;0.042811
0.407284;-0.572221;0.042823
0.407348;-0.572883;0.042804
0.407405;-0.573210;0.042764
0.407501;-0.573681;0.042807
0.407556;-0.574154;0.042792
0.407625;-0.574634;0.042797
0.407706;-0.575140;0.042818
0.407806;-0.575602;0.042799
0.407978;-0.576098;0.042819
0.408080;-0.576612;0.042813
0.408291;-0.577033;0.042806
0.408448;-0.577506;0.042799
0.408737;-0.578177;0.042810
0.408953;-0.578634;0.042818
0.409091;-0.578863;0.042786
0.409375;-0.579514;0.042763
0.409575;-0.579909;0.042781
0.409740;-0.580184;0.042740
0.409961;-0.580639;0.042733
0.410290;-0.581131;0.042729
0.410641;-0.581719;0.042680
0.410844;-0.581994;0.042681
0.411155;-0.582373;0.042665
0.411635;-0.582887;0.042624
0.411878;-0.583111;0.042607
0.412384;-0.583579;0.042581
0.412662;-0.583761;0.042514
0.413081;-0.584069;0.042500
0.413594;-0.584410;0.042426
0.413864;-0.584620;0.042389
0.414337;-0.584902;0.042383
0.414916;-0.585254;0.042408
0.415176;-0.585463;0.042396
0.415557;-0.585717;0.042384
0.415992;-0.585989;0.042371
0.416592;-0.586300;0.042365
0.416876;-0.586471;0.042363
0.417534;-0.586728;0.042365
0.417883;-0.586871;0.042365
0.418419;-0.587018;0.042348
0.418926;-0.587204;0.042374
0.419588;-0.587392;0.042366
0.420099;-0.587520;0.042379
0.420416;-0.587600;0.042334
0.421160;-0.587757;0.042329
0.421426;-0.587818;0.042336
0.421960;-0.587884;0.042329
0.422759;-0.587969;0.042327
0.423227;-0.588016;0.042318
0.423565;-0.588028;0.042329
0.424100;-0.588021;0.042298
0.424612;-0.588023;0.042309
0.425125;-0.588010;0.042310
0.425834;-0.587977;0.042346
0.426288;-0.587919;0.042299
0.426633;-0.587896;0.042321
0.427161;-0.587802;0.042350
0.427701;-0.587687;0.042347
0.428190;-0.587595;0.042356
0.428732;-0.587459;0.042387
0.429228;-0.587309;0.042362
0.429902;-0.587092;0.042373
0.430237;-0.586991;0.042399
0.430684;-0.586810;0.042360
0.431167;-0.586628;0.042442
0.431620;-0.586399;0.042391
0.432088;-0.586190;0.042440
0.432571;-0.585920;0.042452
0.433218;-0.585575;0.042464
0.433663;-0.585276;0.042447
0.433959;-0.585096;0.042457
0.434400;-0.584791;0.042461
0.434838;-0.584484;0.042454
0.435268;-0.584154;0.042460
0.435695;-0.583856;0.042470
0.436104;-0.583525;0.042460
0.436533;-0.583151;0.042400
0.436932;-0.582834;0.042428
0.437312;-0.582460;0.042445
0.437825;-0.581903;0.042424
0.438053;-0.581611;0.042427
0.438364;-0.581208;0.042436
0.438684;-0.580741;0.042458
0.439040;-0.580118;0.042471
0.439232;-0.579802;0.042492
0.439601;-0.579088;0.042514
0.439756;-0.578762;0.042518
0.440021;-0.578247;0.042546
0.440256;-0.577798;0.042615
0.440479;-0.577317;0.042667
0.440798;-0.576606;0.042624
0.440931;-0.576327;0.042598
0.441167;-0.575643;0.042543
0.441295;-0.575093;0.042543
0.441403;-0.574787;0.042536
0.441589;-0.574072;0.042564
0.441694;-0.573695;0.042568
0.441809;-0.572966;0.042559
0.441852;-0.572623;0.042559
0.441961;-0.571909;0.042550
0.442007;-0.571506;0.042526
0.442019;-0.570809;0.042508
0.442052;-0.570430;0.042559
0.442033;-0.569894;0.042566
0.442030;-0.569334;0.042548
0.441996;-0.568605;0.042586
0.441953;-0.568030;0.042557
0.441928;-0.567637;0.042567
0.441836;-0.567129;0.042614
0.441770;-0.566614;0.042603
0.441645;-0.566055;0.042613
0.441507;-0.565465;0.042583
0.441342;-0.564887;0.042552
0.441177;-0.564401;0.042576
0.441002;-0.563895;0.042627
0.440764;-0.563316;0.042628
0.440576;-0.562752;0.042578
0.440352;-0.562227;0.042521
0.440093;-0.561719;0.042552
0.439892;-0.561272;0.042638
0.439445;-0.560514;0.042571
0.439332;-0.560251;0.042561
0.439047;-0.559728;0.042558
0.438738;-0.559259;0.042566
0.438503;-0.558824;0.042639
0.438096;-0.558195;0.042662
0.437776;-0.557760;0.042664
0.437526;-0.557428;0.042605
0.436995;-0.556861;0.042584
0.436707;-0.556604;0.042656
0.436127;-0.556100;0.042644
0.435868;-0.555876;0.042654
0.435200;-0.555371;0.042669
0.434721;-0.555064;0.042583
0.434408;-0.554864;0.042652
0.433933;-0.554563;0.042630
0.433418;-0.554281;0.042619
0.432947;-0.553956;0.042607
0.432491;-0.553628;0.042590
0.432022;-0.553381;0.042646
0.431520;-0.553115;0.042634
0.430984;-0.552873;0.042632
0.430455;-0.552655;0.042582
0.429917;-0.552433;0.042593
0.429371;-0.552263;0.042594
0.428836;-0.552115;0.042639
0.428243;-0.551948;0.042627
0.427653;-0.551770;0.042588
0.427076;-0.551648;0.042589
0.426271;-0.551471;0.042595
0.425734;-0.551371;0.042574
0.425378;-0.551341;0.042620
0.424602;-0.551225;0.042626
0.424185;-0.551188;0.042594
0.423573;-0.551168;0.042594
0.422995;-0.551140;0.042627
0.422221;-0.551165;0.042638
0.421830;-0.551220;0.042700
0.421266;-0.551265;0.042706
0.420659;-0.551323;0.042672
0.420099;-0.551409;0.042712
0.419566;-0.551499;0.042732
0.418991;-0.551613;0.042746
0.418464;-0.551726;0.042758
0.417821;-0.551867;0.042731
0.417066;-0.552129;0.042792
0.416686;-0.552213;0.042765
0.416121;-0.552422;0.042725
0.415377;-0.552743;0.042771
0.415033;-0.552901;0.042769
0.414471;-0.553120;0.042750
0.413795;-0.553478;0.042801
0.413461;-0.553643;0.042792
0.412933;-0.553945;0.042815
0.412440;-0.554252;0.042807
0.411933;-0.554585;0.042813
0.411283;-0.555061;0.042832
0.410951;-0.555280;0.042820
0.410486;-0.555633;0.042830
0.410007;-0.556001;0.042833
0.409575;-0.556346;0.042874
0.409129;-0.556734;0.042932
0.408709;-0.557115;0.042927
0.408282;-0.557516;0.042930
0.407924;-0.557915;0.042973
0.407503;-0.558445;0.042964
0.407219;-0.558824;0.042966
0.406963;-0.559249;0.042955
0.406775;-0.559636;0.042955
0.406621;-0.559862;0.042915
0.406385;-0.560261;0.042898
0.406203;-0.560601;0.042863
0.405971;-0.560935;0.042795
0.405740;-0.561405;0.042771
0.405553;-0.561751;0.042754
0.405367;-0.562088;0.042740
0.405179;-0.562421;0.042752
0.405010;-0.562779;0.042818
0.404908;-0.563023;0.042835
0.404731;-0.563374;0.042862
0.404574;-0.563776;0.042834
0.404429;-0.564169;0.042838
0.404289;-0.564532;0.042866
0.404146;-0.564922;0.042829
0.403987;-0.565467;0.042871
0.403877;-0.565888;0.042852
0.403771;-0.566213;0.042806
0.403729;-0.566477;0.042854
0.403613;-0.567020;0.042880
0.403564;-0.567277;0.042902
0.403483;-0.567651;0.042871
0.403408;-0.568067;0.042850
0.403334;-0.568618;0.042842
0.403317;-0.568865;0.042822
0.403287;-0.569261;0.042845
0.403246;-0.569674;0.042844
0.403208;-0.570199;0.042822
0.403206;-0.570495;0.042847
0.403217;-0.571029;0.042849
0.403175;-0.571303;0.042797
0.403195;-0.571723;0.042821
0.403206;-0.572123;0.042827
0.403209;-0.572545;0.042802
0.403238;-0.572973;0.042814
0.403253;-0.573408;0.042774
0.403336;-0.573838;0.042832
0.403391;-0.574263;0.042798
0.403467;-0.574658;0.042804
0.403562;-0.575200;0.042791
0.403630;-0.575653;0.042766
0.403689;-0.575878;0.042829
0.403810;-0.576388;0.042801
0.403898;-0.576657;0.042833
0.403994;-0.577030;0.042851
0.404099;-0.577431;0.042824
0.404201;-0.577811;0.042796
0.404455;-0.578409;0.042835
0.404488;-0.578626;0.042805
0.404669;-0.578996;0.042829
0.404894;-0.579557;0.042806
0.405070;-0.579889;0.042822
0.405166;-0.580145;0.042823
0.405333;-0.580505;0.042800
0.405511;-0.580858;0.042818
0.405690;-0.581234;0.042830
0.405888;-0.581619;0.042847
0.406093;-0.582024;0.042801
0.406275;-0.582429;0.042824
0.406489;-0.582782;0.042789
0.406714;-0.583164;0.042821
0.406941;-0.583504;0.042775
0.407152;-0.583850;0.042780
0.407509;-0.584273;0.042739
0.407735;-0.584528;0.042751
0.408010;-0.584816;0.042738
0.408267;-0.585060;0.042660
0.408708;-0.585484;0.042594
0.408955;-0.585664;0.042510
