# WaveFront *.obj file (generated by Autodesk ATF)

mtllib Table_geometry.mtl

g Solid1

v -1.250000 0.000000 -1.185000
v -1.250000 0.000000 -0.010000
v -1.249848 0.020000 -1.186736
v -1.250000 0.020000 -1.185000
v -1.250000 0.020000 -0.010000
v -1.249848 0.020000 -0.008264
v -1.248660 0.000000 -1.190000
v -1.248660 0.000000 -0.005000
v -1.248660 0.020000 -1.190000
v -1.249397 0.020000 -1.188420
v -1.249397 0.020000 -0.006580
v -1.248660 0.020000 -0.005000
v -1.246885 0.019464 -1.192252
v -1.246885 0.019464 -0.002748
v -1.245000 0.000000 -1.193660
v -1.245000 0.000000 -0.001340
v -1.244759 0.018255 -1.193794
v -1.244759 0.018255 -0.001206
v -1.240000 0.000000 -1.195000
v -1.240000 0.000000 0.000000
v -1.240000 0.015000 -1.195000
v -1.240000 0.015000 0.000000
v -0.855716 0.019970 -0.779294
v -0.855716 0.019970 -0.389294
v -0.854549 0.019286 -0.779500
v -0.854549 0.019286 -0.389500
v -0.854148 0.020000 -0.808587
v -0.854148 0.020000 -0.771413
v -0.853936 0.020000 -0.419248
v -0.854452 0.020000 -0.382409
v -0.852063 0.000000 -0.808541
v -0.852063 0.000000 -0.771459
v -0.852063 0.000000 -0.418541
v -0.852063 0.000000 -0.381459
v -0.852063 0.018000 -0.808541
v -0.852063 0.018000 -0.771459
v -0.852063 0.018000 -0.418541
v -0.852063 0.018000 -0.381459
v -0.848393 0.019970 -0.820826
v -0.848393 0.019970 -0.430826
v -0.847367 0.019286 -0.820234
v -0.847367 0.019286 -0.430234
v -0.834630 0.019970 -0.742771
v -0.834630 0.019970 -0.352771
v -0.833868 0.019286 -0.743679
v -0.833868 0.019286 -0.353679
v -0.833973 0.020000 -0.351781
v -0.832884 0.020000 -0.839080
v -0.832884 0.020000 -0.740920
v -0.832609 0.020000 -0.449291
v -0.830267 0.000000 -0.838541
v -0.830267 0.000000 -0.741459
v -0.830267 0.000000 -0.448541
v -0.830267 0.000000 -0.351459
v -0.830267 0.018000 -0.838541
v -0.830267 0.018000 -0.741459
v -0.830267 0.018000 -0.448541
v -0.830267 0.018000 -0.351459
v -0.815681 0.019286 -0.846821
v -0.815681 0.019286 -0.456821
v -0.816086 0.019970 -0.847935
v -0.816086 0.019970 -0.457935
v -0.799732 0.020000 -0.338181
v -0.799732 0.020000 -0.005000
v -0.799623 0.019718 -0.003345
v -0.798668 0.019446 -0.003223
v -0.799200 0.019000 -0.002000
v -0.798779 0.019758 -0.339070
v -0.799048 0.019879 -0.005000
v -0.798722 0.019667 -0.004143
v -0.798000 0.019000 -1.193000
v -0.798000 0.019000 -0.850193
v -0.798000 0.019000 -0.729807
v -0.798000 0.019000 -0.460193
v -0.798000 0.019000 -0.339807
v -0.798000 0.019000 -0.005000
v -0.798163 0.019164 -0.003562
v -0.798000 0.019000 -0.002764
v -0.798358 0.019000 -0.002256
v -0.798000 0.019547 -1.192080
v -0.798000 0.019885 -1.191064
v -0.798000 0.020000 -1.190000
v -0.798000 0.020000 -0.851927
v -0.798000 0.019733 -0.850932
v -0.798000 0.019733 -0.729068
v -0.798000 0.020000 -0.728073
v -0.798000 0.020000 -0.461927
v -0.798000 0.019733 -0.460932
v -0.798446 0.019532 -0.005000
v -0.797000 0.019000 -0.850235
v -0.797000 0.019000 -0.729765
v -0.797000 0.019000 -0.460235
v -0.797000 0.019000 -0.339765
v -0.796000 0.019000 -0.850260
v -0.796000 0.019000 -0.729740
v -0.796000 0.019000 -0.460260
v -0.796000 0.019000 -0.339740
v -0.795000 0.000000 -0.850000
v -0.795000 0.000000 -0.730000
v -0.795000 0.000000 -0.460000
v -0.795000 0.000000 -0.340000
v -0.795000 0.018000 -0.850000
v -0.795000 0.018000 -0.730000
v -0.795000 0.018347 -0.460030
v -0.795000 0.018347 -0.339970
v -0.795000 0.019000 -1.193000
v -0.795000 0.019000 -0.850268
v -0.795000 0.018684 -0.729879
v -0.795000 0.019000 -0.460268
v -0.795000 0.019000 -0.339732
v -0.795000 0.019000 -0.002000
v -0.795000 0.019547 -1.192080
v -0.795000 0.019885 -1.191064
v -0.795000 0.020000 -1.190000
v -0.795000 0.020000 -0.005000
v -0.795000 0.019885 -0.003936
v -0.795000 0.019547 -0.002920
v -0.010000 0.000000 -1.195000
v -0.010000 0.000000 0.000000
v -0.010000 0.015000 -1.195000
v -0.010000 0.015000 0.000000
v -0.010000 0.017500 -1.194330
v -0.010000 0.017500 -0.000670
v -0.010000 0.019330 -1.192500
v -0.010000 0.019330 -0.002500
v -0.010000 0.020000 -1.190000
v -0.010000 0.020000 -0.005000
v -0.007500 0.020000 -1.189330
v -0.007500 0.020000 -0.005670
v -0.006683 0.016710 -1.194114
v -0.007435 0.019330 -1.192048
v -0.005670 0.020000 -1.187500
v -0.005670 0.020000 -0.007500
v -0.005000 0.000000 -1.193660
v -0.005000 0.000000 -0.001340
v -0.005000 0.015000 -1.193660
v -0.005000 0.015000 -0.001340
v -0.005179 0.019330 -0.004255
v -0.005000 0.020000 -1.185000
v -0.005000 0.020000 -0.010000
v -0.003766 0.016710 -0.002571
v -0.003505 0.019330 -1.188750
v -0.002500 0.019330 -1.185000
v -0.002500 0.019330 -0.010000
v -0.002614 0.019330 -0.008698
v -0.001601 0.016710 -1.189849
v -0.001340 0.000000 -1.190000
v -0.001340 0.000000 -0.005000
v -0.001340 0.015000 -1.190000
v -0.001340 0.015000 -0.005000
v -0.000670 0.017500 -1.185000
v -0.000670 0.017500 -0.010000
v 0.000000 0.000000 -1.185000
v 0.000000 0.000000 -0.010000
v 0.000000 0.015000 -1.185000
v 0.000000 0.015000 -0.010000
v -0.000449 0.016710 -0.008316
vt 0.000524 -0.000302 0.000000
vt 0.000418 -0.000298 0.000000
vt 0.000314 -0.000293 0.000000
vt 0.000314 -0.003983 0.000000
vt 0.000314 -0.007672 0.000000
vt 0.000314 -0.011361 0.000000
vt 0.000314 -0.015051 0.000000
vt 0.000314 -0.018740 0.000000
vt 0.000418 -0.018736 0.000000
vt 0.000524 -0.018732 0.000000
vt 0.000524 -0.018832 0.000000
vt 0.000524 -0.018933 0.000000
vt 0.000524 -0.019034 0.000000
vt 0.000559 -0.019034 0.000000
vt 0.000593 -0.019034 0.000000
vt 0.000628 -0.019034 0.000000
vt 0.000628 -0.015227 0.000000
vt 0.000628 -0.011420 0.000000
vt 0.000628 -0.007613 0.000000
vt 0.000628 -0.003807 0.000000
vt 0.000628 0.000000 0.000000
vt 0.000593 0.000000 0.000000
vt 0.000559 0.000000 0.000000
vt 0.000524 0.000000 0.000000
vt 0.000524 -0.000101 0.000000
vt 0.000524 -0.000201 0.000000
vt 0.000349 -0.002115 0.000000
vt 0.000489 -0.002115 0.000000
vt 0.000349 -0.006345 0.000000
vt 0.000489 -0.006345 0.000000
vt 0.000349 -0.010574 0.000000
vt 0.000489 -0.010574 0.000000
vt 0.000349 -0.014804 0.000000
vt 0.000489 -0.014804 0.000000
vt -0.013223 0.000150 0.000000
vt -0.013224 0.000050 0.000000
vt -0.013227 -0.000050 0.000000
vt -0.013231 -0.000150 0.000000
vt 0.013731 -0.000150 0.000000
vt 0.013727 -0.000050 0.000000
vt 0.013724 0.000050 0.000000
vt 0.013723 0.000150 0.000000
vt -0.072981 0.000100 0.000000
vt -0.072907 0.000027 0.000000
vt -0.072807 0.000000 0.000000
vt -0.046193 0.000000 0.000000
vt -0.046093 0.000027 0.000000
vt -0.046019 0.000100 0.000000
vt -0.013057 -0.017300 0.000000
vt -0.014342 -0.020788 0.000000
vt -0.017391 -0.022915 0.000000
vt -0.021109 -0.022915 0.000000
vt -0.024158 -0.020788 0.000000
vt -0.025443 -0.017300 0.000000
vt -0.059250 -0.017300 0.000000
vt -0.059250 -0.062366 0.000000
vt -0.059092 -0.062440 0.000000
vt -0.058924 -0.062485 0.000000
vt -0.058750 -0.062500 0.000000
vt 0.058750 -0.062500 0.000000
vt 0.058924 -0.062485 0.000000
vt 0.059092 -0.062440 0.000000
vt 0.059250 -0.062366 0.000000
vt 0.059250 -0.017473 0.000000
vt 0.025932 -0.017473 0.000000
vt 0.024572 -0.020897 0.000000
vt 0.021509 -0.022945 0.000000
vt 0.017825 -0.022894 0.000000
vt 0.014821 -0.020761 0.000000
vt 0.013557 -0.017300 0.000000
vt 0.033981 0.000000 0.000000
vt 0.033907 0.000110 0.000000
vt 0.033818 0.000209 0.000000
vt 0.000500 0.000209 0.000000
vt 0.000500 0.000140 0.000000
vt 0.000500 0.000070 0.000000
vt 0.000500 0.000000 0.000000
vt -0.000181 -0.000226 0.000000
vt -0.000085 -0.000277 0.000000
vt -0.000038 -0.000310 0.000000
vt -0.000000 -0.000379 0.000000
vt -0.000000 0.000000 0.000000
vt -0.000060 0.000000 0.000000
vt -0.000121 0.000000 0.000000
vt -0.000181 0.000000 0.000000
vt -0.000181 -0.000113 0.000000
vt -0.000110 -0.000150 0.000000
vt -0.000026 -0.000150 0.000000
vt -0.000026 -0.000197 0.000000
vt -0.000091 -0.000197 0.000000
vt -0.000110 -0.000197 0.000000
vt -0.000110 -0.000069 0.000000
vt -0.000091 -0.000069 0.000000
vt -0.000026 -0.000069 0.000000
vt -0.000091 -0.000150 0.000000
vt -0.014250 -0.000071 0.000000
vt -0.013830 -0.000071 0.000000
vt -0.013788 -0.000224 0.000000
vt -0.013777 -0.000393 0.000000
vt 0.031116 -0.000393 0.000000
vt 0.030938 -0.000159 0.000000
vt 0.030726 0.000038 0.000000
vt 0.030250 0.000393 0.000000
vt -0.092750 0.000393 0.000000
vt -0.092750 0.000131 0.000000
vt -0.092750 -0.000131 0.000000
vt -0.092750 -0.000393 0.000000
vt -0.014250 -0.000393 0.000000
vt -0.014250 -0.000285 0.000000
vt -0.014250 -0.000178 0.000000
vt 0.000314 -0.018571 0.000000
vt 0.000414 -0.018658 0.000000
vt 0.000524 -0.018732 0.000000
vt 0.000524 -0.018832 0.000000
vt 0.000524 -0.018933 0.000000
vt 0.000524 -0.019034 0.000000
vt 0.000559 -0.019034 0.000000
vt 0.000593 -0.019034 0.000000
vt 0.000628 -0.019034 0.000000
vt 0.000628 -0.015227 0.000000
vt 0.000628 -0.011420 0.000000
vt 0.000628 -0.007613 0.000000
vt 0.000628 -0.003807 0.000000
vt 0.000628 0.000000 0.000000
vt 0.000593 0.000000 0.000000
vt 0.000559 0.000000 0.000000
vt 0.000524 0.000000 0.000000
vt 0.000524 -0.000101 0.000000
vt 0.000524 -0.000201 0.000000
vt 0.000524 -0.000302 0.000000
vt 0.000418 -0.000298 0.000000
vt 0.000314 -0.000293 0.000000
vt 0.000314 -0.003949 0.000000
vt 0.000314 -0.007604 0.000000
vt 0.000314 -0.011260 0.000000
vt 0.000314 -0.014915 0.000000
vt 0.000349 -0.002115 0.000000
vt 0.000489 -0.014804 0.000000
vt 0.000349 -0.014804 0.000000
vt 0.000489 -0.010574 0.000000
vt 0.000349 -0.010574 0.000000
vt 0.000489 -0.006345 0.000000
vt 0.000349 -0.006345 0.000000
vt 0.000489 -0.002115 0.000000
vt 0.025777 0.000150 0.000000
vt 0.025776 0.000050 0.000000
vt 0.025773 -0.000050 0.000000
vt 0.025769 -0.000150 0.000000
vt 0.059250 -0.000150 0.000000
vt 0.059474 -0.000150 0.000000
vt 0.059499 -0.000160 0.000000
vt 0.059524 -0.000186 0.000000
vt 0.059550 -0.000270 0.000000
vt 0.059550 0.000150 0.000000
vt -0.000000 0.001341 0.000000
vt 0.000262 0.001341 0.000000
vt 0.000524 0.001341 0.000000
vt 0.000785 0.001341 0.000000
vt 0.000785 0.001788 0.000000
vt 0.000785 0.002235 0.000000
vt 0.000785 0.002682 0.000000
vt 0.000524 0.002682 0.000000
vt 0.000262 0.002682 0.000000
vt -0.000000 0.002682 0.000000
vt -0.000000 0.002235 0.000000
vt -0.000000 0.001788 0.000000
vt 0.000524 0.001490 0.000000
vt 0.000175 0.001490 0.000000
vt 0.000524 0.002086 0.000000
vt 0.000175 0.002086 0.000000
vt -0.088625 0.000393 0.000000
vt -0.088625 0.000131 0.000000
vt -0.088625 -0.000131 0.000000
vt -0.088625 -0.000393 0.000000
vt 0.028875 -0.000393 0.000000
vt 0.028875 -0.000131 0.000000
vt 0.028875 0.000131 0.000000
vt 0.028875 0.000393 0.000000
vt -0.000000 0.000000 0.000000
vt 0.000262 0.000000 0.000000
vt 0.000524 0.000000 0.000000
vt 0.000785 0.000000 0.000000
vt 0.000785 0.000447 0.000000
vt 0.000785 0.000894 0.000000
vt 0.000785 0.001341 0.000000
vt 0.000524 0.001341 0.000000
vt 0.000262 0.001341 0.000000
vt -0.000000 0.001341 0.000000
vt -0.000000 0.000894 0.000000
vt -0.000000 0.000447 0.000000
vt 0.000524 0.000298 0.000000
vt 0.000175 0.000298 0.000000
vt 0.000524 0.000894 0.000000
vt 0.000175 0.000894 0.000000
vt -0.048250 -0.000071 0.000000
vt -0.048250 -0.000178 0.000000
vt -0.048250 -0.000285 0.000000
vt -0.048250 -0.000393 0.000000
vt 0.030250 -0.000393 0.000000
vt 0.030250 -0.000131 0.000000
vt 0.030250 0.000131 0.000000
vt 0.030250 0.000393 0.000000
vt -0.092750 0.000393 0.000000
vt -0.093226 0.000038 0.000000
vt -0.093439 -0.000159 0.000000
vt -0.093616 -0.000393 0.000000
vt -0.048550 -0.000393 0.000000
vt -0.048550 -0.000285 0.000000
vt -0.048550 -0.000178 0.000000
vt -0.048550 -0.000071 0.000000
vt 0.059250 -0.017000 0.000000
vt 0.059250 0.061500 0.000000
vt 0.059183 0.061750 0.000000
vt 0.059000 0.061933 0.000000
vt 0.058750 0.062000 0.000000
vt -0.058750 0.062000 0.000000
vt -0.059000 0.061933 0.000000
vt -0.059183 0.061750 0.000000
vt -0.059250 0.061500 0.000000
vt -0.059250 -0.017000 0.000000
vt -0.119300 0.000100 0.000000
vt -0.119208 0.000045 0.000000
vt -0.119106 0.000011 0.000000
vt -0.119000 0.000000 0.000000
vt -0.000500 0.000000 0.000000
vt -0.000394 0.000011 0.000000
vt -0.000292 0.000045 0.000000
vt -0.000200 0.000100 0.000000
vt -0.034473 0.000100 0.000000
vt -0.034488 0.000132 0.000000
vt -0.034497 0.000165 0.000000
vt -0.034500 0.000200 0.000000
vt -0.034500 0.002000 0.000000
vt -0.046500 0.002000 0.000000
vt -0.046500 0.000200 0.000000
vt -0.046503 0.000165 0.000000
vt -0.046512 0.000132 0.000000
vt -0.046527 0.000100 0.000000
vt -0.073473 0.000100 0.000000
vt -0.073488 0.000132 0.000000
vt -0.073497 0.000165 0.000000
vt -0.073500 0.000200 0.000000
vt -0.073500 0.002000 0.000000
vt -0.085500 0.002000 0.000000
vt -0.085500 0.000200 0.000000
vt -0.085503 0.000165 0.000000
vt -0.085512 0.000132 0.000000
vt -0.085527 0.000100 0.000000
vt -0.025269 -0.000150 0.000000
vt -0.025273 -0.000050 0.000000
vt -0.025276 0.000050 0.000000
vt -0.025277 0.000150 0.000000
vt -0.059550 0.000150 0.000000
vt -0.059550 -0.000150 0.000000
vt -0.085193 0.000000 0.000000
vt -0.085093 0.000027 0.000000
vt -0.085019 0.000100 0.000000
vt -0.119300 0.000100 0.000000
vt -0.119208 0.000045 0.000000
vt -0.119106 0.000011 0.000000
vt -0.119000 0.000000 0.000000
vt 0.000200 -0.009425 0.000000
vt 0.000200 -0.013195 0.000000
vt 0.000200 -0.016965 0.000000
vt 0.000200 0.016965 0.000000
vt 0.000200 0.013195 0.000000
vt 0.000200 0.009425 0.000000
vt 0.002000 0.009425 0.000000
vt 0.002000 0.013195 0.000000
vt 0.002000 -0.020735 0.000000
vt 0.002000 -0.016965 0.000000
vt 0.002000 -0.013195 0.000000
vt 0.002000 -0.009425 0.000000
vt 0.000200 -0.020735 0.000000
vt 0.000200 -0.020735 0.000000
vt 0.002000 0.016965 0.000000
vt 0.002000 0.016965 0.000000
vt 0.000200 -0.009425 0.000000
vt 0.000200 -0.013195 0.000000
vt 0.000200 -0.016965 0.000000
vt 0.000200 0.016965 0.000000
vt 0.000200 0.013195 0.000000
vt 0.000200 0.009425 0.000000
vt 0.002000 0.009425 0.000000
vt 0.002000 0.013195 0.000000
vt 0.002000 -0.020735 0.000000
vt 0.002000 -0.016965 0.000000
vt 0.002000 -0.013195 0.000000
vt 0.002000 -0.009425 0.000000
vt 0.000200 -0.020735 0.000000
vt 0.000200 -0.020735 0.000000
vt 0.002000 0.016965 0.000000
vt 0.002000 0.016965 0.000000
vt 0.124000 0.001500 0.000000
vt 0.001000 0.001500 0.000000
vt 0.001000 0.000000 0.000000
vt 0.124000 0.000000 0.000000
vt -0.001500 0.000785 0.000000
vt -0.001500 0.000262 0.000000
vt -0.001500 -0.000262 0.000000
vt -0.001500 -0.000785 0.000000
vt -0.000000 -0.000785 0.000000
vt -0.000000 -0.000262 0.000000
vt -0.000000 0.000262 0.000000
vt -0.000000 0.000785 0.000000
vt 0.124000 0.001500 0.000000
vt 0.001000 0.001500 0.000000
vt 0.001000 0.000000 0.000000
vt 0.124000 0.000000 0.000000
vt 0.025250 -0.017000 0.000000
vt 0.024104 -0.020527 0.000000
vt 0.021104 -0.022706 0.000000
vt 0.017396 -0.022706 0.000000
vt 0.014396 -0.020527 0.000000
vt 0.013250 -0.017000 0.000000
vt -0.025750 -0.017000 0.000000
vt -0.013750 -0.017000 0.000000
vt -0.014896 -0.020527 0.000000
vt -0.017896 -0.022706 0.000000
vt -0.021604 -0.022706 0.000000
vt -0.024604 -0.020527 0.000000
vt 0.059750 0.061500 0.000000
vt 0.059616 0.062000 0.000000
vt 0.059250 0.062366 0.000000
vt 0.058750 0.062500 0.000000
vt -0.058750 0.062500 0.000000
vt -0.059250 0.062366 0.000000
vt -0.059616 0.062000 0.000000
vt -0.059750 0.061500 0.000000
vt -0.059750 -0.061500 0.000000
vt -0.059616 -0.062000 0.000000
vt -0.059250 -0.062366 0.000000
vt -0.058750 -0.062500 0.000000
vt 0.058750 -0.062500 0.000000
vt 0.059250 -0.062366 0.000000
vt 0.059616 -0.062000 0.000000
vt 0.059750 -0.061500 0.000000
vt -0.001500 0.000785 0.000000
vt -0.001500 0.000262 0.000000
vt -0.001500 -0.000262 0.000000
vt -0.001500 -0.000785 0.000000
vt -0.000000 -0.000785 0.000000
vt -0.000000 -0.000262 0.000000
vt -0.000000 0.000262 0.000000
vt -0.000000 0.000785 0.000000
vt -0.001500 0.000785 0.000000
vt -0.001826 0.000289 0.000000
vt -0.001946 0.000026 0.000000
vt -0.002000 -0.000262 0.000000
vt -0.002000 -0.000436 0.000000
vt -0.002000 -0.000611 0.000000
vt -0.002000 -0.000785 0.000000
vt -0.000000 -0.000785 0.000000
vt -0.000000 -0.000262 0.000000
vt -0.000000 0.000262 0.000000
vt -0.000000 0.000785 0.000000
vt -0.002000 0.000262 0.000000
vt -0.001946 -0.000026 0.000000
vt -0.001826 -0.000289 0.000000
vt -0.001500 -0.000785 0.000000
vt -0.000000 -0.000785 0.000000
vt -0.000000 -0.000262 0.000000
vt -0.000000 0.000262 0.000000
vt -0.000000 0.000785 0.000000
vt -0.002000 0.000785 0.000000
vt -0.002000 0.000611 0.000000
vt -0.002000 0.000436 0.000000
vt 0.118500 0.000000 0.000000
vt 0.118500 0.002000 0.000000
vt 0.001000 0.002000 0.000000
vt 0.001000 0.000000 0.000000
vt 0.118500 0.001500 0.000000
vt 0.001000 0.001500 0.000000
vt 0.001000 0.000000 0.000000
vt 0.118500 0.000000 0.000000
vn 0.004311 0.050000 0.086495
vn 0.002447 0.086736 0.049709
vn 0.000000 0.100000 0.000000
vn 0.000000 0.100000 0.000000
vn 0.000000 0.100000 0.000000
vn 0.000000 0.100000 0.000000
vn 0.000000 0.100000 0.000000
vn 0.000000 0.100000 0.000000
vn 0.002447 0.086736 -0.049709
vn 0.004311 0.050000 -0.086495
vn 0.002875 0.050000 -0.086555
vn 0.001437 0.050000 -0.086591
vn 0.000000 0.050000 -0.086603
vn 0.000000 0.034202 -0.093969
vn 0.000000 0.017365 -0.098481
vn 0.000000 0.000000 -0.100000
vn 0.058779 0.000000 -0.080902
vn 0.095106 0.000000 -0.030902
vn 0.095106 0.000000 0.030902
vn 0.058779 0.000000 0.080902
vn 0.000000 0.000000 0.100000
vn 0.000000 0.017365 0.098481
vn 0.000000 0.034202 0.093969
vn 0.000000 0.050000 0.086603
vn 0.001437 0.050000 0.086591
vn 0.002875 0.050000 0.086555
vn 0.005939 0.098481 0.016318
vn 0.026200 0.064279 0.071985
vn 0.015038 0.098481 0.008682
vn 0.066341 0.064279 0.038302
vn 0.017101 0.098481 -0.003015
vn 0.075441 0.064279 -0.013302
vn 0.011162 0.098481 -0.013302
vn 0.049240 0.064279 -0.058682
vn 0.000000 0.100000 0.000000
vn 0.000000 0.100000 0.000000
vn 0.000000 0.100000 0.000000
vn 0.000000 0.100000 0.000000
vn 0.000000 0.100000 0.000000
vn 0.000000 0.100000 0.000000
vn 0.000000 0.100000 0.000000
vn 0.000000 0.100000 0.000000
vn 0.100000 0.000000 0.000000
vn 0.100000 0.000000 0.000000
vn 0.100000 0.000000 0.000000
vn 0.100000 0.000000 0.000000
vn 0.100000 0.000000 0.000000
vn 0.100000 0.000000 0.000000
vn 0.000000 0.100000 0.000000
vn 0.000000 0.100000 0.000000
vn 0.000000 0.100000 0.000000
vn 0.000000 0.100000 0.000000
vn 0.000000 0.100000 0.000000
vn 0.000000 0.100000 0.000000
vn 0.000000 0.100000 0.000000
vn 0.000000 0.100000 0.000000
vn 0.000000 0.100000 0.000000
vn 0.000000 0.100000 0.000000
vn 0.000000 0.100000 0.000000
vn 0.000000 0.100000 0.000000
vn 0.000000 0.100000 0.000000
vn 0.000000 0.100000 0.000000
vn 0.000000 0.100000 0.000000
vn 0.000000 0.100000 0.000000
vn 0.000000 0.100000 0.000000
vn 0.000000 0.100000 0.000000
vn 0.000000 0.100000 0.000000
vn 0.000000 0.100000 0.000000
vn 0.000000 0.100000 0.000000
vn 0.000000 0.100000 0.000000
vn 0.086603 0.050000 0.000000
vn 0.047660 0.087912 0.000000
vn 0.000000 0.100000 0.000000
vn 0.000000 0.100000 0.000000
vn 0.034202 0.093969 0.000000
vn 0.064279 0.076604 0.000000
vn 0.086603 0.050000 0.000000
vn -0.000406 0.080251 0.059662
vn 0.024728 0.090493 0.034633
vn 0.025199 0.095298 0.016834
vn 0.000000 -0.100000 0.000000
vn 0.086603 0.050000 0.000000
vn 0.064270 0.076612 0.000000
vn 0.034213 0.093965 0.000000
vn 0.000000 0.100000 0.000000
vn 0.000061 0.094261 0.033391
vn 0.034350 0.089330 0.028986
vn 0.068094 0.072877 0.007230
vn 0.059822 0.079636 0.008920
vn 0.037152 0.087876 0.029960
vn 0.029675 0.088599 0.035632
vn 0.039012 0.091018 0.013920
vn 0.048491 0.086664 0.011748
vn 0.076104 0.064775 0.003514
vn 0.042811 0.087021 0.024383
vn 0.000000 0.080000 0.060000
vn 0.000000 0.080000 0.060000
vn 0.000000 0.094365 0.033094
vn 0.000000 0.100000 0.000000
vn 0.000000 0.100000 0.000000
vn 0.000000 0.089283 0.045039
vn 0.000000 0.065115 0.075895
vn 0.000000 0.000000 0.100000
vn 0.000000 0.000000 0.100000
vn 0.000000 0.050000 0.086603
vn 0.000000 0.086603 0.050000
vn 0.000000 0.100000 0.000000
vn 0.000000 0.100000 0.000000
vn 0.000000 0.097708 0.021286
vn 0.000000 0.090938 0.041596
vn 0.000000 0.100000 0.000000
vn 0.002950 0.087912 -0.047569
vn 0.004311 0.050000 -0.086495
vn 0.002875 0.050000 -0.086555
vn 0.001437 0.050000 -0.086591
vn 0.000000 0.050000 -0.086603
vn 0.000000 0.034202 -0.093969
vn 0.000000 0.017365 -0.098481
vn 0.000000 0.000000 -0.100000
vn 0.058779 0.000000 -0.080902
vn 0.095106 0.000000 -0.030902
vn 0.095106 0.000000 0.030902
vn 0.058779 0.000000 0.080902
vn 0.000000 0.000000 0.100000
vn 0.000000 0.017365 0.098481
vn 0.000000 0.034202 0.093969
vn 0.000000 0.050000 0.086603
vn 0.001437 0.050000 0.086591
vn 0.002875 0.050000 0.086555
vn 0.004311 0.050000 0.086495
vn 0.002447 0.086736 0.049709
vn 0.000000 0.100000 0.000000
vn 0.000000 0.100000 0.000000
vn 0.000000 0.100000 0.000000
vn 0.000000 0.100000 0.000000
vn 0.000000 0.100000 0.000000
vn 0.005939 0.098481 0.016318
vn 0.049240 0.064279 -0.058682
vn 0.011162 0.098481 -0.013302
vn 0.075441 0.064279 -0.013302
vn 0.017101 0.098481 -0.003015
vn 0.066341 0.064279 0.038302
vn 0.015038 0.098481 0.008682
vn 0.026200 0.064279 0.071985
vn 0.000000 0.100000 0.000000
vn 0.000000 0.100000 0.000000
vn 0.000000 0.100000 0.000000
vn 0.000000 0.100000 0.000000
vn 0.000000 0.100000 0.000000
vn 0.000000 0.100000 0.000000
vn 0.000000 0.100000 0.000000
vn 0.000000 0.100000 0.000000
vn 0.000000 0.100000 0.000000
vn 0.000000 0.100000 0.000000
vn 0.100000 0.000000 0.000000
vn 0.086603 0.050000 0.000000
vn 0.050000 0.086603 0.000000
vn 0.000000 0.100000 0.000000
vn 0.000000 0.100000 0.000000
vn 0.000000 0.100000 0.000000
vn 0.000000 0.100000 0.000000
vn 0.000000 0.086603 0.050000
vn 0.000000 0.050000 0.086603
vn 0.000000 0.000000 0.100000
vn 0.050000 0.000000 0.086603
vn 0.086603 0.000000 0.050000
vn 0.049240 0.086603 0.008682
vn 0.092542 0.034202 0.016318
vn 0.032139 0.086603 0.038302
vn 0.060402 0.034202 0.071985
vn 0.100000 0.000000 0.000000
vn 0.086603 0.050000 0.000000
vn 0.050000 0.086603 0.000000
vn 0.000000 0.100000 0.000000
vn 0.000000 0.100000 0.000000
vn 0.050000 0.086603 0.000000
vn 0.086603 0.050000 0.000000
vn 0.100000 0.000000 0.000000
vn 0.000000 0.000000 -0.100000
vn 0.000000 0.050000 -0.086603
vn 0.000000 0.086603 -0.050000
vn 0.000000 0.100000 0.000000
vn 0.000000 0.100000 0.000000
vn 0.000000 0.100000 0.000000
vn 0.000000 0.100000 0.000000
vn 0.050000 0.086603 0.000000
vn 0.086603 0.050000 0.000000
vn 0.100000 0.000000 0.000000
vn 0.086603 0.000000 -0.050000
vn 0.050000 0.000000 -0.086603
vn 0.017101 0.086603 -0.046985
vn 0.032139 0.034202 -0.088302
vn 0.043301 0.086603 -0.025000
vn 0.081380 0.034202 -0.046985
vn 0.000000 0.080000 -0.060000
vn 0.000000 0.090938 -0.041596
vn 0.000000 0.097708 -0.021286
vn 0.000000 0.100000 0.000000
vn 0.000000 0.100000 0.000000
vn 0.000000 0.086603 -0.050000
vn 0.000000 0.050000 -0.086603
vn 0.000000 0.000000 -0.100000
vn 0.000000 0.000000 -0.100000
vn 0.000000 0.065115 -0.075895
vn 0.000000 0.089283 -0.045039
vn 0.000000 0.100000 0.000000
vn 0.000000 0.100000 0.000000
vn 0.000000 0.097708 -0.021286
vn 0.000000 0.090938 -0.041596
vn 0.000000 0.080000 -0.060000
vn 0.000000 0.100000 0.000000
vn 0.000000 0.100000 0.000000
vn 0.000000 0.100000 0.000000
vn 0.000000 0.100000 0.000000
vn 0.000000 0.100000 0.000000
vn 0.000000 0.100000 0.000000
vn 0.000000 0.100000 0.000000
vn 0.000000 0.100000 0.000000
vn 0.000000 0.100000 0.000000
vn 0.000000 0.100000 0.000000
vn -0.100000 0.000000 0.000000
vn -0.100000 0.000000 0.000000
vn -0.100000 0.000000 0.000000
vn -0.100000 0.000000 0.000000
vn -0.100000 0.000000 0.000000
vn -0.100000 0.000000 0.000000
vn -0.100000 0.000000 0.000000
vn -0.100000 0.000000 0.000000
vn -0.100000 0.000000 0.000000
vn -0.100000 0.000000 0.000000
vn -0.100000 0.000000 0.000000
vn -0.100000 0.000000 0.000000
vn -0.100000 0.000000 0.000000
vn -0.100000 0.000000 0.000000
vn -0.100000 0.000000 0.000000
vn -0.100000 0.000000 0.000000
vn -0.100000 0.000000 0.000000
vn -0.100000 0.000000 0.000000
vn -0.100000 0.000000 0.000000
vn -0.100000 0.000000 0.000000
vn -0.100000 0.000000 0.000000
vn -0.100000 0.000000 0.000000
vn -0.100000 0.000000 0.000000
vn -0.100000 0.000000 0.000000
vn -0.100000 0.000000 0.000000
vn -0.100000 0.000000 0.000000
vn -0.100000 0.000000 0.000000
vn -0.100000 0.000000 0.000000
vn 0.000000 0.100000 0.000000
vn 0.000000 0.100000 0.000000
vn 0.000000 0.100000 0.000000
vn 0.000000 0.100000 0.000000
vn 0.000000 0.100000 0.000000
vn 0.000000 0.100000 0.000000
vn 0.100000 0.000000 0.000000
vn 0.100000 0.000000 0.000000
vn 0.100000 0.000000 0.000000
vn 0.100000 0.000000 0.000000
vn 0.100000 0.000000 0.000000
vn 0.100000 0.000000 0.000000
vn 0.100000 0.000000 0.000000
vn 0.000000 0.000000 0.100000
vn 0.058779 0.000000 0.080902
vn 0.095106 0.000000 0.030902
vn 0.095106 0.000000 -0.030902
vn 0.058779 0.000000 -0.080902
vn 0.000000 0.000000 -0.100000
vn 0.000000 0.000000 -0.100000
vn 0.058779 0.000000 -0.080902
vn 0.095106 0.000000 -0.030902
vn 0.095106 0.000000 0.030902
vn 0.058779 0.000000 0.080902
vn 0.000000 0.000000 0.100000
vn 0.095106 0.000000 -0.030902
vn 0.095106 0.000000 -0.030902
vn 0.095106 0.000000 -0.030902
vn 0.095106 0.000000 -0.030902
vn 0.000000 0.000000 0.100000
vn 0.058779 0.000000 0.080902
vn 0.095106 0.000000 0.030902
vn 0.095106 0.000000 -0.030902
vn 0.058779 0.000000 -0.080902
vn 0.000000 0.000000 -0.100000
vn 0.000000 0.000000 -0.100000
vn 0.058779 0.000000 -0.080902
vn 0.095106 0.000000 -0.030902
vn 0.095106 0.000000 0.030902
vn 0.058779 0.000000 0.080902
vn 0.000000 0.000000 0.100000
vn 0.095106 0.000000 -0.030902
vn 0.095106 0.000000 -0.030902
vn 0.095106 0.000000 -0.030902
vn 0.095106 0.000000 -0.030902
vn 0.000000 0.000000 0.100000
vn 0.000000 0.000000 0.100000
vn 0.000000 0.000000 0.100000
vn 0.000000 0.000000 0.100000
vn 0.000000 0.000000 -0.100000
vn 0.050000 0.000000 -0.086603
vn 0.086603 0.000000 -0.050000
vn 0.100000 0.000000 0.000000
vn 0.100000 0.000000 0.000000
vn 0.086603 0.000000 -0.050000
vn 0.050000 0.000000 -0.086603
vn 0.000000 0.000000 -0.100000
vn 0.000000 0.000000 -0.100000
vn 0.000000 0.000000 -0.100000
vn 0.000000 0.000000 -0.100000
vn 0.000000 0.000000 -0.100000
vn 0.000000 -0.100000 0.000000
vn 0.000000 -0.100000 0.000000
vn 0.000000 -0.100000 0.000000
vn 0.000000 -0.100000 0.000000
vn 0.000000 -0.100000 0.000000
vn 0.000000 -0.100000 0.000000
vn 0.000000 -0.100000 0.000000
vn 0.000000 -0.100000 0.000000
vn 0.000000 -0.100000 0.000000
vn 0.000000 -0.100000 0.000000
vn 0.000000 -0.100000 0.000000
vn 0.000000 -0.100000 0.000000
vn 0.000000 -0.100000 0.000000
vn 0.000000 -0.100000 0.000000
vn 0.000000 -0.100000 0.000000
vn 0.000000 -0.100000 0.000000
vn 0.000000 -0.100000 0.000000
vn 0.000000 -0.100000 0.000000
vn 0.000000 -0.100000 0.000000
vn 0.000000 -0.100000 0.000000
vn 0.000000 -0.100000 0.000000
vn 0.000000 -0.100000 0.000000
vn 0.000000 -0.100000 0.000000
vn 0.000000 -0.100000 0.000000
vn 0.000000 -0.100000 0.000000
vn 0.000000 -0.100000 0.000000
vn 0.000000 -0.100000 0.000000
vn 0.000000 -0.100000 0.000000
vn 0.100000 0.000000 0.000000
vn 0.086603 0.000000 0.050000
vn 0.050000 0.000000 0.086603
vn 0.000000 0.000000 0.100000
vn 0.000000 0.000000 0.100000
vn 0.050000 0.000000 0.086603
vn 0.086603 0.000000 0.050000
vn 0.100000 0.000000 0.000000
vn 0.000000 0.000000 0.100000
vn -0.047593 0.000000 0.087949
vn -0.068853 0.000000 0.072521
vn -0.086603 0.000000 0.050000
vn -0.093969 0.000000 0.034202
vn -0.098481 0.000000 0.017365
vn -0.100000 0.000000 0.000000
vn -0.100000 0.000000 0.000000
vn -0.086603 0.000000 0.050000
vn -0.050000 0.000000 0.086603
vn 0.000000 0.000000 0.100000
vn -0.086603 0.000000 -0.050000
vn -0.068853 0.000000 -0.072521
vn -0.047593 0.000000 -0.087949
vn 0.000000 0.000000 -0.100000
vn 0.000000 0.000000 -0.100000
vn -0.050000 0.000000 -0.086603
vn -0.086603 0.000000 -0.050000
vn -0.100000 0.000000 0.000000
vn -0.100000 0.000000 0.000000
vn -0.098481 0.000000 -0.017365
vn -0.093969 0.000000 -0.034202
vn -0.100000 0.000000 0.000000
vn -0.100000 0.000000 0.000000
vn -0.100000 0.000000 0.000000
vn -0.100000 0.000000 0.000000
vn 0.100000 0.000000 0.000000
vn 0.100000 0.000000 0.000000
vn 0.100000 0.000000 0.000000
vn 0.100000 0.000000 0.000000
usemtl 183,193,117
f 84/2/2 59/28/28 72/1/1
f 72/1/1 59/28/28 107/23/23
f 72/1/1 107/23/23 90/26/26
f 90/26/26 107/23/23 94/25/25
f 94/25/25 107/23/23 107/24/24
f 59/28/28 84/2/2 61/27/27
f 61/27/27 84/2/2 83/3/3
f 61/27/27 83/3/3 48/4/4
f 61/27/27 48/4/4 39/29/29
f 39/29/29 48/4/4 27/5/5
f 39/29/29 27/5/5 23/31/31
f 23/31/31 27/5/5 28/6/6
f 23/31/31 28/6/6 43/33/33
f 43/33/33 28/6/6 49/7/7
f 43/33/33 49/7/7 86/8/8
f 86/8/8 85/9/9 43/33/33
f 43/33/33 85/9/9 45/34/34
f 43/33/33 45/34/34 23/31/31
f 23/31/31 45/34/34 25/32/32
f 23/31/31 25/32/32 39/29/29
f 39/29/29 25/32/32 41/30/30
f 39/29/29 41/30/30 61/27/27
f 61/27/27 41/30/30 59/28/28
f 85/9/9 73/10/10 45/34/34
f 45/34/34 73/10/10 56/17/17
f 45/34/34 56/17/17 36/18/18
f 91/11/11 108/14/14 73/10/10
f 73/10/10 108/14/14 103/15/15
f 73/10/10 103/15/15 103/16/16
f 91/11/11 95/12/12 108/14/14
f 108/14/14 95/12/12 108/13/13
f 103/16/16 56/17/17 73/10/10
f 45/34/34 36/18/18 25/32/32
f 25/32/32 36/18/18 35/19/19
f 25/32/32 35/19/19 41/30/30
f 41/30/30 35/19/19 55/20/20
f 41/30/30 55/20/20 59/28/28
f 59/28/28 55/20/20 107/23/23
f 102/21/21 102/22/22 55/20/20
f 55/20/20 102/22/22 107/23/23
f 109/42/42 108/35/35 96/41/41
f 96/41/41 108/35/35 95/36/36
f 96/41/41 95/36/36 92/40/40
f 92/40/40 95/36/36 91/37/37
f 92/40/40 91/37/37 74/39/39
f 74/39/39 91/37/37 73/38/38
f 74/48/48 73/43/43 88/47/47
f 88/47/47 73/43/43 85/44/44
f 88/47/47 85/44/44 87/46/46
f 87/46/46 85/44/44 86/45/45
usemtl 53,57,29
f 86/49/49 49/50/50 87/70/70
f 87/70/70 49/50/50 50/69/69
f 50/69/69 49/50/50 29/68/68
f 29/68/68 49/50/50 28/51/51
f 29/68/68 28/51/51 5/60/60
f 5/60/60 28/51/51 4/59/59
f 4/59/59 28/51/51 27/52/52
f 4/59/59 27/52/52 9/56/56
f 9/56/56 27/52/52 82/55/55
f 82/55/55 27/52/52 48/53/53
f 82/55/55 48/53/53 83/54/54
f 9/56/56 10/57/57 4/59/59
f 4/59/59 10/57/57 3/58/58
f 6/61/61 11/62/62 5/60/60
f 5/60/60 11/62/62 12/63/63
f 5/60/60 12/63/63 30/67/67
f 30/67/67 12/63/63 64/64/64
f 30/67/67 64/64/64 47/66/66
f 47/66/66 64/64/64 63/65/65
f 30/67/67 29/68/68 5/60/60
usemtl 183,193,117
f 76/77/77 75/71/71 89/76/76
f 89/76/76 75/71/71 68/72/72
f 89/76/76 68/72/72 69/75/75
f 69/75/75 68/72/72 63/73/73
f 69/75/75 63/73/73 64/74/74
f 79/79/79 66/91/91 67/78/78
f 67/78/78 66/91/91 66/87/87
f 67/78/78 66/87/87 65/86/86
f 65/86/86 66/87/87 70/92/92
f 65/86/86 70/92/92 64/85/85
f 64/85/85 70/92/92 69/84/84
f 69/84/84 70/92/92 70/93/93
f 69/84/84 70/93/93 89/83/83
f 89/83/83 70/93/93 77/94/94
f 89/83/83 77/94/94 76/82/82
f 76/82/82 77/94/94 77/88/88
f 76/82/82 77/88/88 78/89/89
f 78/89/89 77/88/88 66/95/95
f 78/89/89 66/95/95 66/90/90
f 66/90/90 66/95/95 66/87/87
f 66/90/90 66/87/87 66/91/91
f 66/91/91 79/79/79 66/90/90
f 66/90/90 79/79/79 78/80/80
f 66/90/90 78/80/80 78/89/89
f 78/89/89 78/80/80 78/81/81
f 78/89/89 78/81/81 76/82/82
f 77/88/88 77/94/94 70/93/93
f 66/87/87 66/95/95 70/92/92
f 70/92/92 66/95/95 70/93/93
f 66/95/95 77/88/88 70/93/93
f 67/97/97 18/102/102 111/96/96
f 111/96/96 18/102/102 125/106/106
f 111/96/96 125/106/106 117/110/110
f 117/110/110 125/106/106 116/109/109
f 116/109/109 125/106/106 127/107/107
f 116/109/109 127/107/107 115/108/108
f 18/102/102 67/97/97 14/101/101
f 14/101/101 67/97/97 65/98/98
f 14/101/101 65/98/98 12/100/100
f 12/100/100 65/98/98 64/99/99
f 125/106/106 18/102/102 123/105/105
f 123/105/105 18/102/102 22/103/103
f 123/105/105 22/103/103 121/104/104
f 47/136/136 63/111/111 44/139/139
f 44/139/139 63/111/111 68/112/112
f 44/139/139 68/112/112 46/138/138
f 46/138/138 68/112/112 75/113/113
f 46/138/138 75/113/113 58/120/120
f 58/120/120 75/113/113 105/119/119
f 105/119/119 75/113/113 105/118/118
f 105/118/118 75/113/113 110/117/117
f 110/117/117 75/113/113 93/114/114
f 110/117/117 93/114/114 97/115/115
f 97/115/115 110/116/116 110/117/117
f 58/120/120 38/121/121 46/138/138
f 46/138/138 38/121/121 26/140/140
f 46/138/138 26/140/140 24/141/141
f 24/141/141 26/140/140 40/143/143
f 24/141/141 40/143/143 29/134/134
f 29/134/134 40/143/143 50/133/133
f 50/133/133 40/143/143 62/137/137
f 50/133/133 62/137/137 87/132/132
f 87/132/132 62/137/137 88/131/131
f 88/131/131 62/137/137 60/144/144
f 88/131/131 60/144/144 74/130/130
f 74/130/130 60/144/144 109/126/126
f 74/130/130 109/126/126 92/129/129
f 92/129/129 109/126/126 96/128/128
f 96/128/128 109/126/126 109/127/127
f 38/121/121 37/122/122 26/140/140
f 26/140/140 37/122/122 42/142/142
f 26/140/140 42/142/142 40/143/143
f 40/143/143 42/142/142 62/137/137
f 37/122/122 57/123/123 42/142/142
f 42/142/142 57/123/123 60/144/144
f 42/142/142 60/144/144 62/137/137
f 104/124/124 104/125/125 57/123/123
f 57/123/123 104/125/125 109/126/126
f 57/123/123 109/126/126 60/144/144
f 29/134/134 30/135/135 24/141/141
f 24/141/141 30/135/135 44/139/139
f 24/141/141 44/139/139 46/138/138
f 30/135/135 47/136/136 44/139/139
f 110/145/145 97/146/146 111/154/154
f 111/154/154 97/146/146 76/149/149
f 111/154/154 76/149/149 78/150/150
f 97/146/146 93/147/147 76/149/149
f 76/149/149 93/147/147 75/148/148
f 78/150/150 78/151/151 111/154/154
f 111/154/154 78/151/151 79/152/152
f 111/154/154 79/152/152 67/153/153
f 150/166/166 156/155/155 157/168/168
f 157/168/168 156/155/155 152/156/156
f 157/168/168 152/156/156 145/167/167
f 145/167/167 152/156/156 144/157/157
f 145/167/167 144/157/157 140/158/158
f 140/158/158 133/159/159 145/167/167
f 145/167/167 133/159/159 138/169/169
f 145/167/167 138/169/169 141/170/170
f 141/170/170 138/169/169 123/163/163
f 141/170/170 123/163/163 137/165/165
f 137/165/165 123/163/163 121/164/164
f 133/159/159 129/160/160 138/169/169
f 138/169/169 129/160/160 125/162/162
f 138/169/169 125/162/162 123/163/163
f 129/160/160 127/161/161 125/162/162
f 137/165/165 150/166/166 141/170/170
f 141/170/170 150/166/166 157/168/168
f 141/170/170 157/168/168 145/167/167
f 155/171/171 151/172/172 156/178/178
f 156/178/178 151/172/172 152/177/177
f 152/177/177 151/172/172 144/176/176
f 144/176/176 151/172/172 143/173/173
f 144/176/176 143/173/173 139/174/174
f 139/174/174 140/175/175 144/176/176
f 136/190/190 120/179/179 130/192/192
f 130/192/192 120/179/179 122/180/180
f 130/192/192 122/180/180 131/191/191
f 131/191/191 122/180/180 124/181/181
f 131/191/191 124/181/181 126/182/182
f 126/182/182 128/183/183 131/191/191
f 131/191/191 128/183/183 142/193/193
f 131/191/191 142/193/193 146/194/194
f 146/194/194 142/193/193 151/187/187
f 146/194/194 151/187/187 155/188/188
f 128/183/183 132/184/184 142/193/193
f 142/193/193 132/184/184 143/186/186
f 142/193/193 143/186/186 151/187/187
f 132/184/184 139/185/185 143/186/186
f 155/188/188 149/189/189 146/194/194
f 146/194/194 149/189/189 136/190/190
f 146/194/194 136/190/190 130/192/192
f 146/194/194 130/192/192 131/191/191
f 112/196/196 124/200/200 106/195/195
f 106/195/195 124/200/200 17/204/204
f 106/195/195 17/204/204 71/210/210
f 71/210/210 17/204/204 13/205/205
f 71/210/210 13/205/205 80/209/209
f 80/209/209 13/205/205 81/208/208
f 81/208/208 13/205/205 9/206/206
f 81/208/208 9/206/206 82/207/207
f 112/196/196 113/197/197 124/200/200
f 124/200/200 113/197/197 126/199/199
f 126/199/199 113/197/197 114/198/198
f 124/200/200 122/201/201 17/204/204
f 17/204/204 122/201/201 21/203/203
f 21/203/203 122/201/201 120/202/202
usemtl 53,57,29
f 114/220/220 115/211/211 126/219/219
f 126/219/219 115/211/211 127/212/212
f 126/219/219 127/212/212 139/216/216
f 139/216/216 127/212/212 140/215/215
f 140/215/215 127/212/212 129/213/213
f 140/215/215 129/213/213 133/214/214
f 132/217/217 128/218/218 139/216/216
f 139/216/216 128/218/218 126/219/219
usemtl 183,193,117
f 111/221/221 117/222/222 110/248/248
f 110/248/248 117/222/222 115/224/224
f 110/248/248 115/224/224 109/239/239
f 109/239/239 115/224/224 108/238/238
f 108/238/238 115/224/224 114/225/225
f 108/238/238 114/225/225 107/229/229
f 107/229/229 114/225/225 112/227/227
f 107/229/229 112/227/227 106/228/228
f 117/222/222 116/223/223 115/224/224
f 114/225/225 113/226/226 112/227/227
f 108/238/238 107/229/229 108/237/237
f 108/237/237 107/229/229 107/230/230
f 108/237/237 107/230/230 103/236/236
f 103/236/236 107/230/230 102/231/231
f 103/236/236 102/231/231 103/235/235
f 103/235/235 102/231/231 102/232/232
f 103/235/235 102/232/232 99/234/234
f 99/234/234 102/232/232 98/233/233
f 110/248/248 109/239/239 110/247/247
f 110/247/247 109/239/239 109/240/240
f 110/247/247 109/240/240 105/246/246
f 105/246/246 109/240/240 104/241/241
f 105/246/246 104/241/241 105/245/245
f 105/245/245 104/241/241 104/242/242
f 105/245/245 104/242/242 101/244/244
f 101/244/244 104/242/242 100/243/243
f 72/249/249 90/250/250 71/254/254
f 71/254/254 90/250/250 94/251/251
f 71/254/254 94/251/251 106/253/253
f 106/253/253 94/251/251 107/252/252
f 82/261/261 83/255/255 81/260/260
f 81/260/260 83/255/255 84/256/256
f 81/260/260 84/256/256 80/259/259
f 80/259/259 84/256/256 72/257/257
f 80/259/259 72/257/257 71/258/258
f 102/262/262 55/263/263 98/273/273
f 98/273/273 55/263/263 51/272/272
f 51/272/272 55/263/263 35/264/264
f 51/272/272 35/264/264 31/271/271
f 31/271/271 35/264/264 36/274/274
f 31/271/271 36/275/275 32/270/270
f 32/276/276 36/265/265 56/266/266
f 32/277/277 56/266/266 52/269/269
f 52/269/269 56/266/266 103/267/267
f 52/269/269 103/267/267 99/268/268
f 104/278/278 57/279/279 100/289/289
f 100/289/289 57/279/279 53/288/288
f 53/288/288 57/279/279 37/280/280
f 53/288/288 37/280/280 33/287/287
f 33/287/287 37/280/280 38/290/290
f 33/287/287 38/291/291 34/286/286
f 34/292/292 38/281/281 58/282/282
f 34/293/293 58/282/282 54/285/285
f 54/285/285 58/282/282 105/283/283
f 54/285/285 105/283/283 101/284/284
f 121/294/294 22/295/295 119/297/297
f 119/297/297 22/295/295 20/296/296
f 120/298/298 136/299/299 118/305/305
f 118/305/305 136/299/299 134/304/304
f 134/304/304 136/299/299 147/303/303
f 147/303/303 136/299/299 149/300/300
f 147/303/303 149/300/300 155/301/301
f 155/301/301 153/302/302 147/303/303
f 21/306/306 120/307/307 19/309/309
f 19/309/309 120/307/307 118/308/308
f 51/311/311 19/337/337 98/310/310
f 98/310/310 19/337/337 118/322/322
f 98/310/310 118/322/322 153/325/325
f 153/325/325 118/322/322 147/324/324
f 147/324/324 118/322/322 134/323/323
f 19/337/337 51/311/311 1/334/334
f 1/334/334 51/311/311 31/312/312
f 1/334/334 31/312/312 32/313/313
f 52/314/314 53/318/318 32/313/313
f 32/313/313 53/318/318 33/319/319
f 32/313/313 33/319/319 2/333/333
f 2/333/333 33/319/319 34/320/320
f 2/333/333 34/320/320 54/321/321
f 53/318/318 52/314/314 100/317/317
f 100/317/317 52/314/314 99/315/315
f 100/317/317 99/315/315 154/326/326
f 154/326/326 99/315/315 153/325/325
f 153/325/325 99/315/315 98/310/310
f 100/317/317 154/326/326 101/316/316
f 101/316/316 154/326/326 119/329/329
f 101/316/316 119/329/329 20/330/330
f 2/333/333 54/321/321 20/330/330
f 20/330/330 54/321/321 101/316/316
f 154/326/326 148/327/327 119/329/329
f 119/329/329 148/327/327 135/328/328
f 16/331/331 8/332/332 20/330/330
f 20/330/330 8/332/332 2/333/333
f 2/333/333 1/334/334 32/313/313
f 1/334/334 7/335/335 19/337/337
f 19/337/337 7/335/335 15/336/336
f 156/338/338 150/339/339 154/345/345
f 154/345/345 150/339/339 148/344/344
f 148/344/344 150/339/339 135/343/343
f 135/343/343 150/339/339 137/340/340
f 135/343/343 137/340/340 121/341/341
f 121/341/341 119/342/342 135/343/343
f 22/346/346 18/347/347 20/356/356
f 20/356/356 18/347/347 16/355/355
f 16/355/355 18/347/347 14/348/348
f 16/355/355 14/348/348 8/354/354
f 8/354/354 14/348/348 12/349/349
f 8/354/354 12/349/349 11/350/350
f 8/354/354 11/350/350 2/353/353
f 2/353/353 11/350/350 6/351/351
f 2/353/353 6/351/351 5/352/352
f 10/367/367 9/357/357 7/363/363
f 7/363/363 9/357/357 13/358/358
f 7/363/363 13/358/358 15/362/362
f 15/362/362 13/358/358 17/359/359
f 15/362/362 17/359/359 21/360/360
f 21/360/360 19/361/361 15/362/362
f 7/363/363 1/364/364 10/367/367
f 10/367/367 1/364/364 3/366/366
f 3/366/366 1/364/364 4/365/365
f 5/369/369 4/370/370 2/368/368
f 2/368/368 4/370/370 1/371/371
f 155/372/372 156/373/373 153/375/375
f 153/375/375 156/373/373 154/374/374

# 157 vertices
# 375 texture params
# 375 normals
# 348 facets

# 1 groups
