Time;Z-Force
66372.397764;10.613890
66372.414465;10.540089
66372.426065;10.280459
66372.444628;10.251392
66372.462369;10.015875
66372.472511;9.610591
66372.483510;8.938696
66372.500579;7.773047
66372.518313;7.183249
66372.528435;7.064764
66372.539452;6.932545
66372.556399;6.715592
66372.567438;6.793399
66372.584547;7.450038
66372.597735;6.836359
66372.614597;7.600844
66372.627656;7.434090
66372.644710;7.822894
66372.657671;8.554154
66372.674693;8.776889
66372.687493;9.178237
66372.704747;9.587174
66372.717590;10.310425
66372.734516;10.058624
66372.747759;10.458342
66372.764525;11.433937
66372.777425;11.642497
66372.794564;12.568693
66372.807411;12.739380
66372.824589;12.968591
66372.837485;13.299422
66372.854488;13.150400
66372.867266;12.988745
66372.884569;12.814747
66372.897356;12.701852
66372.914610;12.513004
66372.927396;11.820172
66372.944595;11.245066
66372.957401;11.257424
66372.974711;9.632150
66372.986869;8.911193
66373.004520;8.921235
66373.016632;7.682292
66373.034572;7.302001
66373.047435;8.559984
66373.064576;8.939804
66373.078008;9.431477
66373.096637;10.056114
66373.109724;9.638679
66373.126633;8.854073
66373.139440;10.086144
66373.156580;10.019869
66373.169352;8.870303
66373.186598;9.743745
66373.199265;9.933997
66373.216472;9.115437
66373.229563;10.256563
66373.246440;10.155721
66373.259178;9.504555
66373.276612;9.608692
66373.289417;10.470572
66373.306451;9.835962
66373.319314;9.441488
66373.336841;9.478015
66373.350096;9.139450
66373.368559;8.509143
66373.381818;8.231482
66373.398497;7.800824
66373.411325;7.689547
66373.428614;8.002820
66373.441288;8.231722
66373.458591;8.886164
66373.471324;9.067922
66373.488667;9.616613
66373.501593;10.159185
66373.518473;10.471291
66373.531630;11.695608
66373.548560;12.838997
66373.561966;12.976462
66373.580635;12.693034
66373.593795;10.945870
66373.610557;10.766623
66373.623808;10.167025
66373.640507;10.155987
66373.653588;10.162795
66373.670549;10.385304
66373.684336;10.574521
66373.702498;10.464592
66373.715908;10.561159
66373.734573;10.339114
66373.747863;10.104543
66373.766270;9.696751
66373.779600;9.591829
66373.787854;9.141726
66373.809419;9.044434
66373.826656;9.222628
66373.839837;9.354239
66373.856586;9.593849
66373.869593;9.517478
66373.886596;10.156077
66373.899686;9.664275
66373.916586;9.850967
66373.930649;10.147814
66373.948559;9.430622
66373.961799;9.352933
66373.978624;9.436123
66373.991842;9.325020
66374.008662;9.565931
66374.021715;9.975152
66374.038569;10.052216
66374.051514;10.255532
66374.068502;10.055816
66374.081426;9.867005
66374.098447;10.055219
66374.111951;9.845958
66374.130439;9.492155
66374.143513;9.361146
66374.160538;9.231721
66374.173566;9.254686
66374.190865;9.351866
66374.203040;9.374035
66374.220674;9.227752
66374.232680;9.349710
66374.250405;9.529728
66374.270243;9.607883
66374.280414;9.922772
66374.291448;10.048650
66374.308342;9.929451
66374.319378;9.691736
66374.336423;9.985283
66374.347437;10.022769
66374.364512;10.356347
66374.375401;10.807282
66374.392643;11.357986
66374.403579;11.461434
66374.420582;12.590219
66374.431736;12.719469
66374.448484;12.654497
66374.459348;12.935054
66374.476498;12.814939
66374.487494;12.560048
66374.504575;12.328908
66374.515522;11.828427
66374.532357;11.771407
66374.543516;11.310618
66374.560606;10.902471
66374.573389;10.687063
66374.590699;8.382062
66374.603261;8.136829
66374.620433;7.808952
66374.632170;6.134663
66374.650432;4.955786
66374.661692;7.844606
66374.678734;7.965894
66374.691878;9.589801
66374.708404;10.680958
66374.726530;9.416501
66374.736861;9.845150
66374.747904;8.845638
66374.764382;8.183216
66374.776083;11.419579
66374.794363;8.120627
66374.807135;8.805379
66374.824396;11.056418
66374.837076;9.841492
66374.855130;10.683802
66374.866211;10.611483
66374.884346;11.184413
66374.896095;10.804433
66374.914419;10.409342
66374.932293;11.020516
66374.942402;10.385409
66374.953480;11.496740
66374.970863;11.639624
66374.981944;10.025003
66374.998388;10.703667
66375.009432;10.716538
66375.026550;10.136090
66375.037844;11.879309
66375.054773;10.914330
66375.065841;10.463644
66375.082313;11.290898
66375.093470;8.919832
66375.110410;9.068984
66375.121690;9.373073
66375.138852;7.914124
66375.152140;11.078839
66375.170816;11.476150
66375.184238;7.731520
66375.202657;10.208967
66375.215596;10.390329
66375.232662;8.590694
66375.245347;11.445049
66375.262520;11.046384
66375.274279;9.713587
66375.292471;10.262486
66375.304387;8.260899
66375.322488;8.467459
66375.335876;11.843406
66375.355036;11.252761
66375.368727;8.744425
66375.386724;10.007586
66375.399883;10.513344
66375.418528;9.874031
66375.432215;10.687678
66375.450629;11.487988
66375.465346;10.654056
66375.482602;9.545234
66375.496929;11.203333
66375.514453;11.511571
66375.526646;9.299168
66375.544547;10.242602
66375.557201;10.477868
66375.574398;9.802667
66375.586584;11.055586
66375.604674;11.019371
66375.617348;9.293162
66375.634427;10.194198
66375.647790;10.337965
66375.664479;9.846838
66375.677399;10.593065
66375.694450;10.601240
66375.705990;10.083051
66375.724358;10.134441
66375.735662;10.115872
66375.752424;9.752967
66375.763839;9.832213
66375.780496;9.296396
66375.791834;8.851588
66375.808468;8.016869
66375.819696;7.291328
66375.836413;7.001000
66375.847726;6.891285
66375.864513;6.561863
66375.875849;6.540404
66375.892355;6.871149
66375.903636;6.858971
66375.920508;7.329587
66375.931768;7.580769
66375.948535;8.501026
66375.962338;9.276258
66375.980627;10.300885
66375.993985;11.292452
66376.012594;11.657892
66376.025863;12.200899
66376.042761;13.091753
66376.056126;13.549857
66376.074643;13.085669
66376.088214;11.680339
66376.106708;10.623679
66376.119772;10.792838
66376.136578;10.444870
66376.149845;10.648100
66376.166577;11.098689
66376.180808;10.950162
66376.198647;10.860638
66376.212426;10.548573
66376.230664;10.597887
66376.242640;10.053015
66376.260479;10.187460
66376.271930;10.296222
66376.288971;10.558140
66376.301037;10.344502
66376.318342;10.628054
66376.329844;10.500433
66376.346389;10.467460
66376.357908;10.538690
66376.374373;10.701433
66376.385517;10.937701
66376.402434;10.630824
66376.413790;10.614527
66376.430387;10.199328
66376.441668;9.953119
66376.458355;9.963085
66376.469611;9.726797
66376.486749;9.289557
66376.499772;9.428728
66376.516556;9.621706
66376.530056;9.311055
66376.548573;9.357855
66376.561865;9.137424
66376.580579;9.217668
66376.593375;9.323165
66376.610550;9.271676
66376.624027;9.172201
66376.642618;9.025246
66376.655792;9.179928
66376.672714;9.442511
66376.685896;9.057083
66376.704817;9.782960
66376.718024;9.453791
66376.736489;9.236561
66376.750543;9.328941
66376.768615;9.211636
66376.782472;9.282873
66376.800558;8.955070
66376.813720;8.926118
66376.830572;9.612501
66376.843848;9.428306
66376.860593;9.875894
66376.873548;9.974775
66376.890639;9.652300
66376.903774;9.542545
66376.920519;9.813641
66376.933985;9.467017
66376.952344;9.534137
66376.965547;9.497312
66376.982540;9.988674
66376.995314;9.826849
66377.012629;9.931959
66377.025453;9.949056
66377.042662;9.705650
66377.054210;9.558551
66377.072781;9.334581
66377.084249;9.471912
66377.102596;9.418072
66377.115867;9.288771
66377.134749;9.213609
66377.148948;9.208693
66377.166611;8.985132
66377.181096;9.149254
66377.198661;8.943296
66377.212096;9.240643
66377.230683;9.803226
66377.243210;9.767714
66377.260508;10.346415
66377.273246;10.214497
66377.290659;10.299524
66377.302970;10.572888
66377.320484;10.189544
66377.332979;10.067993
66377.350546;10.605573
66377.363018;10.444097
66377.380567;10.339746
66377.392982;10.520535
66377.410611;10.100528
66377.423830;10.293398
66377.440501;10.085745
66377.454142;10.239649
66377.472781;10.221364
66377.486116;10.036644
66377.504734;10.248325
66377.518369;10.365770
66377.536524;10.072349
66377.550108;10.030316
66377.568557;10.054334
66377.582844;10.166345
66377.600666;10.292872
66377.614338;10.424054
66377.632556;11.140341
66377.644972;11.567716
66377.662415;11.803724
66377.674119;11.838575
66377.692432;11.708227
66377.704189;11.822341
66377.722488;11.718363
66377.734394;11.385944
66377.752625;11.166429
66377.766085;10.818812
66377.784554;10.433038
66377.797810;10.300725
66377.814656;9.414138
66377.828088;7.785537
66377.846609;7.743627
66377.860094;6.858677
66377.878497;7.639949
66377.891678;8.848774
66377.908464;9.443067
66377.921942;9.128774
66377.940621;9.305319
66377.954207;9.820784
66377.972572;10.018073
66377.985664;9.400371
66378.002627;10.002575
66378.016202;9.743069
66378.034581;9.246515
66378.048553;10.324736
66378.066844;11.071682
66378.080928;8.191250
66378.098646;9.837376
66378.112041;11.029116
66378.130569;9.637532
66378.143697;9.762433
66378.160508;10.877512
66378.173867;7.962758
66378.192603;9.316262
66378.205890;11.350367
66378.224521;10.046128
66378.237784;10.330751
66378.254544;11.332282
66378.267535;9.038178
66378.284523;10.328183
66378.298295;12.194937
66378.306871;10.414413
66378.323851;12.069850
66378.342840;11.703343
66378.361689;8.756255
66378.378777;9.307651
66378.392367;12.280028
66378.410611;11.056343
66378.423946;10.361983
66378.442621;10.783249
66378.455919;8.748348
66378.474564;8.828371
66378.488054;12.457133
66378.506380;9.737156
66378.519533;9.873126
66378.536449;11.533508
66378.549737;8.366514
66378.566526;10.116600
66378.579890;10.371863
66378.598445;8.867135
66378.611430;11.716557
66378.628566;11.393435
66378.641526;10.528880
66378.648807;10.633699
66378.671852;10.775601
66378.690550;10.620568
66378.703590;11.430775
66378.720449;9.508668
66378.733367;12.457606
66378.750384;11.590733
66378.763527;10.999074
66378.780481;12.734795
66378.793698;9.105599
66378.801443;12.003139
66378.823772;10.643607
66378.840587;8.070209
66378.854169;11.449397
66378.864622;8.073692
66378.886686;7.596206
66378.904499;10.165928
66378.918403;9.176667
66378.936602;8.803504
66378.950505;10.819352
66378.968602;11.225099
66378.982862;8.539791
66379.000581;9.867990
66379.012990;9.704494
66379.030382;8.306488
66379.042267;11.669933
66379.060427;10.443245
66379.072326;9.921432
66379.090361;10.917080
66379.102265;8.534648
66379.120410;9.390302
66379.131951;11.291940
66379.150418;9.510096
66379.161776;11.742372
66379.179200;10.995095
66379.190908;9.675809
66379.208439;11.336805
66379.221723;8.692803
66379.238529;9.454084
66379.252075;11.571784
66379.270422;9.657360
66379.283720;10.418739
66379.300645;11.966805
66379.314458;9.061485
66379.332365;9.701518
66379.345249;11.240168
66379.362600;8.938274
66379.375838;10.976645
66379.392653;11.603916
66379.406043;8.382875
66379.424729;10.035573
66379.438151;10.268639
66379.456928;9.121977
66379.470379;9.748533
66379.488618;10.623623
66379.502123;8.639033
66379.520410;8.760924
66379.533605;10.862414
66379.550524;10.321281
66379.563989;9.798644
66379.582566;10.533731
66379.595686;10.465033
66379.612518;9.618927
66379.625520;11.274486
66379.642508;11.091025
66379.655475;9.447330
66379.672409;10.477682
66379.685805;10.227579
66379.702401;9.715826
66379.715683;11.139524
66379.732588;10.706903
66379.745804;9.799122
66379.762631;10.757848
66379.775999;9.508141
66379.794531;9.689495
66379.807409;10.657210
66379.824674;10.594738
66379.837604;9.321573
66379.854373;10.317272
66379.867608;9.972439
66379.875439;10.168501
66379.897927;10.097458
66379.916606;10.033552
66379.930060;9.722015
66379.948555;9.493845
66379.961826;9.483705
66379.978599;8.955815
66379.991810;8.722702
66380.008513;8.272173
66380.021973;7.965567
66380.040727;7.745449
66380.054162;7.598557
66380.072277;7.793905
66380.085641;7.934132
66380.102528;8.154481
66380.115857;8.216490
66380.134527;8.771901
66380.147569;8.943970
66380.164802;10.124413
66380.178038;10.423352
66380.196485;11.386950
66380.209898;11.757270
66380.228651;12.206868
66380.241746;12.563914
66380.258475;12.571185
66380.271426;11.631924
66380.288469;10.327331
66380.302337;10.263504
66380.320524;9.905507
66380.333970;9.926973
66380.352544;10.161182
66380.365689;10.140477
66380.382467;10.279114
66380.395672;10.243747
66380.412627;10.259313
66380.425853;10.145101
66380.442463;10.040245
66380.455723;9.942423
66380.474632;9.731103
66380.488047;10.263124
66380.506264;10.077017
66380.519847;10.486725
66380.538419;10.787729
66380.551864;10.548371
66380.570421;10.390780
66380.583830;10.040744
66380.600585;10.292217
66380.613915;10.047077
66380.623261;9.938249
66380.646032;9.915059
66380.664584;9.493450
66380.677907;9.780583
66380.696669;9.958156
66380.709873;9.757361
66380.728548;10.259787
66380.741466;10.278625
66380.758532;10.143906
66380.771634;10.250683
66380.788534;10.274481
66380.802762;9.957077
66380.820486;9.813639
66380.834716;9.785762
66380.852566;10.108366
66380.865652;10.204066
66380.882509;10.385043
66380.895388;10.618069
66380.912549;10.926496
66380.925581;10.682540
66380.942484;10.899213
66380.955376;9.706242
66380.972508;10.440129
66380.985600;10.100296
66381.002434;9.521871
66381.016343;9.651099
66381.034378;10.274927
66381.048060;10.138724
66381.066529;10.349253
66381.079429;9.744234
66381.096499;9.271389
66381.109371;9.494773
66381.126372;9.189150
66381.137916;9.061111
66381.156503;9.915007
66381.167804;9.517025
66381.184469;9.613906
66381.195766;10.141445
66381.212435;9.258963
66381.223357;9.042687
66381.240780;9.457720
66381.252381;9.170000
66381.270420;8.684829
66381.282296;8.758771
66381.300367;8.688336
66381.311587;8.835335
66381.328397;9.866174
66381.339598;9.311029
66381.356231;9.226337
66381.367665;9.218232
66381.384518;8.544001
66381.397882;8.551552
66381.416547;9.175668
66381.429913;8.915309
66381.448578;6.817621
66381.461890;9.299895
66381.480527;6.633664
66381.493970;1.892631
66381.512645;5.486343
66381.525790;6.631269
66381.542555;3.852231
66381.556025;2.869706
66381.574431;2.893588
66381.587451;2.105023
66381.604451;1.125755
66381.618056;0.188962
