Time;Z-Force
31371.979091;10.724961
31371.995783;10.547097
31372.006741;10.604511
31372.023721;10.453284
31372.035161;10.482312
31372.051886;9.570132
31372.062866;9.629918
31372.080026;8.647617
31372.090972;8.298764
31372.107744;8.292743
31372.119665;8.424472
31372.137816;8.567128
31372.148812;8.699646
31372.165853;8.837631
31372.176895;9.290146
31372.193820;9.783814
31372.204804;9.032149
31372.221862;9.623465
31372.239774;8.780242
31372.249911;9.426972
31372.260933;9.072510
31372.277803;9.841686
31372.288933;9.654060
31372.305846;10.081383
31372.316937;9.671302
31372.333846;11.055999
31372.344895;10.813781
31372.361822;11.065326
31372.372922;12.310947
31372.389787;11.360925
31372.400826;12.403347
31372.417869;12.001398
31372.428863;12.081730
31372.445846;12.981951
31372.456917;13.543190
31372.473813;11.857349
31372.485166;11.469521
31372.502044;8.779769
31372.513073;12.990800
31372.530195;8.596892
31372.541288;10.494772
31372.557872;10.440391
31372.568931;7.966931
31372.586148;7.971607
31372.597263;5.523061
31372.613877;7.410083
31372.624952;5.822020
31372.641868;8.835267
31372.653971;9.418885
31372.672049;7.894943
31372.683133;10.085553
31372.700045;9.281673
31372.711122;10.373234
31372.728039;10.612596
31372.739114;8.354129
31372.755971;10.224802
31372.767015;9.187204
31372.783871;9.316074
31372.794892;11.314904
31372.811995;10.304921
31372.823066;11.493685
31372.839784;11.140679
31372.850821;10.080584
31372.868129;11.140874
31372.879192;9.205224
31372.896292;8.599479
31372.907374;9.336586
31372.923758;7.366357
31372.934861;9.042172
31372.951848;7.602437
31372.962982;9.054455
31372.979786;7.776950
31372.990864;8.628388
31373.007670;8.921655
31373.019472;8.399319
31373.037828;10.225329
31373.048873;9.412893
31373.065866;10.778204
31373.076892;9.971298
31373.093816;13.141898
31373.104925;11.773939
31373.121733;13.146265
31373.132773;13.945417
31373.149796;11.265795
31373.160874;10.930596
31373.177936;10.601710
31373.188992;9.688789
31373.205802;10.292892
31373.216709;10.296320
31373.233791;9.722695
31373.244764;10.300220
31373.261886;10.065797
31373.272892;9.470398
31373.289781;9.491525
31373.300751;9.366467
31373.317808;10.255351
31373.328920;10.056092
31373.345868;10.958254
31373.356772;10.943204
31373.373987;11.004792
31373.384925;11.284061
31373.401860;10.673189
31373.412677;11.017235
31373.430231;11.046501
31373.441146;9.678043
31373.457798;10.136719
31373.469066;10.506947
31373.485857;9.252246
31373.496839;10.026417
31373.514017;10.162830
31373.524938;9.804214
31373.541731;10.943484
31373.552703;10.873347
31373.569818;10.322711
31373.580913;11.398430
31373.597722;10.296792
31373.608772;10.711413
31373.625810;10.926607
31373.637703;9.893391
31373.655850;10.293081
31373.666912;10.099367
31373.683865;9.791716
31373.694931;9.975380
31373.711904;10.076835
31373.722995;9.969103
31373.739800;10.370343
31373.750736;9.690554
31373.767770;10.279312
31373.778773;9.912825
31373.795987;10.418698
31373.807128;10.399362
31373.823704;10.269445
31373.834644;10.976744
31373.851787;11.096938
31373.862832;11.898536
31373.880049;12.088676
31373.897637;12.159521
31373.907754;12.161047
31373.918851;12.195740
31373.935782;12.152737
31373.946934;12.470493
31373.963725;11.165738
31373.981888;9.961278
31373.992004;12.847012
31374.003991;9.813292
31374.021784;9.620768
31374.032716;10.896004
31374.049811;7.560942
31374.060827;8.514602
31374.077908;5.274819
31374.088991;8.717805
31374.105817;5.381847
31374.116895;7.554959
31374.133880;8.680546
31374.144921;8.858185
31374.161780;10.247726
31374.172870;6.913090
31374.189739;11.606997
31374.200800;10.190798
31374.217767;8.503317
31374.228810;8.382163
31374.245726;12.125084
31374.256841;7.901584
31374.273920;8.497542
31374.284916;10.758452
31374.301731;9.678064
31374.312859;9.618090
31374.329746;9.535613
31374.340776;12.040314
31374.357860;6.739200
31374.369056;13.768767
31374.385899;8.141834
31374.396948;10.427099
31374.413998;11.164056
31374.425063;10.245370
31374.441818;6.142420
31374.452821;11.363349
31374.469810;10.603754
31374.481060;8.079054
31374.497942;11.316691
31374.508952;7.307220
31374.525751;8.812138
31374.536712;11.309257
31374.553755;11.213818
31374.571868;6.945983
31374.581991;11.020549
31374.592963;9.444112
31374.609749;13.761261
31374.621347;7.231039
31374.637839;11.517376
31374.648721;8.092099
31374.665843;10.643270
31374.676930;8.830014
31374.693816;8.640803
31374.705098;9.306818
31374.721729;9.493576
31374.732789;12.095949
31374.749775;8.247774
31374.760825;12.000756
31374.777755;9.873839
31374.788808;11.217894
31374.805807;10.502297
31374.816811;8.909384
31374.834002;11.970161
31374.845005;8.120642
31374.861794;10.908632
31374.872759;8.805804
31374.889762;9.741946
31374.900755;9.974245
31374.917818;7.679104
31374.928811;10.496596
31374.945804;9.120266
31374.963719;8.324434
31374.973870;9.810831
31374.984893;8.276151
31375.001810;9.633374
31375.012756;9.337825
31375.030209;8.613123
31375.041285;10.022711
31375.057839;9.330707
31375.068862;8.992243
31375.083529;9.993443
31375.096872;8.575874
31375.114090;8.866317
31375.125199;9.556405
31375.141756;8.869270
31375.152691;8.314894
31375.170016;8.581810
31375.181188;8.130245
31375.197741;7.305920
31375.208742;6.810977
31375.225729;6.717092
31375.237957;6.653960
31375.256029;6.455873
31375.267153;5.930499
31375.283842;6.741863
31375.294885;7.221600
31375.311782;7.464475
31375.322870;8.376829
31375.339765;9.007639
31375.350805;9.737352
31375.368082;12.240155
31375.385701;12.050068
31375.395813;13.214533
31375.406846;14.048323
31375.423762;14.977334
31375.434838;14.070526
31375.451761;12.273221
31375.462817;11.328950
31375.479931;12.161933
31375.491015;11.394295
31375.507692;11.109984
31375.518748;11.647797
31375.535785;10.901660
31375.546851;11.578535
31375.563802;11.504356
31375.574857;10.844326
31375.591774;11.653710
31375.602848;11.140946
31375.619783;11.153856
31375.630835;11.229515
31375.648297;9.948987
31375.659370;10.369131
31375.675739;9.960737
31375.687657;9.159985
31375.705793;9.682784
31375.716715;9.524152
31375.733810;9.508261
31375.751638;9.733180
31375.761779;9.615840
31375.772718;10.214996
31375.789802;9.428403
31375.807693;9.752565
31375.817825;9.757403
31375.835671;8.989518
31375.845799;9.127381
31375.856719;9.321096
31375.873996;8.725886
31375.891673;9.479439
31375.901784;9.377793
31375.912642;8.987235
31375.929735;9.848381
31375.940632;9.286717
31375.957810;9.562554
31375.968646;9.180819
31375.985840;9.389752
31375.996715;10.250001
31376.014232;10.298941
31376.031623;10.619092
31376.041752;10.630886
31376.052581;11.023112
31376.069963;10.976148
31376.080864;10.587172
31376.097952;10.531978
31376.108959;11.160841
31376.125704;10.778342
31376.136697;10.526583
31376.153720;11.144572
31376.171661;10.301522
31376.181756;10.572204
31376.192714;11.592335
31376.209690;10.672371
31376.220680;10.947139
31376.237835;10.856989
31376.248876;10.281126
31376.265788;11.277281
31376.276699;10.510788
31376.293769;10.023996
31376.305283;10.890885
31376.321710;10.440647
31376.332618;10.897005
31376.349785;11.014186
31376.360742;10.725566
31376.377712;11.448071
31376.388642;10.976241
31376.405766;10.299695
31376.416672;11.127034
31376.433770;10.140977
31376.444719;10.634077
31376.461707;10.053005
31376.472651;9.430978
31376.489765;9.900933
31376.500769;9.394498
31376.517781;8.777433
31376.528756;9.345069
31376.545851;8.414045
31376.556832;10.032078
31376.574084;9.794216
31376.585005;9.379882
31376.601738;10.700616
31376.612650;10.147595
31376.629760;10.152716
31376.640863;10.702789
31376.657671;9.508888
31376.668724;9.986694
31376.685745;9.544356
31376.696801;8.339021
31376.713952;11.146400
31376.725022;9.730603
31376.741718;7.799994
31376.752769;11.377039
31376.769746;8.855108
31376.780785;8.386314
31376.797715;12.407462
31376.808788;9.409813
31376.825731;8.877529
31376.837141;11.368661
31376.853841;9.174503
31376.865024;8.882609
31376.881801;12.165601
31376.892888;10.836663
31376.909761;11.371387
31376.921828;13.729915
31376.939813;12.130842
31376.950832;9.974601
31376.967802;14.152122
31376.978862;13.021194
31376.995721;9.420045
31377.006820;12.607376
31377.023771;11.979750
31377.034837;9.825594
31377.051793;12.416932
31377.062868;11.004112
31377.079740;7.637470
31377.090817;9.557320
31377.107760;6.942303
31377.118821;6.890243
31377.135759;8.761274
31377.146807;7.711835
31377.163729;8.821744
31377.174830;8.781543
31377.191718;9.480105
31377.202746;7.883773
31377.219749;10.251347
31377.230743;8.039044
31377.247793;10.709916
31377.258787;9.109006
31377.275991;10.337692
31377.287246;10.877520
31377.303787;9.249290
31377.314768;7.750276
31377.331979;9.227732
31377.342905;9.419326
31377.359762;8.835428
31377.370800;11.092301
31377.387755;11.902118
31377.399042;9.240714
31377.415642;10.501254
31377.426726;6.480217
31377.443779;10.910957
31377.454833;10.742812
31377.471827;8.425809
31377.482910;11.884089
31377.499779;8.791709
31377.510913;11.321347
31377.527801;7.839402
31377.539352;11.393523
31377.555779;10.081213
31377.566768;11.102715
31377.583752;8.677964
31377.594717;11.319699
31377.611730;10.473351
31377.622983;11.330993
31377.639738;11.642730
31377.650791;9.873926
31377.667840;12.096631
31377.678915;8.606065
31377.695692;11.410307
31377.713582;11.246789
31377.723690;11.165330
31377.741626;11.938370
31377.751730;10.985109
31377.762754;8.343596
31377.779958;10.968873
31377.790998;12.248475
31377.807710;10.664222
31377.818650;9.414909
31377.835980;8.128946
31377.846898;9.729580
31377.863719;9.652474
31377.874640;8.789418
31377.891822;8.169295
31377.902744;10.004608
31377.919789;12.004336
31377.930694;7.359365
31377.948056;11.515413
31377.959023;8.068929
31377.975782;8.229482
31377.986706;11.592895
31378.003754;7.732183
31378.014673;9.564322
31378.032017;14.627115
31378.043073;8.471134
31378.059730;12.509764
31378.070841;9.217250
31378.087853;10.372242
31378.099062;11.289763
31378.115719;9.390762
31378.133811;10.938230
31378.143917;8.154959
31378.155994;12.605309
31378.173849;8.606267
31378.184911;10.117026
31378.201876;13.130756
31378.212780;13.215881
31378.229794;10.656921
31378.240861;10.019294
31378.257924;11.470999
31378.268973;8.390798
31378.285982;13.455906
31378.297048;8.672141
31378.313767;12.491467
31378.324830;9.017694
31378.341792;10.834726
31378.352868;9.456800
31378.369739;8.681163
31378.380763;9.483060
31378.397693;10.717093
31378.408861;9.039788
31378.425821;9.040155
31378.436891;11.376841
31378.453720;7.248913
31378.464788;10.780688
31378.482017;8.343024
31378.493127;10.741568
31378.509785;9.647468
31378.521033;8.769665
31378.537815;11.443765
31378.548736;8.194949
31378.565907;9.419686
31378.576879;8.999088
31378.593709;8.786883
31378.604769;10.647895
31378.621848;10.035194
31378.632866;9.147641
31378.649894;11.174318
31378.660941;9.534852
31378.677718;10.052471
31378.688800;10.117271
31378.705747;9.440523
31378.716881;10.267961
31378.733699;10.165500
31378.744766;9.863873
31378.761712;9.909945
31378.773493;9.524164
31378.791759;9.589113
31378.802825;9.571070
31378.819861;9.335563
31378.830942;9.316537
31378.847842;9.559489
31378.858942;9.500968
31378.875843;9.302289
31378.886910;9.487377
31378.903850;9.470469
31378.914952;9.303019
31378.932079;9.521180
31378.943175;9.161106
31378.959758;8.816210
31378.970861;8.814977
31378.987835;8.243962
31378.998935;7.880002
31379.015921;7.323966
31379.027054;6.743158
31379.043755;6.543860
31379.054886;6.748334
31379.071829;6.061310
31379.083056;6.362886
31379.099670;6.391383
31379.117568;6.535711
31379.127670;6.834355
31379.139843;7.772859
31379.157757;7.508678
31379.168760;8.285715
31379.186045;8.728373
31379.197065;10.144943
31379.213717;11.042136
31379.224700;11.802916
31379.241707;12.765814
31379.252693;13.478507
31379.269757;12.938307
31379.280735;13.833665
31379.297674;13.600755
31379.308720;12.838944
31379.325647;12.013875
31379.336595;11.080588
31379.353662;10.485284
31379.364547;10.698301
31379.381947;10.672650
31379.393036;10.509599
31379.409671;11.026215
31379.420636;10.887610
31379.437449;11.706669
31379.448774;11.275269
31379.465781;11.638792
31379.476899;12.185873
31379.493706;11.515311
31379.504973;11.339172
31379.521780;11.291070
31379.532823;11.008513
31379.550009;11.083175
31379.567566;11.627235
31379.577699;11.436281
31379.597756;12.034307
31379.607859;11.656914
31379.618734;12.101152
31379.635712;11.722862
31379.646649;11.345623
31379.663616;11.953675
31379.674724;11.237708
31379.691758;10.613367
31379.702842;10.962270
31379.719824;10.015785
31379.730913;10.130976
31379.747689;10.708907
31379.758794;9.334109
31379.775765;10.346729
31379.786806;9.657158
31379.803827;8.504673
31379.814707;9.101408
31379.831789;8.423600
31379.842842;8.216152
31379.859727;9.355188
31379.870759;8.932481
31379.887896;9.828436
31379.898843;10.000088
31379.916014;9.051019
31379.927088;9.675503
31379.943606;9.155838
31379.954667;9.508222
31379.971685;9.412537
31379.982751;9.182067
31379.999812;9.720083
31380.010851;9.691497
31380.027736;9.473153
31380.038768;10.128971
31380.055660;8.299907
31380.067034;9.245844
31380.083656;10.535323
31380.094706;9.292786
31380.111665;10.794829
31380.124217;10.721659
31380.141666;8.187746
31380.152689;11.290852
31380.169780;9.825219
31380.180767;10.583688
31380.197818;10.020550
31380.215652;10.114623
31380.225734;11.876723
31380.236660;9.857540
31380.253783;11.602800
31380.264722;11.408132
31380.281934;10.135289
31380.292886;11.138052
31380.309724;11.067856
31380.320628;9.238975
31380.337715;12.122539
31380.348593;11.022408
31380.365605;10.712000
31380.376545;12.082581
31380.393627;10.116970
31380.404531;11.384665
31380.421726;11.061566
31380.432796;10.463524
31380.449678;11.583047
31380.460687;9.339523
31380.477733;10.075992
31380.489397;10.075490
31380.507728;8.763874
31380.518784;9.900599
31380.535775;9.162319
31380.546868;8.294132
31380.563634;10.543099
31380.574788;7.888411
31380.591643;9.480298
31380.602631;10.272598
31380.619686;7.745550
31380.630681;9.843192
31380.647640;8.746223
31380.658713;8.523213
31380.675815;10.536037
31380.686912;9.062591
31380.703685;9.667807
31380.714745;10.898285
31380.731847;7.178279
31380.742895;9.744891
31380.759644;9.158476
31380.770706;7.506905
31380.787687;11.362222
31380.798746;9.478586
31380.815663;7.843276
31380.826680;10.068824
31380.843678;8.946825
31380.854655;8.641412
31380.871715;10.834085
31380.882719;9.959891
31380.899963;8.909187
31380.910875;8.659306
31380.927683;10.389337
31380.938577;8.967587
31380.955790;9.033535
31380.966937;13.587612
31380.983866;9.181637
31381.001593;9.209454
31381.011686;13.252366
31381.029562;9.367382
31381.039688;8.858338
31381.050739;11.830556
31381.067674;9.991519
31381.078581;9.823748
31381.095819;11.849102
31381.107671;11.722057
31381.125698;9.567910
31381.136641;8.944475
31381.153759;11.592853
31381.164641;9.417127
31381.181749;9.140420
31381.192713;11.482040
31381.209706;9.190966
31381.220623;9.170102
31381.237785;11.552366
31381.255741;9.238554
31381.265926;8.620533
31381.276969;10.231573
31381.293673;10.942323
31381.304676;8.443869
31381.321716;9.701256
31381.332760;12.770565
31381.350023;9.129017
31381.361064;9.375230
31381.377678;13.118250
31381.388752;10.401325
31381.405688;11.286721
31381.416630;11.901786
31381.433788;12.122173
31381.444816;10.758032
31381.461694;12.285406
31381.473483;14.602659
31381.491745;11.131256
31381.502720;10.899813
31381.519709;13.618809
31381.530685;10.530422
31381.547941;10.904017
31381.559026;11.801207
31381.575676;8.353366
31381.586593;7.254626
31381.603963;9.298537
31381.614894;7.076703
31381.631680;5.437636
31381.649609;7.971715
31381.659736;6.596598
31381.670780;7.409115
31381.687707;10.268090
31381.698769;10.051658
31381.715707;9.226010
31381.726740;7.386373
31381.743684;11.132920
31381.754764;9.606900
31381.771689;8.919203
31381.782741;12.142071
31381.799747;10.218848
31381.810821;8.986871
31381.827707;10.986663
31381.838748;9.001874
31381.855936;10.480943
31381.869313;12.523759
31381.887947;9.474438
31381.901415;7.762317
31381.920090;9.144404
31381.933584;9.728414
31381.952009;12.389985
31381.965247;8.749442
31381.983944;7.657162
31381.997247;12.320571
31382.013990;10.415265
31382.027129;10.258495
31382.034196;11.008382
31382.057890;10.229976
31382.066580;9.528385
31382.082993;11.647394
31382.106106;11.293170
31382.118206;7.491226
31382.136133;10.865565
31382.148163;12.097282
31382.165846;8.182579
31382.177972;10.464548
31382.195851;11.569981
31382.208654;11.477979
31382.225885;11.377016
31382.237556;9.027341
31382.255802;10.682002
31382.267336;8.444701
31382.285762;8.428663
31382.303656;10.361327
31382.313774;7.192424
31382.325187;11.005181
31382.341688;10.992322
31382.353271;9.702260
31382.369778;11.764610
31382.381264;8.940097
31382.397659;10.641595
31382.409142;6.391469
31382.425781;10.182520
31382.437174;10.757917
31382.453796;7.768216
31382.465185;10.380210
31382.481741;8.359362
31382.493215;10.398055
31382.509685;11.031144
31382.521127;10.240531
31382.537779;11.046033
31382.549209;8.030046
31382.565694;10.610653
31382.577106;9.565010
31382.593708;10.079882
31382.605126;11.004803
31382.621760;9.285119
31382.633172;10.620185
31382.649821;10.702673
31382.661189;11.672986
31382.677893;12.194099
31382.689236;10.739677
31382.705773;12.103884
31382.717217;8.584606
31382.733679;11.630852
31382.744982;9.242928
31382.761655;10.116721
31382.772848;13.230888
31382.789671;6.999690
31382.807543;10.862181
31382.817669;8.650647
31382.828562;11.232391
31382.845864;12.709277
31382.857791;9.430325
31382.875872;11.290932
31382.886834;10.303766
31382.903687;9.914753
31382.914586;8.523170
31382.931627;8.941909
31382.942489;10.198251
31382.959681;7.329107
31382.970654;11.180553
31382.987777;7.796420
31382.998688;12.300521
31383.015670;9.222581
31383.026674;11.131720
31383.043694;12.029628
31383.061602;6.101287
31383.071713;12.376811
31383.089588;8.367735
31383.099730;11.447686
31383.110605;9.297320
31383.127697;11.807803
31383.138714;9.283426
31383.155688;11.662186
31383.173836;9.506874
31383.183941;11.955334
31383.194964;7.597946
31383.211713;11.110716
31383.222581;11.409364
31383.239699;10.392666
31383.250688;8.932531
31383.267826;9.132383
31383.285551;11.411121
31383.295645;11.143196
31383.306671;9.655097
31383.323686;8.965112
31383.334906;10.264548
31383.351783;7.872758
31383.362781;9.239620
31383.379859;7.895074
31383.390774;11.733612
31383.407610;7.904274
31383.418441;12.403058
31383.435540;8.333231
31383.453516;10.732897
31383.463626;8.383293
31383.483517;7.164436
31383.493648;10.439083
31383.504651;8.044351
31383.521712;11.835720
31383.532669;7.834608
31383.549629;11.247154
31383.560611;7.909980
31383.577672;11.211233
31383.588597;9.301971
31383.605727;10.075735
31383.616749;8.046368
31383.633925;10.033921
31383.644958;9.797249
31383.661590;9.249331
31383.679591;11.894074
31383.689688;7.574230
31383.707602;10.074011
31383.717730;9.396587
31383.735597;8.477431
31383.745719;10.376113
31383.756724;9.301865
31383.773882;10.971102
31383.784929;7.627345
31383.801686;10.515686
31383.819611;10.839628
31383.829752;8.761502
31383.841553;10.995807
31383.859605;9.795326
31383.870600;9.280237
31383.887617;10.793252
31383.905515;10.344116
31383.915641;9.508410
31383.926676;10.178325
31383.943612;9.615300
31383.954637;10.390201
31383.971660;10.238936
31383.982668;9.053952
31383.999590;9.823082
31384.010643;10.029182
31384.027632;9.211698
31384.038643;9.716808
31384.055883;9.733169
31384.066890;9.238503
31384.083860;9.492224
31384.094843;9.404512
31384.111680;9.509616
31384.122649;9.744501
31384.139739;9.328848
31384.150759;9.215295
31384.167678;9.221247
31384.185835;9.287414
31384.195975;9.090300
31384.207410;9.222422
31384.225719;9.517755
31384.243589;9.301955
31384.253757;8.939832
31384.271606;9.177720
31384.281677;8.873220
31384.299520;8.563820
31384.309613;8.526848
31384.320493;8.352392
31384.337715;8.133475
31384.348628;7.718431
31384.365650;7.403851
31384.376606;7.109505
31384.393687;7.081633
31384.404713;6.839453
31384.421668;7.099272
31384.432639;7.274145
31384.449586;7.608899
31384.460526;7.372636
31384.477654;7.954028
31384.488549;8.435679
31384.505770;8.754962
31384.516642;9.173543
31384.533713;10.151961
31384.551533;10.260011
31384.561681;10.956049
31384.579600;11.546944
31384.589739;12.024349
31384.600613;12.204036
31384.618116;12.208408
31384.629084;11.105057
31384.645677;9.944506
31384.656625;9.203887
31384.673680;9.665526
31384.684715;9.553309
31384.701652;8.812578
31384.712631;9.982552
31384.729639;9.826897
31384.740622;9.360118
31384.757640;10.382653
31384.768895;10.227130
31384.785598;10.074982
31384.796669;10.722567
31384.813740;10.747239
31384.825715;11.006132
31384.843698;10.937377
31384.854746;11.443171
31384.871709;11.462914
31384.882743;11.208738
31384.899659;11.702857
31384.910757;11.824880
31384.927667;12.574106
31384.938719;12.137381
31384.955679;11.727380
31384.966621;11.557435
31384.983605;11.416909
31384.994753;11.230897
31385.011631;11.463106
31385.022572;11.482464
31385.039634;11.154491
31385.050575;11.060797
31385.067588;11.464748
31385.078600;10.937481
31385.095594;11.140820
31385.106605;11.022111
31385.123647;10.983777
31385.134603;11.242217
31385.151562;11.240964
31385.162584;11.242859
31385.179618;11.343134
31385.190876;11.146530
31385.207622;11.086727
31385.218524;10.980254
31385.235782;10.231994
31385.246744;10.762693
31385.263588;10.557837
31385.274526;11.145322
31385.291499;11.328534
31385.302736;11.589437
31385.319702;11.753102
31385.330697;11.523910
31385.347567;11.202803
31385.358600;10.843758
31385.375646;10.705540
31385.386720;9.935289
31385.403581;10.043163
31385.414616;9.922122
31385.431593;9.938058
31385.443071;9.302304
31385.459625;10.055597
31385.470603;8.953397
31385.487659;8.876988
31385.498592;8.667264
31385.515762;8.294957
31385.526089;8.703203
31385.543649;9.524544
31385.554632;9.599006
31385.571653;8.956490
31385.582620;9.281093
31385.599657;9.443333
31385.610732;9.131974
31385.627844;9.326511
31385.638750;10.248724
31385.655660;7.372246
31385.666674;11.432515
31385.683659;8.034897
31385.694754;8.009710
31385.711654;11.039569
31385.722697;7.186780
31385.739684;10.755003
31385.757612;8.478225
31385.767734;8.586353
31385.778771;10.693645
31385.795766;9.268626
31385.806814;10.623961
31385.823868;10.795681
31385.834829;8.501053
31385.852275;11.452064
31385.863307;9.925524
31385.881613;9.800499
31385.893120;12.125555
31385.909621;8.918414
31385.927590;13.345051
31385.937728;10.209471
31385.955600;11.249875
31385.965702;13.147592
31385.976678;10.320905
31385.993673;9.721526
31386.004650;13.279432
31386.021678;9.051720
31386.032737;9.403638
31386.049618;13.376997
31386.059944;9.127936
31386.077609;12.685538
31386.088540;12.455140
31386.105689;7.620395
31386.116651;12.211974
31386.133655;9.763818
31386.144615;6.794312
31386.161625;11.978954
31386.172570;8.427988
31386.189704;9.064400
31386.200670;9.997163
31386.217721;6.477546
31386.228744;12.369866
31386.245719;9.381002
31386.256734;6.202533
31386.273649;11.109586
31386.284695;9.376314
31386.301935;7.674680
31386.312986;11.870577
31386.329751;7.618216
31386.347498;11.312512
31386.357633;10.966064
31386.368560;7.375720
31386.385641;11.703566
31386.396682;10.001709
31386.413748;7.445505
31386.425143;10.816194
31386.441695;7.221320
31386.452701;7.239973
31386.469800;10.559032
31386.480779;7.905010
31386.497604;10.146233
31386.509680;11.249187
31386.527647;7.020037
31386.538698;11.427230
31386.555701;8.623085
31386.566794;7.216193
31386.583631;11.840787
31386.594716;8.818268
31386.611661;8.326553
31386.622623;12.365980
31386.639670;8.445317
31386.650714;9.160548
31386.667686;10.338243
31386.678825;9.259127
31386.695610;11.437975
31386.706682;11.536816
31386.723722;9.225533
31386.734793;10.354496
31386.751712;9.099855
31386.762817;10.271322
31386.779713;12.533202
31386.790759;10.010218
31386.807712;8.188227
31386.818812;10.971151
31386.836020;9.363229
31386.847123;10.051160
31386.863692;12.233844
31386.874784;9.987720
31386.891689;8.593257
31386.902955;11.946168
31386.919833;10.261626
31386.930886;9.247353
31386.947645;12.637460
31386.958697;10.510094
31386.975595;9.231164
31386.986849;10.911328
31387.003596;10.894842
31387.014678;9.276317
31387.031613;10.765064
31387.043737;9.751748
31387.061688;8.220605
31387.072733;9.932747
31387.089646;11.574492
31387.100668;7.839768
31387.117658;10.867661
31387.128696;12.305364
31387.145637;7.367056
31387.156580;10.065689
31387.173606;10.815187
31387.184566;8.141171
31387.201731;11.644995
31387.212731;8.888217
31387.229651;8.364697
31387.247495;11.873888
31387.257603;11.362908
31387.268557;9.529233
31387.285990;11.747546
31387.297027;12.918919
31387.313586;10.549459
31387.324675;10.279763
31387.341622;13.211213
31387.352751;10.894733
31387.369593;11.086687
31387.387514;11.729799
31387.397681;9.751396
31387.409465;12.351826
31387.427927;11.017300
31387.438845;9.820702
31387.455820;10.944148
31387.466919;8.347498
31387.483618;6.360748
31387.494828;7.841387
31387.511630;7.449728
31387.522746;6.537840
31387.539881;10.469457
31387.550972;9.616584
31387.567627;8.619474
31387.578745;10.203701
31387.595626;9.795382
31387.606711;9.522187
31387.623655;11.293898
31387.634751;11.109124
31387.651618;9.239539
31387.662771;10.779875
31387.679619;9.724993
31387.697540;6.499281
31387.707659;11.258983
31387.718760;9.577953
31387.735637;8.975746
31387.746714;10.445931
31387.763606;7.989482
31387.774642;9.320901
31387.791607;11.502486
31387.802636;8.007048
31387.819936;8.201803
31387.830997;11.617252
31387.847597;8.583202
31387.859122;10.043876
31387.875594;11.466949
31387.886656;10.117358
31387.903804;10.587832
31387.921526;8.916841
31387.931658;10.441716
31387.942760;12.877245
31387.959669;11.492656
31387.970740;12.629830
31387.987598;8.491057
31387.998671;12.237350
31388.015588;9.029141
31388.027651;10.187021
31388.045614;13.075742
31388.056708;8.095163
31388.073631;9.805284
31388.084675;8.748134
31388.101647;10.645383
31388.112695;13.244091
31388.129630;8.218870
31388.140663;10.812234
31388.157620;12.060155
31388.168636;6.869881
31388.185853;11.085863
31388.196865;8.049789
31388.213586;10.521775
31388.224423;10.421190
31388.241651;5.264167
31388.252656;14.452161
31388.269891;11.912255
31388.283033;10.741357
31388.299841;10.939506
31388.312984;5.131474
31388.329846;8.951597
31388.343254;14.495892
31388.361973;12.879919
31388.375160;10.116340
31388.393828;11.522057
31388.406919;10.596095
31388.423860;4.733798
31388.437392;11.251253
31388.455691;13.458614
31388.469169;8.213115
31388.487711;10.513115
31388.500834;12.310418
31388.517839;4.897853
31388.531987;11.350039
31388.549794;13.510374
31388.563147;4.508523
31388.580057;10.863807
31388.593250;11.802381
31388.611985;8.385790
31388.625566;11.353132
31388.643909;12.793060
31388.657358;5.216701
31388.675887;7.980380
31388.689439;12.375142
31388.707816;9.833441
31388.721374;10.393884
31388.730412;8.278906
31388.753272;6.224534
31388.771830;7.123046
31388.785355;11.813748
31388.803764;8.714840
31388.817242;11.120049
31388.826847;8.034523
31388.849433;9.110989
31388.867862;10.965607
31388.881232;9.794007
31388.899823;6.586567
31388.913343;12.922564
31388.931959;11.075381
31388.945108;8.625405
31388.962069;11.097760
31388.975275;7.622302
31388.993942;9.304431
31389.007386;12.320874
31389.016148;11.207969
31389.039482;12.003992
31389.057934;12.043097
31389.071104;8.319986
31389.088008;12.006229
31389.101171;8.262441
31389.117771;9.863174
31389.130744;12.332657
31389.147791;7.563538
31389.160819;12.095759
31389.177769;10.671086
31389.190541;9.385870
31389.207618;12.270381
31389.220928;6.842513
31389.237699;10.485956
31389.250314;12.029678
31389.267809;7.491540
31389.281463;12.186400
31389.299780;12.322768
31389.312686;6.379733
31389.320289;11.164072
31389.342577;11.204029
31389.359778;7.250874
31389.372905;11.462016
31389.380853;6.755931
31389.403009;8.023885
31389.419770;10.361830
31389.432785;9.694413
31389.449847;7.502884
31389.463271;12.294868
31389.481822;12.304694
31389.495324;6.042558
31389.513819;7.245072
31389.526505;11.484599
31389.543794;10.841002
31389.555712;10.432218
31389.573804;12.151494
31389.585743;8.310878
31389.603738;8.223588
31389.615779;12.083456
31389.633841;9.120848
31389.645851;10.387492
31389.663728;11.440976
31389.675487;6.908226
31389.693743;8.430070
31389.705435;10.633549
31389.723856;8.830159
31389.735750;10.430132
31389.753659;10.724683
31389.765410;8.631894
31389.783576;9.851436
31389.795892;10.340408
31389.813589;7.909847
31389.825421;11.190765
31389.843689;10.581127
31389.855140;8.314362
31389.871749;9.028980
31389.882900;9.448473
31389.899551;8.722488
31389.910437;10.463605
31389.927577;9.952177
31389.938708;9.214769
31389.955590;10.544558
31389.966464;9.811706
31389.983547;9.445920
31389.994462;10.402532
31390.011571;10.539014
31390.022434;9.794705
31390.039563;10.162617
31390.050454;9.840974
31390.067552;10.038779
31390.078859;10.224483
31390.095553;9.816092
31390.106412;9.880964
31390.123616;9.831730
31390.134514;9.939576
31390.151634;9.462518
31390.162535;9.475354
31390.179587;9.599051
31390.190418;9.821080
31390.207616;9.436775
31390.225527;9.473571
31390.235639;9.591243
31390.246545;9.682873
31390.263609;9.295082
31390.274494;9.332206
31390.291617;9.238321
31390.302486;8.831687
31390.319554;8.825211
31390.330486;8.558307
31390.347566;7.872236
31390.358607;7.624115
31390.375546;7.423237
31390.386542;7.094682
31390.403583;6.814877
31390.414594;6.747928
31390.431624;6.417156
31390.442608;6.574694
31390.459642;7.040097
31390.470526;7.208629
31390.487801;7.243155
31390.498734;7.104826
31390.515476;8.714605
31390.526734;8.388099
31390.543502;8.641495
31390.554413;10.556972
31390.571680;11.383097
31390.582580;11.348891
31390.599491;11.677676
31390.610429;12.110509
31390.627520;10.700548
31390.638516;9.590987
31390.655484;8.862962
31390.666377;9.411185
31390.683485;8.937754
31390.694922;8.582435
31390.711596;9.443731
31390.722622;9.567232
31390.739597;9.085189
31390.750496;9.724433
31390.767499;10.323344
31390.778706;9.930373
31390.795506;10.185569
31390.806421;10.189166
31390.823619;9.663257
31390.834541;9.819896
31390.851508;9.665061
31390.862449;9.263615
31390.879604;9.898752
31390.890518;9.968842
31390.907600;9.277739
31390.918610;9.609681
31390.935504;9.742088
31390.946503;9.616242
31390.963557;10.105414
31390.974489;10.432605
31390.991553;8.558014
31391.002444;10.998654
31391.019559;11.231678
31391.030485;10.082949
31391.047558;11.098070
31391.058429;12.292337
31391.075500;10.952498
31391.086396;11.192741
31391.103591;11.564727
31391.114491;11.885740
31391.131492;11.177571
31391.142383;12.320191
31391.159620;11.169989
31391.170585;11.893449
31391.187985;11.611332
31391.199019;11.786309
31391.215554;11.562465
31391.226464;12.385149
31391.243650;11.410723
31391.254766;11.054290
31391.271546;13.552256
31391.282590;12.347696
31391.299551;10.591365
31391.310554;11.938923
31391.327604;11.141867
31391.338827;10.583439
31391.355557;11.596718
31391.366564;10.245177
31391.383607;10.748411
31391.403507;11.812485
31391.413614;10.739569
31391.424547;11.365862
31391.441669;11.833099
31391.459454;11.132029
31391.469548;11.175936
31391.487479;11.445624
31391.497614;10.660846
31391.508632;11.324906
31391.525660;10.797823
31391.536611;10.748443
31391.553735;10.508088
31391.564665;10.360975
31391.581497;10.050712
31391.592396;10.614636
31391.609527;9.929352
31391.620408;10.273830
31391.637603;9.897081
31391.655420;10.443184
31391.665537;10.742543
31391.676428;10.226307
31391.693530;10.983127
31391.704469;10.781136
31391.721591;10.531904
31391.732579;10.802910
31391.749747;9.679870
31391.761749;9.878922
31391.779497;10.532612
31391.790499;9.790719
31391.807548;10.753954
31391.825492;10.501761
31391.835603;10.703841
31391.846633;10.991267
31391.863593;10.806850
31391.874556;10.477932
31391.891893;10.819677
31391.902920;10.368365
31391.919510;10.690454
31391.930579;9.982877
31391.947559;9.517203
31391.958496;9.858442
31391.975529;9.434959
31391.986455;9.267708
31392.003543;8.050082
31392.014534;9.714628
31392.031565;8.996750
31392.042390;9.132727
31392.059585;8.729062
31392.070453;9.478164
31392.087506;8.591709
31392.098437;7.383985
31392.115500;10.494186
31392.126530;9.107674
31392.143503;9.491773
31392.154449;11.131411
31392.171817;8.414089
31392.182760;9.215509
31392.199505;10.174375
31392.210444;7.726504
31392.227522;10.255306
31392.245467;8.027743
31392.255551;7.079266
31392.266474;11.245913
31392.283464;10.193732
31392.294404;6.817433
31392.311504;11.699505
31392.322636;9.827481
31392.339466;7.221822
31392.350511;11.662442
31392.367552;8.576521
31392.379232;7.152231
31392.397576;11.699499
31392.408489;9.176541
31392.425597;8.710246
31392.436517;12.599581
31392.453539;9.545893
31392.464514;8.872152
31392.481531;12.008641
31392.492470;11.117862
31392.509599;7.559634
31392.520524;13.242626
31392.537753;10.142600
31392.548717;7.337141
31392.565539;14.399491
31392.576479;12.741027
31392.593573;7.775972
31392.604486;14.293249
31392.621528;10.722092
31392.632478;6.722439
31392.649581;14.605142
31392.660595;10.433731
31392.677599;7.827890
31392.688523;14.285599
31392.705520;11.058367
31392.716476;9.740119
31392.733551;14.060903
31392.745623;11.170357
31392.763610;9.639509
31392.774663;13.702290
31392.791610;9.870535
31392.809405;11.376734
31392.819549;12.246139
31392.830593;9.069168
31392.847533;8.282824
31392.858586;11.120739
31392.875503;7.839721
31392.886565;7.696804
31392.903503;11.337123
31392.914549;8.464373
31392.931553;8.540843
31392.942470;11.673684
31392.959544;7.387118
31392.970589;7.563893
31392.987442;11.221747
31392.998532;6.311977
31393.015499;9.194332
31393.026361;10.219491
31393.043796;6.790375
31393.054828;11.732858
31393.071579;11.564127
31393.089395;6.654218
31393.099530;10.294884
31393.110587;9.753672
31393.127554;7.424589
31393.138547;11.701330
31393.155692;10.129732
31393.173394;6.311442
31393.183505;9.959889
31393.201397;9.590165
31393.211550;6.371174
31393.222714;8.682488
31393.239784;9.985692
31393.250804;7.890270
31393.267555;10.503328
31393.278571;11.102280
31393.295557;6.980385
31393.306601;8.842317
31393.323544;10.426261
31393.334511;7.019301
31393.351548;10.601330
31393.363177;11.634956
31393.381620;7.682612
31393.392584;11.610518
31393.409616;10.838647
31393.420570;7.734571
31393.437625;12.841711
31393.448638;11.522468
31393.465539;7.420734
31393.476495;11.983367
31393.493587;11.020436
31393.504549;7.998887
31393.521845;12.533236
31393.532830;11.370652
31393.549514;7.405929
31393.560444;12.100855
31393.577260;10.002584
31393.588541;7.758525
31393.605511;12.704370
31393.616486;10.271176
31393.633520;8.432732
31393.644509;12.762665
31393.661670;10.585195
31393.679418;8.230071
31393.689580;12.719370
31393.707401;10.390173
31393.717552;7.572742
31393.729427;12.844802
31393.747541;9.148521
31393.758409;7.370202
31393.775531;12.169065
31393.786363;9.586688
31393.803532;7.263066
31393.814471;12.179181
31393.831542;9.478757
31393.842433;8.231672
31393.859537;13.068721
31393.870392;10.452380
31393.887505;7.830620
31393.905448;12.796341
31393.915558;9.619982
31393.926451;8.070963
31393.943543;12.721748
31393.954494;9.016253
31393.971540;7.582985
31393.989390;12.003684
31393.999558;9.010267
31394.010570;7.525546
31394.027605;11.952557
31394.045461;8.629545
31394.055553;7.131539
31394.073409;11.622447
31394.083498;8.608743
31394.094445;8.282503
31394.111548;11.110461
31394.122405;8.226504
31394.139730;7.162100
31394.150644;10.086806
31394.167491;8.809256
31394.178314;7.387433
31394.195482;11.788367
31394.206676;9.769155
31394.223516;8.283854
31394.234397;9.081327
31394.251558;10.549959
31394.262401;8.762173
31394.279551;9.233416
31394.290467;12.854980
31394.307503;9.282219
31394.318438;9.277282
31394.335532;13.508502
31394.346884;9.375280
31394.363589;9.234333
31394.374480;11.964513
31394.391549;9.554027
31394.402413;9.233491
31394.419474;11.372978
31394.430645;10.780835
31394.447502;9.729970
31394.458499;11.067627
31394.475576;11.012051
31394.486551;9.108977
31394.503486;9.020149
31394.514453;11.581014
31394.531608;9.299638
31394.542642;9.295646
31394.559558;11.302607
31394.570571;10.827033
31394.587548;8.802518
31394.598613;11.594920
31394.615541;11.324157
31394.626584;8.502098
31394.643837;10.945593
31394.661411;11.126244
31394.671574;10.254279
31394.689455;12.007017
31394.699544;14.294884
31394.710580;11.280765
31394.727563;9.986775
31394.738618;12.638946
31394.755809;11.346461
31394.766834;11.519911
31394.783546;11.600584
31394.794630;12.876168
31394.811506;9.786900
31394.822598;9.332084
31394.839751;11.799680
31394.857719;8.302624
31394.867797;7.779942
31394.878895;10.391262
31394.895484;7.544593
31394.906724;6.055691
31394.923450;7.580554
31394.934565;6.878565
31394.951467;7.974803
31394.963623;9.658207
31394.981520;9.612478
31394.992522;8.432991
31395.009648;10.136484
31395.020633;10.785432
31395.037602;9.052610
31395.048670;8.301952
31395.065444;10.822262
31395.076449;8.621758
31395.093616;9.167908
31395.104636;10.868196
31395.121526;10.146919
31395.139450;9.525565
31395.149615;11.503102
31395.167410;10.571585
31395.177570;9.491702
31395.195462;11.010037
31395.205572;9.221302
31395.223468;9.152628
31395.233584;11.465189
31395.251425;8.357576
31395.261551;9.952056
31395.272565;11.622116
31395.289524;10.610733
31395.307383;9.570597
31395.317506;7.742719
31395.328603;10.877552
31395.345567;11.042404
31395.356620;9.035270
31395.373818;10.887508
31395.384873;10.988856
31395.401505;9.899090
31395.412517;12.070644
31395.429510;9.562642
31395.440772;9.815541
31395.457599;12.665966
31395.468622;9.793957
31395.485497;10.977049
31395.503453;11.157959
31395.513601;9.794136
31395.531380;9.742015
31395.541520;11.091954
31395.559465;10.199748
31395.569543;11.131359
31395.587445;12.710931
31395.597588;10.965741
31395.608586;9.976749
31395.625652;9.680800
31395.643396;11.575776
31395.653543;13.947702
31395.671439;7.001510
31395.681541;11.123359
31395.692545;13.540291
31395.709639;10.999407
31395.727435;10.175131
31395.737534;8.128059
31395.755402;10.528856
31395.765546;12.655003
31395.783450;7.963318
31395.793597;11.846095
31395.811432;9.323289
31395.821554;10.572404
31395.832611;12.691840
31395.849567;9.223974
31395.860623;9.328769
31395.877584;7.879610
31395.895497;10.776661
31395.905615;12.263735
31395.916657;8.465990
31395.933591;11.821328
31395.944593;8.390536
31395.961629;10.255965
31395.972590;6.576521
31395.990098;10.489396
31396.001159;13.402528
31396.019509;5.342319
31396.039434;7.426029
31396.049563;14.166387
31396.060550;8.833338
31396.077518;10.629013
31396.088597;8.187998
31396.105458;10.721852
31396.123362;10.680791
31396.133459;5.219218
31396.144496;9.814444
31396.161483;13.385602
31396.172495;10.056304
31396.189448;11.222031
31396.207363;12.875276
31396.217490;10.338146
31396.228471;11.946529
31396.245585;5.656451
31396.263488;11.062755
31396.273605;10.887745
31396.284521;10.778135
31396.301579;12.785866
31396.312883;9.160403
31396.329547;10.712971
31396.340569;3.876856
31396.357763;8.805284
31396.375427;10.574576
31396.385592;4.220345
31396.396676;10.495214
31396.413487;9.605889
31396.431466;6.276686
31396.441656;12.690661
31396.459462;9.769677
31396.469590;10.640513
31396.487457;12.993675
31396.497598;6.802055
31396.508711;11.981754
31396.525527;5.240932
31396.543431;9.775204
31396.553580;11.188331
31396.564823;6.476465
31396.581524;12.836873
31396.592479;10.265442
31396.609528;11.609637
31396.620476;8.374105
31396.637448;9.453368
31396.655384;12.000420
31396.665631;8.016441
31396.683419;10.626550
31396.693578;12.622158
31396.711355;6.284895
31396.721447;13.411444
31396.732426;7.194923
31396.749428;11.279036
31396.760314;11.695623
31396.777506;10.009050
31396.788462;10.957135
31396.805406;8.057652
31396.816523;12.200173
31396.833439;6.766035
31396.844407;9.574697
31396.861493;8.984341
31396.872464;7.575401
31396.889496;10.265958
31396.907361;7.160042
31396.917527;12.176784
31396.935388;9.408548
31396.945520;11.922648
31396.956488;7.261666
31396.973980;10.405368
31396.984907;9.293620
31397.001510;10.232306
31397.019371;13.083831
31397.029500;8.409220
31397.040458;12.308332
31397.057706;7.499210
31397.075367;11.393422
31397.085478;8.753042
31397.103376;10.475570
31397.113516;10.401466
31397.131363;8.366667
31397.141499;10.573529
31397.159415;6.742078
31397.169524;12.219385
31397.181668;8.507372
31397.199576;11.918288
31397.210608;8.176348
31397.227496;12.319341
31397.238516;6.730058
31397.255501;11.001481
31397.266535;7.807876
31397.283485;9.804934
31397.294471;12.088882
31397.311518;7.897272
31397.322535;11.816385
31397.339558;7.515791
31397.350581;12.040243
31397.367482;7.162720
31397.378491;11.920563
31397.395516;8.383847
31397.406558;8.973488
31397.423674;10.006849
31397.434745;11.205833
31397.451537;10.622228
31397.462550;9.120665
31397.479490;12.162841
31397.490546;7.671878
31397.507504;11.460239
31397.518406;8.065782
31397.535480;10.649980
31397.547184;10.314636
31397.565528;7.292879
31397.576333;11.767185
31397.593526;7.964353
31397.604378;11.121493
31397.621519;11.310275
31397.632551;9.506124
31397.649451;12.376117
31397.667499;10.651912
31397.677652;11.080665
31397.688609;9.133861
31397.705480;10.220573
31397.716479;11.335754
31397.733528;8.431928
31397.744479;10.073887
31397.761551;8.483956
31397.772515;7.168637
31397.789496;11.782537
31397.800463;7.338987
31397.817406;11.604864
31397.828438;12.224004
31397.845592;7.446624
31397.856710;11.025600
31397.873545;9.206357
31397.884620;9.016413
31397.901561;10.467364
31397.912600;7.776480
31397.929538;11.477657
31397.940523;7.641179
31397.957908;8.676713
31397.965512;7.865633
31397.985508;7.446279
31397.997038;11.101183
31398.015505;9.293072
31398.026475;7.781077
31398.043503;11.550519
31398.054583;7.771583
31398.071493;10.509121
31398.082529;10.020668
31398.099450;7.452761
31398.110524;11.601019
31398.127442;8.937557
31398.138493;9.443655
31398.155396;11.153327
31398.166698;7.924108
31398.183468;9.728500
31398.194519;10.178504
31398.211666;8.633720
31398.229411;9.682736
31398.239541;11.037580
31398.250613;10.206119
31398.267454;11.702396
31398.278475;9.005858
31398.295506;10.375572
31398.306553;10.330410
31398.323583;8.856103
31398.334534;11.585394
31398.351454;9.904048
31398.362321;11.102221
31398.379470;10.899655
31398.390396;9.590363
31398.407855;11.292680
31398.418757;9.367761
31398.435445;10.099287
31398.446363;10.543674
31398.463439;8.673543
31398.474393;10.904405
31398.491461;10.157614
31398.502349;8.365561
31398.519454;10.463762
31398.530445;10.601517
31398.547492;9.350984
31398.558706;10.273905
31398.575516;9.333241
31398.586451;10.998787
31398.603487;10.225044
31398.623380;10.327712
31398.633480;10.379800
31398.644388;10.281974
31398.661572;9.933005
31398.672552;10.510784
31398.689454;10.322610
31398.700520;10.148998
31398.717483;10.355617
31398.728445;10.407433
31398.745576;10.391888
31398.756578;10.229837
31398.773620;10.376636
31398.784661;10.165351
31398.801500;10.000520
31398.812536;10.007933
31398.829535;9.971025
31398.847409;9.947797
31398.857533;9.779601
31398.875433;9.662602
31398.885534;9.842298
31398.903473;9.394285
31398.913602;9.439677
31398.931460;9.244761
31398.941601;9.232542
31398.952644;9.021596
31398.969460;8.991615
31398.981017;9.006224
31398.997484;8.846072
31399.008529;8.848320
31399.025721;8.664616
31399.043400;8.683401
31399.053529;8.491630
31399.064437;8.228665
31399.081717;8.134869
31399.092760;7.941353
31399.109401;7.741947
31399.120357;7.754289
31399.137449;7.530487
31399.148312;7.454694
31399.165485;7.688321
31399.183317;7.369539
31399.193464;7.551798
31399.204375;7.735854
31399.221462;8.274446
31399.232902;8.287590
31399.249494;8.199295
31399.260357;10.435506
31399.277504;9.991623
31399.295321;10.114406
31399.305463;10.727387
31399.316310;11.494967
31399.333485;11.226460
31399.344406;10.907799
31399.361493;9.372651
31399.379312;8.797397
31399.389450;7.938112
31399.407344;7.757842
31399.417474;8.522680
31399.435413;7.695769
31399.445539;7.329429
31399.456545;5.979777
31399.473430;8.002988
31399.484370;-7.129757
