x;y;z
0.423480;-0.570491;0.042918
0.423721;-0.570098;0.042828
0.423787;-0.569967;0.042802
0.423956;-0.569830;0.042803
0.423963;-0.569894;0.042864
0.424010;-0.569927;0.042893
0.424051;-0.570060;0.042962
0.424189;-0.570263;0.043004
0.424293;-0.570464;0.043003
0.424383;-0.570574;0.043010
0.424534;-0.570710;0.043035
0.424725;-0.570828;0.043058
0.424835;-0.570924;0.043032
0.424968;-0.570910;0.043054
0.425196;-0.570745;0.043045
0.425310;-0.570620;0.043042
0.425356;-0.570503;0.043013
0.425390;-0.570303;0.043001
0.425441;-0.570006;0.042996
0.425414;-0.569710;0.043056
0.425298;-0.569355;0.043047
0.425090;-0.569035;0.043051
0.424946;-0.568674;0.043077
0.424718;-0.568315;0.043071
0.424462;-0.568015;0.043089
0.424066;-0.567722;0.043142
0.423859;-0.567605;0.043146
0.423453;-0.567499;0.043141
0.422930;-0.567532;0.043104
0.422526;-0.567656;0.043092
0.422282;-0.567743;0.043110
0.421686;-0.568058;0.043096
0.421380;-0.568195;0.043064
0.420975;-0.568510;0.043085
0.420583;-0.568830;0.043112
0.420151;-0.569246;0.043155
0.419961;-0.569466;0.043167
0.419762;-0.569809;0.043169
0.419643;-0.570180;0.043178
0.419551;-0.570569;0.043168
0.419509;-0.570992;0.043159
0.419490;-0.571472;0.043161
0.419547;-0.571951;0.043151
0.419611;-0.572403;0.043103
0.419722;-0.572841;0.043104
0.419901;-0.573261;0.043085
0.420121;-0.573652;0.043041
0.420333;-0.574027;0.043013
0.420534;-0.574372;0.042967
0.420786;-0.574733;0.043028
0.421057;-0.575026;0.043031
0.421355;-0.575320;0.043038
0.421691;-0.575543;0.043013
0.422082;-0.575729;0.042962
0.422508;-0.575892;0.042958
0.423167;-0.576008;0.042954
0.423432;-0.576025;0.042955
0.423889;-0.576038;0.042930
0.424351;-0.575998;0.042926
0.424852;-0.575943;0.042977
0.425449;-0.575786;0.042920
0.425769;-0.575697;0.042951
0.426125;-0.575598;0.042944
0.426486;-0.575449;0.042937
0.426998;-0.575184;0.042957
0.427319;-0.574964;0.042958
0.427558;-0.574792;0.042947
0.427903;-0.574521;0.042942
0.428232;-0.574251;0.042919
0.428548;-0.573943;0.042921
0.428968;-0.573457;0.042915
0.429147;-0.573169;0.042900
0.429286;-0.572923;0.042921
0.429501;-0.572360;0.042914
0.429591;-0.572060;0.042950
0.429726;-0.571591;0.042961
0.429789;-0.571139;0.042953
0.429837;-0.570484;0.042953
0.429857;-0.570175;0.042967
0.429807;-0.569727;0.043001
0.429760;-0.569121;0.043044
0.429686;-0.568641;0.043022
0.429596;-0.568288;0.043009
0.429498;-0.567996;0.042956
0.429313;-0.567631;0.042980
0.429149;-0.567235;0.043020
0.428930;-0.566843;0.043011
0.428748;-0.566474;0.043071
0.428522;-0.566132;0.043072
0.428301;-0.565771;0.043059
0.428067;-0.565394;0.043036
0.427788;-0.565114;0.043089
0.427489;-0.564813;0.043082
0.426987;-0.564433;0.043060
0.426787;-0.564330;0.043072
0.426411;-0.564152;0.043070
0.426000;-0.563991;0.043085
0.425405;-0.563815;0.043096
0.424870;-0.563714;0.043103
0.424458;-0.563662;0.043085
0.424116;-0.563624;0.043081
0.423692;-0.563620;0.043117
0.423250;-0.563587;0.043094
0.422862;-0.563535;0.043108
0.422438;-0.563537;0.043135
0.422031;-0.563588;0.043122
0.421632;-0.563646;0.043129
0.421042;-0.563816;0.043156
0.420728;-0.563895;0.043124
0.420158;-0.564130;0.043143
0.419740;-0.564356;0.043177
0.419332;-0.564553;0.043132
0.419055;-0.564709;0.043120
0.418652;-0.564991;0.043121
0.418338;-0.565264;0.043167
0.417859;-0.565629;0.043205
0.417600;-0.565826;0.043176
0.417278;-0.566114;0.043201
0.416928;-0.566488;0.043218
0.416653;-0.566857;0.043289
0.416388;-0.567256;0.043284
0.416163;-0.567681;0.043269
0.416006;-0.568107;0.043273
0.415817;-0.568718;0.043277
0.415760;-0.569022;0.043270
0.415646;-0.569592;0.043195
0.415546;-0.570078;0.043165
0.415505;-0.570456;0.043093
0.415455;-0.570711;0.043083
0.415428;-0.571290;0.043070
0.415440;-0.571504;0.043065
0.415448;-0.571928;0.043047
0.415464;-0.572337;0.043069
0.415520;-0.572891;0.043125
0.415569;-0.573118;0.043113
0.415660;-0.573526;0.043138
0.415761;-0.573919;0.043107
0.415912;-0.574327;0.043145
0.416050;-0.574750;0.043107
0.416247;-0.575147;0.043115
0.416550;-0.575654;0.043093
0.416659;-0.575863;0.043080
0.416966;-0.576466;0.043075
0.417089;-0.576670;0.043088
0.417364;-0.577002;0.043055
0.417608;-0.577387;0.043045
0.417914;-0.577728;0.043057
0.418383;-0.578133;0.043020
0.418609;-0.578311;0.043007
0.419123;-0.578613;0.042928
0.419412;-0.578756;0.042941
0.419957;-0.579027;0.042965
0.420277;-0.579128;0.042971
0.420687;-0.579295;0.042928
0.421142;-0.579429;0.042930
0.421575;-0.579556;0.042878
0.422006;-0.579694;0.042897
0.422442;-0.579813;0.042921
0.422807;-0.579913;0.042902
0.423276;-0.579973;0.042945
0.423729;-0.579992;0.042921
0.424197;-0.580004;0.042943
0.424833;-0.579968;0.042922
0.425180;-0.579924;0.042936
0.425879;-0.579823;0.042966
0.426316;-0.579715;0.042948
0.426752;-0.579615;0.042965
0.427035;-0.579535;0.042940
0.427482;-0.579397;0.042947
0.427920;-0.579239;0.042987
0.428340;-0.579057;0.042985
0.428932;-0.578748;0.042957
0.429204;-0.578589;0.042944
0.429604;-0.578318;0.042946
0.430123;-0.577944;0.042957
0.430542;-0.577632;0.042934
0.430793;-0.577439;0.042948
0.431144;-0.577137;0.042933
0.431586;-0.576700;0.042892
0.431880;-0.576347;0.042869
0.432057;-0.576116;0.042854
0.432387;-0.575666;0.042873
0.432654;-0.575227;0.042873
0.432896;-0.574753;0.042904
0.433101;-0.574250;0.042912
0.433275;-0.573730;0.042921
0.433416;-0.573218;0.042919
0.433563;-0.572749;0.042996
0.433676;-0.572323;0.043057
0.433758;-0.571885;0.043065
0.433825;-0.571466;0.043080
0.433887;-0.571050;0.043047
0.433902;-0.570649;0.042980
0.433940;-0.570278;0.042950
0.433945;-0.569782;0.042944
0.433917;-0.569590;0.042983
0.433870;-0.569232;0.042994
0.433826;-0.568825;0.042956
0.433774;-0.568414;0.042957
0.433726;-0.568081;0.043007
0.433620;-0.567676;0.042974
0.433530;-0.567294;0.042967
0.433367;-0.566894;0.042905
0.433230;-0.566512;0.042984
0.433104;-0.566159;0.043015
0.432941;-0.565743;0.042995
0.432684;-0.565231;0.042981
0.432479;-0.564835;0.042950
0.432358;-0.564628;0.043025
0.432162;-0.564246;0.043029
0.431906;-0.563859;0.043020
0.431700;-0.563513;0.043062
0.431496;-0.563168;0.043074
0.431263;-0.562827;0.043033
0.430865;-0.562371;0.043023
0.430705;-0.562210;0.043078
